(export (version D)
  (design
    (source C:\Users\lui\Desktop\shipping\Learning\UC\vent\electrical\SensorCombined\SensorCombined.sch)
    (date "4/06/2020 13:55:52")
    (tool "Eeschema (5.1.2)-2")
    (sheet (number 1) (name /) (tstamps /)
      (title_block
        (title)
        (company)
        (rev)
        (date)
        (source SensorCombined.sch)
        (comment (number 1) (value ""))
        (comment (number 2) (value ""))
        (comment (number 3) (value ""))
        (comment (number 4) (value "")))))
  (components
    (comp (ref U1)
      (value MPXA6115A)
      (footprint misc-components:DIP-8_W13.97mm_LongPads)
      (datasheet http://www.nxp.com/files/sensors/doc/data_sheet/MPXA6115A.pdf)
      (libsource (lib Sensor_Pressure) (part MPXA6115A) (description "Absolute pressure sensor, 15 to 115kPa, analog output, integrated signal conditioning, temperature compensated, SO package"))
      (sheetpath (names /) (tstamps /))
      (tstamp 5ECF4E00))
    (comp (ref H1)
      (value MountingHole)
      (footprint Mounting_Holes:MountingHole_4.3mm_M4)
      (datasheet ~)
      (libsource (lib Mechanical) (part MountingHole) (description "Mounting Hole without connection"))
      (sheetpath (names /) (tstamps /))
      (tstamp 5ECF6563))
    (comp (ref H3)
      (value MountingHole)
      (footprint Mounting_Holes:MountingHole_4.3mm_M4)
      (datasheet ~)
      (libsource (lib Mechanical) (part MountingHole) (description "Mounting Hole without connection"))
      (sheetpath (names /) (tstamps /))
      (tstamp 5ECF7F61))
    (comp (ref H4)
      (value MountingHole)
      (footprint Mounting_Holes:MountingHole_4.3mm_M4)
      (datasheet ~)
      (libsource (lib Mechanical) (part MountingHole) (description "Mounting Hole without connection"))
      (sheetpath (names /) (tstamps /))
      (tstamp 5ECF7F67))
    (comp (ref C1)
      (value C)
      (footprint Capacitors_SMD:C_0805_HandSoldering)
      (datasheet ~)
      (libsource (lib Device) (part C) (description "Unpolarized capacitor"))
      (sheetpath (names /) (tstamps /))
      (tstamp 5ECFCC25))
    (comp (ref C3)
      (value C)
      (footprint Capacitors_SMD:C_0805_HandSoldering)
      (datasheet ~)
      (libsource (lib Device) (part C) (description "Unpolarized capacitor"))
      (sheetpath (names /) (tstamps /))
      (tstamp 5ECFEB6B))
    (comp (ref J1)
      (value Conn_01x04_Female)
      (footprint misc-components:SDP816)
      (datasheet ~)
      (libsource (lib Connector) (part Conn_01x04_Female) (description "Generic connector, single row, 01x04, script generated (kicad-library-utils/schlib/autogen/connector/)"))
      (sheetpath (names /) (tstamps /))
      (tstamp 5ECFF215))
    (comp (ref J3)
      (value Conn_01x04_Male)
      (footprint Pin_Headers:Pin_Header_Straight_1x04_Pitch2.54mm)
      (datasheet ~)
      (libsource (lib Connector) (part Conn_01x04_Male) (description "Generic connector, single row, 01x04, script generated (kicad-library-utils/schlib/autogen/connector/)"))
      (sheetpath (names /) (tstamps /))
      (tstamp 5ED07305))
    (comp (ref C4)
      (value C)
      (footprint Capacitors_SMD:C_0805_HandSoldering)
      (datasheet ~)
      (libsource (lib Device) (part C) (description "Unpolarized capacitor"))
      (sheetpath (names /) (tstamps /))
      (tstamp 5ED09F48))
    (comp (ref C2)
      (value C)
      (footprint Capacitors_SMD:C_0805_HandSoldering)
      (datasheet ~)
      (libsource (lib Device) (part C) (description "Unpolarized capacitor"))
      (sheetpath (names /) (tstamps /))
      (tstamp 5ED0A336))
    (comp (ref J2)
      (value Conn_01x03_Male)
      (footprint Pin_Headers:Pin_Header_Straight_1x03_Pitch2.54mm)
      (datasheet ~)
      (libsource (lib Connector) (part Conn_01x03_Male) (description "Generic connector, single row, 01x03, script generated (kicad-library-utils/schlib/autogen/connector/)"))
      (sheetpath (names /) (tstamps /))
      (tstamp 5ED0CF45))
    (comp (ref J4)
      (value Conn_01x03_Male)
      (footprint Pin_Headers:Pin_Header_Straight_1x03_Pitch2.54mm)
      (datasheet ~)
      (libsource (lib Connector) (part Conn_01x03_Male) (description "Generic connector, single row, 01x03, script generated (kicad-library-utils/schlib/autogen/connector/)"))
      (sheetpath (names /) (tstamps /))
      (tstamp 5ED14183))
    (comp (ref L1)
      (value L)
      (footprint Inductors_SMD:L_0805_HandSoldering)
      (datasheet ~)
      (libsource (lib Device) (part L) (description Inductor))
      (sheetpath (names /) (tstamps /))
      (tstamp 5ED162F3))
    (comp (ref C6)
      (value C)
      (footprint Capacitors_SMD:C_0805_HandSoldering)
      (datasheet ~)
      (libsource (lib Device) (part C) (description "Unpolarized capacitor"))
      (sheetpath (names /) (tstamps /))
      (tstamp 5ED16E25))
    (comp (ref C5)
      (value C)
      (footprint Capacitors_SMD:C_0805_HandSoldering)
      (datasheet ~)
      (libsource (lib Device) (part C) (description "Unpolarized capacitor"))
      (sheetpath (names /) (tstamps /))
      (tstamp 5ED18403))
    (comp (ref J5)
      (value Conn_01x03_Male)
      (footprint Pin_Headers:Pin_Header_Straight_1x03_Pitch2.54mm)
      (datasheet ~)
      (libsource (lib Connector) (part Conn_01x03_Male) (description "Generic connector, single row, 01x03, script generated (kicad-library-utils/schlib/autogen/connector/)"))
      (sheetpath (names /) (tstamps /))
      (tstamp 5ED95541)))
  (libparts
    (libpart (lib Connector) (part Conn_01x03_Male)
      (description "Generic connector, single row, 01x03, script generated (kicad-library-utils/schlib/autogen/connector/)")
      (docs ~)
      (footprints
        (fp Connector*:*_1x??_*))
      (fields
        (field (name Reference) J)
        (field (name Value) Conn_01x03_Male))
      (pins
        (pin (num 1) (name Pin_1) (type passive))
        (pin (num 2) (name Pin_2) (type passive))
        (pin (num 3) (name Pin_3) (type passive))))
    (libpart (lib Connector) (part Conn_01x04_Female)
      (description "Generic connector, single row, 01x04, script generated (kicad-library-utils/schlib/autogen/connector/)")
      (docs ~)
      (footprints
        (fp Connector*:*_1x??_*))
      (fields
        (field (name Reference) J)
        (field (name Value) Conn_01x04_Female))
      (pins
        (pin (num 1) (name Pin_1) (type passive))
        (pin (num 2) (name Pin_2) (type passive))
        (pin (num 3) (name Pin_3) (type passive))
        (pin (num 4) (name Pin_4) (type passive))))
    (libpart (lib Connector) (part Conn_01x04_Male)
      (description "Generic connector, single row, 01x04, script generated (kicad-library-utils/schlib/autogen/connector/)")
      (docs ~)
      (footprints
        (fp Connector*:*_1x??_*))
      (fields
        (field (name Reference) J)
        (field (name Value) Conn_01x04_Male))
      (pins
        (pin (num 1) (name Pin_1) (type passive))
        (pin (num 2) (name Pin_2) (type passive))
        (pin (num 3) (name Pin_3) (type passive))
        (pin (num 4) (name Pin_4) (type passive))))
    (libpart (lib Device) (part C)
      (description "Unpolarized capacitor")
      (docs ~)
      (footprints
        (fp C_*))
      (fields
        (field (name Reference) C)
        (field (name Value) C))
      (pins
        (pin (num 1) (name ~) (type passive))
        (pin (num 2) (name ~) (type passive))))
    (libpart (lib Device) (part L)
      (description Inductor)
      (docs ~)
      (footprints
        (fp Choke_*)
        (fp *Coil*)
        (fp Inductor_*)
        (fp L_*))
      (fields
        (field (name Reference) L)
        (field (name Value) L))
      (pins
        (pin (num 1) (name 1) (type passive))
        (pin (num 2) (name 2) (type passive))))
    (libpart (lib Mechanical) (part MountingHole)
      (description "Mounting Hole without connection")
      (docs ~)
      (footprints
        (fp MountingHole*))
      (fields
        (field (name Reference) H)
        (field (name Value) MountingHole)))
    (libpart (lib Sensor_Pressure) (part MPXA6115A)
      (aliases
        (alias MPXAZ6115A)
        (alias MPXH6115A)
        (alias MPXHZ6115A))
      (description "Absolute pressure sensor, 15 to 115kPa, analog output, integrated signal conditioning, temperature compensated, SO package")
      (docs http://www.nxp.com/files/sensors/doc/data_sheet/MPXA6115A.pdf)
      (fields
        (field (name Reference) U)
        (field (name Value) MPXA6115A))
      (pins
        (pin (num 1) (name NC) (type NotConnected))
        (pin (num 2) (name Vcc) (type power_in))
        (pin (num 3) (name GND) (type power_in))
        (pin (num 4) (name Vout) (type output))
        (pin (num 5) (name NC) (type NotConnected))
        (pin (num 6) (name NC) (type NotConnected))
        (pin (num 7) (name NC) (type NotConnected))
        (pin (num 8) (name NC) (type NotConnected)))))
  (libraries
    (library (logical Connector)
      (uri "C:\\Program Files\\KiCad\\share\\kicad\\library/Connector.lib"))
    (library (logical Device)
      (uri "C:\\Program Files\\KiCad\\share\\kicad\\library/Device.lib"))
    (library (logical Mechanical)
      (uri "C:\\Program Files\\KiCad\\share\\kicad\\library/Mechanical.lib"))
    (library (logical Sensor_Pressure)
      (uri "C:\\Program Files\\KiCad\\share\\kicad\\library/Sensor_Pressure.lib")))
  (nets
    (net (code 1) (name /filtOut)
      (node (ref C6) (pin 1))
      (node (ref J4) (pin 3))
      (node (ref L1) (pin 2)))
    (net (code 2) (name /vin)
      (node (ref L1) (pin 1))
      (node (ref J5) (pin 2))
      (node (ref C5) (pin 1))
      (node (ref J3) (pin 2))
      (node (ref J4) (pin 1)))
    (net (code 3) (name VCC)
      (node (ref C3) (pin 1))
      (node (ref J4) (pin 2))
      (node (ref J2) (pin 1))
      (node (ref C1) (pin 1))
      (node (ref J1) (pin 2))
      (node (ref U1) (pin 2)))
    (net (code 4) (name GND)
      (node (ref C4) (pin 2))
      (node (ref J3) (pin 1))
      (node (ref U1) (pin 3))
      (node (ref J1) (pin 3))
      (node (ref C1) (pin 2))
      (node (ref C2) (pin 2))
      (node (ref J2) (pin 3))
      (node (ref J5) (pin 1))
      (node (ref C3) (pin 2))
      (node (ref C5) (pin 2))
      (node (ref C6) (pin 2)))
    (net (code 5) (name /OCS)
      (node (ref J1) (pin 1))
      (node (ref J2) (pin 2)))
    (net (code 6) (name /q_vout)
      (node (ref J3) (pin 4))
      (node (ref J1) (pin 4))
      (node (ref J5) (pin 3))
      (node (ref C4) (pin 1)))
    (net (code 7) (name "Net-(U1-Pad8)")
      (node (ref U1) (pin 8)))
    (net (code 8) (name "Net-(U1-Pad7)")
      (node (ref U1) (pin 7)))
    (net (code 9) (name "Net-(U1-Pad6)")
      (node (ref U1) (pin 6)))
    (net (code 10) (name "Net-(U1-Pad5)")
      (node (ref U1) (pin 5)))
    (net (code 11) (name /p_vout)
      (node (ref J3) (pin 3))
      (node (ref U1) (pin 4))
      (node (ref C2) (pin 1)))
    (net (code 12) (name "Net-(U1-Pad1)")
      (node (ref U1) (pin 1)))))