EESchema Schematic File Version 4
LIBS:SensorCombined-cache
EELAYER 29 0
EELAYER END
$Descr A4 11693 8268
encoding utf-8
Sheet 1 1
Title ""
Date ""
Rev ""
Comp ""
Comment1 ""
Comment2 ""
Comment3 ""
Comment4 ""
$EndDescr
$Comp
L Sensor_Pressure:MPXA6115A U1
U 1 1 5ECF4E00
P 1850 1350
F 0 "U1" H 1421 1396 50  0000 R CNN
F 1 "MPXA6115A" H 1421 1305 50  0000 R CNN
F 2 "misc-components:DIP-8_W13.97mm_LongPads" H 1350 1000 50  0001 C CNN
F 3 "http://www.nxp.com/files/sensors/doc/data_sheet/MPXA6115A.pdf" H 1850 1950 50  0001 C CNN
	1    1850 1350
	1    0    0    -1  
$EndComp
$Comp
L power:VCC #PWR0101
U 1 1 5ECF61A9
P 1850 1050
F 0 "#PWR0101" H 1850 900 50  0001 C CNN
F 1 "VCC" H 1867 1223 50  0000 C CNN
F 2 "" H 1850 1050 50  0001 C CNN
F 3 "" H 1850 1050 50  0001 C CNN
	1    1850 1050
	1    0    0    -1  
$EndComp
Text Label 2250 1350 0    50   ~ 0
p_vout
$Comp
L power:GND #PWR0102
U 1 1 5ECF6305
P 1850 1650
F 0 "#PWR0102" H 1850 1400 50  0001 C CNN
F 1 "GND" H 1855 1477 50  0000 C CNN
F 2 "" H 1850 1650 50  0001 C CNN
F 3 "" H 1850 1650 50  0001 C CNN
	1    1850 1650
	1    0    0    -1  
$EndComp
$Comp
L Mechanical:MountingHole H1
U 1 1 5ECF6563
P 800 6900
F 0 "H1" H 900 6946 50  0000 L CNN
F 1 "MountingHole" H 900 6855 50  0000 L CNN
F 2 "Mounting_Holes:MountingHole_4.3mm_M4" H 800 6900 50  0001 C CNN
F 3 "~" H 800 6900 50  0001 C CNN
	1    800  6900
	1    0    0    -1  
$EndComp
$Comp
L Mechanical:MountingHole H3
U 1 1 5ECF7F61
P 800 7300
F 0 "H3" H 900 7346 50  0000 L CNN
F 1 "MountingHole" H 900 7255 50  0000 L CNN
F 2 "Mounting_Holes:MountingHole_4.3mm_M4" H 800 7300 50  0001 C CNN
F 3 "~" H 800 7300 50  0001 C CNN
	1    800  7300
	1    0    0    -1  
$EndComp
$Comp
L Mechanical:MountingHole H4
U 1 1 5ECF7F67
P 800 7500
F 0 "H4" H 900 7546 50  0000 L CNN
F 1 "MountingHole" H 900 7455 50  0000 L CNN
F 2 "Mounting_Holes:MountingHole_4.3mm_M4" H 800 7500 50  0001 C CNN
F 3 "~" H 800 7500 50  0001 C CNN
	1    800  7500
	1    0    0    -1  
$EndComp
$Comp
L power:VCC #PWR0103
U 1 1 5ECFC68B
P 2800 1250
F 0 "#PWR0103" H 2800 1100 50  0001 C CNN
F 1 "VCC" H 2817 1423 50  0000 C CNN
F 2 "" H 2800 1250 50  0001 C CNN
F 3 "" H 2800 1250 50  0001 C CNN
	1    2800 1250
	1    0    0    -1  
$EndComp
$Comp
L Device:C C1
U 1 1 5ECFCC25
P 2800 1400
F 0 "C1" H 2915 1446 50  0000 L CNN
F 1 "C" H 2915 1355 50  0000 L CNN
F 2 "Capacitors_SMD:C_0805_HandSoldering" H 2838 1250 50  0001 C CNN
F 3 "~" H 2800 1400 50  0001 C CNN
	1    2800 1400
	1    0    0    -1  
$EndComp
$Comp
L power:GND #PWR0104
U 1 1 5ECFD265
P 2800 1550
F 0 "#PWR0104" H 2800 1300 50  0001 C CNN
F 1 "GND" H 2805 1377 50  0000 C CNN
F 2 "" H 2800 1550 50  0001 C CNN
F 3 "" H 2800 1550 50  0001 C CNN
	1    2800 1550
	1    0    0    -1  
$EndComp
$Comp
L power:VCC #PWR0105
U 1 1 5ECFEB65
P 2850 3600
F 0 "#PWR0105" H 2850 3450 50  0001 C CNN
F 1 "VCC" H 2867 3773 50  0000 C CNN
F 2 "" H 2850 3600 50  0001 C CNN
F 3 "" H 2850 3600 50  0001 C CNN
	1    2850 3600
	1    0    0    -1  
$EndComp
$Comp
L Device:C C3
U 1 1 5ECFEB6B
P 2850 3750
F 0 "C3" H 2965 3796 50  0000 L CNN
F 1 "C" H 2965 3705 50  0000 L CNN
F 2 "Capacitors_SMD:C_0805_HandSoldering" H 2888 3600 50  0001 C CNN
F 3 "~" H 2850 3750 50  0001 C CNN
	1    2850 3750
	1    0    0    -1  
$EndComp
$Comp
L power:GND #PWR0106
U 1 1 5ECFEB71
P 2850 3900
F 0 "#PWR0106" H 2850 3650 50  0001 C CNN
F 1 "GND" H 2855 3727 50  0000 C CNN
F 2 "" H 2850 3900 50  0001 C CNN
F 3 "" H 2850 3900 50  0001 C CNN
	1    2850 3900
	1    0    0    -1  
$EndComp
$Comp
L Connector:Conn_01x04_Female J1
U 1 1 5ECFF215
P 1600 3700
F 0 "J1" H 1628 3676 50  0000 L CNN
F 1 "Conn_01x04_Female" H 1628 3585 50  0000 L CNN
F 2 "misc-components:SDP816" H 1600 3700 50  0001 C CNN
F 3 "~" H 1600 3700 50  0001 C CNN
	1    1600 3700
	1    0    0    -1  
$EndComp
Text Label 1400 3600 2    50   ~ 0
OCS
$Comp
L power:VCC #PWR0107
U 1 1 5ED006C2
P 1400 3700
F 0 "#PWR0107" H 1400 3550 50  0001 C CNN
F 1 "VCC" V 1418 3827 50  0000 L CNN
F 2 "" H 1400 3700 50  0001 C CNN
F 3 "" H 1400 3700 50  0001 C CNN
	1    1400 3700
	0    -1   -1   0   
$EndComp
$Comp
L power:GND #PWR0108
U 1 1 5ED00F9F
P 1400 3800
F 0 "#PWR0108" H 1400 3550 50  0001 C CNN
F 1 "GND" V 1405 3672 50  0000 R CNN
F 2 "" H 1400 3800 50  0001 C CNN
F 3 "" H 1400 3800 50  0001 C CNN
	1    1400 3800
	0    1    1    0   
$EndComp
Text Label 1400 3900 2    50   ~ 0
q_vout
Wire Notes Line
	1050 3450 1050 4050
Wire Notes Line
	1050 4050 2600 4050
Wire Notes Line
	2600 3450 1050 3450
Wire Notes Line
	2600 3450 2600 4050
Wire Notes Line
	1000 3400 1000 4100
Wire Notes Line
	1000 4100 2650 4100
Wire Notes Line
	2650 4100 2650 3400
Wire Notes Line
	2650 3400 1000 3400
Text Notes 1100 4200 0    50   ~ 0
This is actually the sensor!!
$Comp
L Connector:Conn_01x04_Male J3
U 1 1 5ED07305
P 1150 5750
F 0 "J3" H 1258 6031 50  0000 C CNN
F 1 "Conn_01x04_Male" H 1258 5940 50  0000 C CNN
F 2 "Pin_Headers:Pin_Header_Straight_1x04_Pitch2.54mm" H 1150 5750 50  0001 C CNN
F 3 "~" H 1150 5750 50  0001 C CNN
	1    1150 5750
	1    0    0    -1  
$EndComp
Text Label 1350 5750 0    50   ~ 0
vin
$Comp
L power:GND #PWR0109
U 1 1 5ED0830E
P 1450 5650
F 0 "#PWR0109" H 1450 5400 50  0001 C CNN
F 1 "GND" V 1455 5522 50  0000 R CNN
F 2 "" H 1450 5650 50  0001 C CNN
F 3 "" H 1450 5650 50  0001 C CNN
	1    1450 5650
	0    -1   -1   0   
$EndComp
Text Label 1350 5950 0    50   ~ 0
q_vout
Text Label 1350 5850 0    50   ~ 0
p_vout
Wire Wire Line
	1450 5650 1350 5650
Text Label 3250 3600 0    50   ~ 0
q_vout
Text Label 3200 1250 0    50   ~ 0
p_vout
$Comp
L Device:C C4
U 1 1 5ED09F48
P 3250 3750
F 0 "C4" H 3365 3796 50  0000 L CNN
F 1 "C" H 3365 3705 50  0000 L CNN
F 2 "Capacitors_SMD:C_0805_HandSoldering" H 3288 3600 50  0001 C CNN
F 3 "~" H 3250 3750 50  0001 C CNN
	1    3250 3750
	1    0    0    -1  
$EndComp
$Comp
L power:GND #PWR0110
U 1 1 5ED09F4E
P 3250 3900
F 0 "#PWR0110" H 3250 3650 50  0001 C CNN
F 1 "GND" H 3255 3727 50  0000 C CNN
F 2 "" H 3250 3900 50  0001 C CNN
F 3 "" H 3250 3900 50  0001 C CNN
	1    3250 3900
	1    0    0    -1  
$EndComp
$Comp
L Device:C C2
U 1 1 5ED0A336
P 3200 1400
F 0 "C2" H 3315 1446 50  0000 L CNN
F 1 "C" H 3315 1355 50  0000 L CNN
F 2 "Capacitors_SMD:C_0805_HandSoldering" H 3238 1250 50  0001 C CNN
F 3 "~" H 3200 1400 50  0001 C CNN
	1    3200 1400
	1    0    0    -1  
$EndComp
$Comp
L power:GND #PWR0111
U 1 1 5ED0A33C
P 3200 1550
F 0 "#PWR0111" H 3200 1300 50  0001 C CNN
F 1 "GND" H 3205 1377 50  0000 C CNN
F 2 "" H 3200 1550 50  0001 C CNN
F 3 "" H 3200 1550 50  0001 C CNN
	1    3200 1550
	1    0    0    -1  
$EndComp
$Comp
L Connector:Conn_01x03_Male J2
U 1 1 5ED0CF45
P 4250 3800
F 0 "J2" H 4358 4081 50  0000 C CNN
F 1 "Conn_01x03_Male" H 4358 3990 50  0000 C CNN
F 2 "Pin_Headers:Pin_Header_Straight_1x03_Pitch2.54mm" H 4250 3800 50  0001 C CNN
F 3 "~" H 4250 3800 50  0001 C CNN
	1    4250 3800
	1    0    0    -1  
$EndComp
Text Label 4450 3800 0    50   ~ 0
OCS
$Comp
L power:GND #PWR0112
U 1 1 5ED0D54B
P 4450 3900
F 0 "#PWR0112" H 4450 3650 50  0001 C CNN
F 1 "GND" V 4455 3772 50  0000 R CNN
F 2 "" H 4450 3900 50  0001 C CNN
F 3 "" H 4450 3900 50  0001 C CNN
	1    4450 3900
	0    -1   -1   0   
$EndComp
Wire Wire Line
	4650 3700 4450 3700
$Comp
L power:VCC #PWR0113
U 1 1 5ED0E615
P 4650 3700
F 0 "#PWR0113" H 4650 3550 50  0001 C CNN
F 1 "VCC" V 4667 3828 50  0000 L CNN
F 2 "" H 4650 3700 50  0001 C CNN
F 3 "" H 4650 3700 50  0001 C CNN
	1    4650 3700
	0    1    1    0   
$EndComp
Wire Notes Line
	450  2450 4400 2450
Wire Notes Line
	4400 2450 4400 450 
$Comp
L Connector:Conn_01x03_Male J4
U 1 1 5ED14183
P 2450 5850
F 0 "J4" H 2558 6131 50  0000 C CNN
F 1 "Conn_01x03_Male" H 2558 6040 50  0000 C CNN
F 2 "Pin_Headers:Pin_Header_Straight_1x03_Pitch2.54mm" H 2450 5850 50  0001 C CNN
F 3 "~" H 2450 5850 50  0001 C CNN
	1    2450 5850
	1    0    0    -1  
$EndComp
Text Label 2950 5750 0    50   ~ 0
vin
$Comp
L power:VCC #PWR0114
U 1 1 5ED14EDB
P 2650 5850
F 0 "#PWR0114" H 2650 5700 50  0001 C CNN
F 1 "VCC" V 2667 5978 50  0000 L CNN
F 2 "" H 2650 5850 50  0001 C CNN
F 3 "" H 2650 5850 50  0001 C CNN
	1    2650 5850
	0    1    1    0   
$EndComp
Wire Wire Line
	2950 5750 2650 5750
Text Label 3000 5950 0    50   ~ 0
filtOut
Wire Wire Line
	3000 5950 2650 5950
$Comp
L Device:L L1
U 1 1 5ED162F3
P 4600 5650
F 0 "L1" V 4790 5650 50  0000 C CNN
F 1 "L" V 4699 5650 50  0000 C CNN
F 2 "Inductors_SMD:L_0805_HandSoldering" H 4600 5650 50  0001 C CNN
F 3 "~" H 4600 5650 50  0001 C CNN
	1    4600 5650
	0    -1   -1   0   
$EndComp
$Comp
L Device:C C6
U 1 1 5ED16E25
P 4900 5800
F 0 "C6" H 5015 5846 50  0000 L CNN
F 1 "C" H 5015 5755 50  0000 L CNN
F 2 "Capacitors_SMD:C_0805_HandSoldering" H 4938 5650 50  0001 C CNN
F 3 "~" H 4900 5800 50  0001 C CNN
	1    4900 5800
	1    0    0    -1  
$EndComp
Wire Wire Line
	4750 5650 4900 5650
Connection ~ 4900 5650
Wire Wire Line
	4900 5650 5150 5650
$Comp
L power:GND #PWR0115
U 1 1 5ED17910
P 4900 5950
F 0 "#PWR0115" H 4900 5700 50  0001 C CNN
F 1 "GND" H 4905 5777 50  0000 C CNN
F 2 "" H 4900 5950 50  0001 C CNN
F 3 "" H 4900 5950 50  0001 C CNN
	1    4900 5950
	1    0    0    -1  
$EndComp
Wire Wire Line
	4450 5650 4350 5650
$Comp
L Device:C C5
U 1 1 5ED18403
P 4350 5800
F 0 "C5" H 4465 5846 50  0000 L CNN
F 1 "C" H 4465 5755 50  0000 L CNN
F 2 "Capacitors_SMD:C_0805_HandSoldering" H 4388 5650 50  0001 C CNN
F 3 "~" H 4350 5800 50  0001 C CNN
	1    4350 5800
	1    0    0    -1  
$EndComp
Connection ~ 4350 5650
Wire Wire Line
	4350 5650 4250 5650
$Comp
L power:GND #PWR0116
U 1 1 5ED18914
P 4350 5950
F 0 "#PWR0116" H 4350 5700 50  0001 C CNN
F 1 "GND" H 4355 5777 50  0000 C CNN
F 2 "" H 4350 5950 50  0001 C CNN
F 3 "" H 4350 5950 50  0001 C CNN
	1    4350 5950
	1    0    0    -1  
$EndComp
Text Label 4250 5650 0    50   ~ 0
vin
Text Label 5150 5650 0    50   ~ 0
filtOut
$Comp
L Connector:Conn_01x03_Male J5
U 1 1 5ED95541
P 1150 6400
F 0 "J5" H 1258 6681 50  0000 C CNN
F 1 "Conn_01x03_Male" H 1258 6590 50  0000 C CNN
F 2 "Pin_Headers:Pin_Header_Straight_1x03_Pitch2.54mm" H 1150 6400 50  0001 C CNN
F 3 "~" H 1150 6400 50  0001 C CNN
	1    1150 6400
	1    0    0    -1  
$EndComp
Text Label 1350 6500 0    50   ~ 0
q_vout
$Comp
L power:GND #PWR0117
U 1 1 5ED95E2B
P 1450 6300
F 0 "#PWR0117" H 1450 6050 50  0001 C CNN
F 1 "GND" V 1455 6172 50  0000 R CNN
F 2 "" H 1450 6300 50  0001 C CNN
F 3 "" H 1450 6300 50  0001 C CNN
	1    1450 6300
	0    -1   -1   0   
$EndComp
Text Label 1350 6400 0    50   ~ 0
vin
Wire Wire Line
	1350 6300 1450 6300
$EndSCHEMATC
