(export (version D)
  (design
    (source /home/lui/Documents/vent/electrical/arduinobase/arduinoBase.sch)
    (date "Thu 27 Aug 2020 17:44:17")
    (tool "Eeschema 5.1.6")
    (sheet (number 1) (name /) (tstamps /)
      (title_block
        (title)
        (company)
        (rev)
        (date "jeu. 02 avril 2015")
        (source arduinoBase.sch)
        (comment (number 1) (value ""))
        (comment (number 2) (value ""))
        (comment (number 3) (value ""))
        (comment (number 4) (value "")))))
  (components
    (comp (ref P1)
      (value Digital)
      (footprint Pin_Headers:Pin_Header_Straight_1x15_Pitch2.54mm)
      (libsource (lib arduinoBase-rescue) (part CONN_01X15-fridgeLogger-rescue) (description ""))
      (sheetpath (names /) (tstamps /))
      (tstamp 56D73FAC))
    (comp (ref P2)
      (value Analog)
      (footprint Pin_Headers:Pin_Header_Straight_1x15_Pitch2.54mm)
      (libsource (lib arduinoBase-rescue) (part CONN_01X15-fridgeLogger-rescue) (description ""))
      (sheetpath (names /) (tstamps /))
      (tstamp 56D740C7))
    (comp (ref R7)
      (value R)
      (footprint Resistors_SMD:R_1206_HandSoldering)
      (libsource (lib arduinoBase-rescue) (part R-fridgeLogger-rescue) (description ""))
      (sheetpath (names /) (tstamps /))
      (tstamp 5B17812A))
    (comp (ref R8)
      (value R)
      (footprint Resistors_SMD:R_1206_HandSoldering)
      (libsource (lib arduinoBase-rescue) (part R-fridgeLogger-rescue) (description ""))
      (sheetpath (names /) (tstamps /))
      (tstamp 5B1785EC))
    (comp (ref SW1)
      (value SW_Push)
      (footprint Buttons_Switches_THT:SW_PUSH_6mm_h5mm)
      (libsource (lib Switch) (part SW_Push) (description "Push button switch, generic, two pins"))
      (sheetpath (names /) (tstamps /))
      (tstamp 5B1CFA89))
    (comp (ref SW2)
      (value SW_Push)
      (footprint Buttons_Switches_THT:SW_PUSH_6mm_h5mm)
      (libsource (lib Switch) (part SW_Push) (description "Push button switch, generic, two pins"))
      (sheetpath (names /) (tstamps /))
      (tstamp 5B1CFC03))
    (comp (ref RV1)
      (value R_POT)
      (footprint misc-components:Potentiometer_Bourns_PTV09A-2_Horizontal)
      (datasheet ~)
      (libsource (lib Device) (part R_POT) (description Potentiometer))
      (sheetpath (names /) (tstamps /))
      (tstamp 5C1B8139))
    (comp (ref J1)
      (value Conn_01x02_Male)
      (footprint Connectors_Terminal_Blocks:TerminalBlock_bornier-2_P5.08mm)
      (datasheet ~)
      (libsource (lib Connector) (part Conn_01x02_Male) (description "Generic connector, single row, 01x02, script generated (kicad-library-utils/schlib/autogen/connector/)"))
      (sheetpath (names /) (tstamps /))
      (tstamp 5C1BA975))
    (comp (ref H6)
      (value MountingHole)
      (footprint Mounting_Holes:MountingHole_4.3mm_M4)
      (datasheet ~)
      (libsource (lib Mechanical) (part MountingHole) (description "Mounting Hole without connection"))
      (sheetpath (names /) (tstamps /))
      (tstamp 5C1C5471))
    (comp (ref H5)
      (value MountingHole)
      (footprint Mounting_Holes:MountingHole_4.3mm_M4)
      (datasheet ~)
      (libsource (lib Mechanical) (part MountingHole) (description "Mounting Hole without connection"))
      (sheetpath (names /) (tstamps /))
      (tstamp 5C1C554B))
    (comp (ref H7)
      (value MountingHole)
      (footprint Mounting_Holes:MountingHole_4.3mm_M4)
      (datasheet ~)
      (libsource (lib Mechanical) (part MountingHole) (description "Mounting Hole without connection"))
      (sheetpath (names /) (tstamps /))
      (tstamp 5C1C559B))
    (comp (ref H8)
      (value MountingHole)
      (footprint Mounting_Holes:MountingHole_4.3mm_M4)
      (datasheet ~)
      (libsource (lib Mechanical) (part MountingHole) (description "Mounting Hole without connection"))
      (sheetpath (names /) (tstamps /))
      (tstamp 5C1C55E9))
    (comp (ref C1)
      (value CP)
      (footprint Capacitors_SMD:CP_Elec_8x10)
      (datasheet ~)
      (libsource (lib Device) (part CP) (description "Polarized capacitor"))
      (sheetpath (names /) (tstamps /))
      (tstamp 5C52F4F7))
    (comp (ref C2)
      (value CP)
      (footprint Capacitors_SMD:CP_Elec_8x10)
      (datasheet ~)
      (libsource (lib Device) (part CP) (description "Polarized capacitor"))
      (sheetpath (names /) (tstamps /))
      (tstamp 5C52F651))
    (comp (ref C3)
      (value CP)
      (footprint Capacitors_THT:CP_Radial_D10.0mm_P2.50mm_P5.00mm)
      (datasheet ~)
      (libsource (lib Device) (part CP) (description "Polarized capacitor"))
      (sheetpath (names /) (tstamps /))
      (tstamp 5E398CFE))
    (comp (ref SW3)
      (value SW_SPST)
      (footprint misc-components:SW_Slide-SPST-L101011MS01Q)
      (datasheet ~)
      (libsource (lib Switch) (part SW_SPST) (description "Single Pole Single Throw (SPST) switch"))
      (sheetpath (names /) (tstamps /))
      (tstamp 5E39A049))
    (comp (ref D3)
      (value LED)
      (footprint LEDs:LED_1206_HandSoldering)
      (datasheet ~)
      (libsource (lib Device) (part LED) (description "Light emitting diode"))
      (sheetpath (names /) (tstamps /))
      (tstamp 5C1B4400))
    (comp (ref D2)
      (value LED)
      (footprint LEDs:LED_1206_HandSoldering)
      (datasheet ~)
      (libsource (lib Device) (part LED) (description "Light emitting diode"))
      (sheetpath (names /) (tstamps /))
      (tstamp 5C1B436D))
    (comp (ref D1)
      (value LED)
      (footprint LEDs:LED_1206_HandSoldering)
      (datasheet ~)
      (libsource (lib Device) (part LED) (description "Light emitting diode"))
      (sheetpath (names /) (tstamps /))
      (tstamp 5C1B42AB))
    (comp (ref R6)
      (value R)
      (footprint Resistors_SMD:R_1206_HandSoldering)
      (libsource (lib arduinoBase-rescue) (part R-fridgeLogger-rescue) (description ""))
      (sheetpath (names /) (tstamps /))
      (tstamp 5B164EFE))
    (comp (ref R4)
      (value R)
      (footprint Resistors_SMD:R_1206_HandSoldering)
      (libsource (lib arduinoBase-rescue) (part R-fridgeLogger-rescue) (description ""))
      (sheetpath (names /) (tstamps /))
      (tstamp 5B164E0C))
    (comp (ref R3)
      (value R)
      (footprint Resistors_SMD:R_1206_HandSoldering)
      (libsource (lib arduinoBase-rescue) (part R-fridgeLogger-rescue) (description ""))
      (sheetpath (names /) (tstamps /))
      (tstamp 5B164D7F))
    (comp (ref J2)
      (value Conn_01x03)
      (footprint Pin_Headers:Pin_Header_Straight_1x03_Pitch2.54mm)
      (libsource (lib arduinoBase-rescue) (part Conn_01x03-fridgeLogger-rescue) (description ""))
      (sheetpath (names /) (tstamps /))
      (tstamp 5EC5E104))
    (comp (ref J3)
      (value Conn_01x03)
      (footprint Pin_Headers:Pin_Header_Straight_1x03_Pitch2.54mm)
      (libsource (lib arduinoBase-rescue) (part Conn_01x03-fridgeLogger-rescue) (description ""))
      (sheetpath (names /) (tstamps /))
      (tstamp 5EC72E05))
    (comp (ref J4)
      (value Conn_01x03)
      (footprint Pin_Headers:Pin_Header_Straight_1x03_Pitch2.54mm)
      (libsource (lib arduinoBase-rescue) (part Conn_01x03-fridgeLogger-rescue) (description ""))
      (sheetpath (names /) (tstamps /))
      (tstamp 5EC7BBD9))
    (comp (ref J6)
      (value Conn_01x03)
      (footprint Pin_Headers:Pin_Header_Straight_1x03_Pitch2.54mm)
      (libsource (lib arduinoBase-rescue) (part Conn_01x03-fridgeLogger-rescue) (description ""))
      (sheetpath (names /) (tstamps /))
      (tstamp 5EC85BC4))
    (comp (ref J7)
      (value Conn_01x03)
      (footprint Pin_Headers:Pin_Header_Straight_1x03_Pitch2.54mm)
      (libsource (lib arduinoBase-rescue) (part Conn_01x03-fridgeLogger-rescue) (description ""))
      (sheetpath (names /) (tstamps /))
      (tstamp 5EC8B151))
    (comp (ref J8)
      (value Conn_01x03)
      (footprint Pin_Headers:Pin_Header_Straight_1x03_Pitch2.54mm)
      (libsource (lib arduinoBase-rescue) (part Conn_01x03-fridgeLogger-rescue) (description ""))
      (sheetpath (names /) (tstamps /))
      (tstamp 5EC90A9B))
    (comp (ref J9)
      (value Conn_01x03)
      (footprint Pin_Headers:Pin_Header_Straight_1x03_Pitch2.54mm)
      (libsource (lib arduinoBase-rescue) (part Conn_01x03-fridgeLogger-rescue) (description ""))
      (sheetpath (names /) (tstamps /))
      (tstamp 5EC96BA0))
    (comp (ref J10)
      (value Conn_01x06_Male)
      (footprint Pin_Headers:Pin_Header_Straight_1x06_Pitch2.54mm)
      (datasheet ~)
      (libsource (lib Connector) (part Conn_01x06_Male) (description "Generic connector, single row, 01x06, script generated (kicad-library-utils/schlib/autogen/connector/)"))
      (sheetpath (names /) (tstamps /))
      (tstamp 5EC14CFB))
    (comp (ref J11)
      (value Conn_01x06_Male)
      (footprint Pin_Headers:Pin_Header_Straight_1x06_Pitch2.54mm)
      (datasheet ~)
      (libsource (lib Connector) (part Conn_01x06_Male) (description "Generic connector, single row, 01x06, script generated (kicad-library-utils/schlib/autogen/connector/)"))
      (sheetpath (names /) (tstamps /))
      (tstamp 5EC15818))
    (comp (ref J12)
      (value Conn_01x03)
      (footprint Pin_Headers:Pin_Header_Straight_1x03_Pitch2.54mm)
      (libsource (lib arduinoBase-rescue) (part Conn_01x03-fridgeLogger-rescue) (description ""))
      (sheetpath (names /) (tstamps /))
      (tstamp 5EC4023F))
    (comp (ref J13)
      (value Conn_01x03)
      (footprint Pin_Headers:Pin_Header_Straight_1x03_Pitch2.54mm)
      (libsource (lib arduinoBase-rescue) (part Conn_01x03-fridgeLogger-rescue) (description ""))
      (sheetpath (names /) (tstamps /))
      (tstamp 5EC40803))
    (comp (ref J16)
      (value Conn_01x05_Male)
      (footprint Pin_Headers:Pin_Header_Straight_1x05_Pitch2.54mm)
      (datasheet ~)
      (libsource (lib Connector) (part Conn_01x05_Male) (description "Generic connector, single row, 01x05, script generated (kicad-library-utils/schlib/autogen/connector/)"))
      (sheetpath (names /) (tstamps /))
      (tstamp 5ED88554))
    (comp (ref R1)
      (value R)
      (footprint Resistors_SMD:R_1206_HandSoldering)
      (libsource (lib arduinoBase-rescue) (part R-fridgeLogger-rescue) (description ""))
      (sheetpath (names /) (tstamps /))
      (tstamp 5ED7FBE4))
    (comp (ref R2)
      (value R)
      (footprint Resistors_SMD:R_1206_HandSoldering)
      (libsource (lib arduinoBase-rescue) (part R-fridgeLogger-rescue) (description ""))
      (sheetpath (names /) (tstamps /))
      (tstamp 5ED80BED))
    (comp (ref J17)
      (value Conn_01x04_Male)
      (footprint Pin_Headers:Pin_Header_Straight_1x04_Pitch2.54mm)
      (datasheet ~)
      (libsource (lib Connector) (part Conn_01x04_Male) (description "Generic connector, single row, 01x04, script generated (kicad-library-utils/schlib/autogen/connector/)"))
      (sheetpath (names /) (tstamps /))
      (tstamp 5ED830C0))
    (comp (ref J5)
      (value Conn_01x04)
      (footprint Pin_Headers:Pin_Header_Straight_1x04_Pitch2.54mm)
      (datasheet ~)
      (libsource (lib Connector_Generic) (part Conn_01x04) (description "Generic connector, single row, 01x04, script generated (kicad-library-utils/schlib/autogen/connector/)"))
      (sheetpath (names /) (tstamps /))
      (tstamp 5EDA17E8))
    (comp (ref J14)
      (value Conn_01x04)
      (footprint Pin_Headers:Pin_Header_Straight_1x04_Pitch2.54mm)
      (datasheet ~)
      (libsource (lib Connector_Generic) (part Conn_01x04) (description "Generic connector, single row, 01x04, script generated (kicad-library-utils/schlib/autogen/connector/)"))
      (sheetpath (names /) (tstamps /))
      (tstamp 5EDB05ED)))
  (libparts
    (libpart (lib Connector) (part Conn_01x02_Male)
      (description "Generic connector, single row, 01x02, script generated (kicad-library-utils/schlib/autogen/connector/)")
      (docs ~)
      (footprints
        (fp Connector*:*_1x??_*))
      (fields
        (field (name Reference) J)
        (field (name Value) Conn_01x02_Male))
      (pins
        (pin (num 1) (name Pin_1) (type passive))
        (pin (num 2) (name Pin_2) (type passive))))
    (libpart (lib Connector) (part Conn_01x04_Male)
      (description "Generic connector, single row, 01x04, script generated (kicad-library-utils/schlib/autogen/connector/)")
      (docs ~)
      (footprints
        (fp Connector*:*_1x??_*))
      (fields
        (field (name Reference) J)
        (field (name Value) Conn_01x04_Male))
      (pins
        (pin (num 1) (name Pin_1) (type passive))
        (pin (num 2) (name Pin_2) (type passive))
        (pin (num 3) (name Pin_3) (type passive))
        (pin (num 4) (name Pin_4) (type passive))))
    (libpart (lib Connector) (part Conn_01x05_Male)
      (description "Generic connector, single row, 01x05, script generated (kicad-library-utils/schlib/autogen/connector/)")
      (docs ~)
      (footprints
        (fp Connector*:*_1x??_*))
      (fields
        (field (name Reference) J)
        (field (name Value) Conn_01x05_Male))
      (pins
        (pin (num 1) (name Pin_1) (type passive))
        (pin (num 2) (name Pin_2) (type passive))
        (pin (num 3) (name Pin_3) (type passive))
        (pin (num 4) (name Pin_4) (type passive))
        (pin (num 5) (name Pin_5) (type passive))))
    (libpart (lib Connector) (part Conn_01x06_Male)
      (description "Generic connector, single row, 01x06, script generated (kicad-library-utils/schlib/autogen/connector/)")
      (docs ~)
      (footprints
        (fp Connector*:*_1x??_*))
      (fields
        (field (name Reference) J)
        (field (name Value) Conn_01x06_Male))
      (pins
        (pin (num 1) (name Pin_1) (type passive))
        (pin (num 2) (name Pin_2) (type passive))
        (pin (num 3) (name Pin_3) (type passive))
        (pin (num 4) (name Pin_4) (type passive))
        (pin (num 5) (name Pin_5) (type passive))
        (pin (num 6) (name Pin_6) (type passive))))
    (libpart (lib Connector_Generic) (part Conn_01x04)
      (description "Generic connector, single row, 01x04, script generated (kicad-library-utils/schlib/autogen/connector/)")
      (docs ~)
      (footprints
        (fp Connector*:*_1x??_*))
      (fields
        (field (name Reference) J)
        (field (name Value) Conn_01x04))
      (pins
        (pin (num 1) (name Pin_1) (type passive))
        (pin (num 2) (name Pin_2) (type passive))
        (pin (num 3) (name Pin_3) (type passive))
        (pin (num 4) (name Pin_4) (type passive))))
    (libpart (lib Device) (part CP)
      (description "Polarized capacitor")
      (docs ~)
      (footprints
        (fp CP_*))
      (fields
        (field (name Reference) C)
        (field (name Value) CP))
      (pins
        (pin (num 1) (name ~) (type passive))
        (pin (num 2) (name ~) (type passive))))
    (libpart (lib Device) (part LED)
      (description "Light emitting diode")
      (docs ~)
      (footprints
        (fp LED*)
        (fp LED_SMD:*)
        (fp LED_THT:*))
      (fields
        (field (name Reference) D)
        (field (name Value) LED))
      (pins
        (pin (num 1) (name K) (type passive))
        (pin (num 2) (name A) (type passive))))
    (libpart (lib Device) (part R_POT)
      (description Potentiometer)
      (docs ~)
      (footprints
        (fp Potentiometer*))
      (fields
        (field (name Reference) RV)
        (field (name Value) R_POT))
      (pins
        (pin (num 1) (name 1) (type passive))
        (pin (num 2) (name 2) (type passive))
        (pin (num 3) (name 3) (type passive))))
    (libpart (lib Mechanical) (part MountingHole)
      (description "Mounting Hole without connection")
      (docs ~)
      (footprints
        (fp MountingHole*))
      (fields
        (field (name Reference) H)
        (field (name Value) MountingHole)))
    (libpart (lib Switch) (part SW_Push)
      (description "Push button switch, generic, two pins")
      (docs ~)
      (fields
        (field (name Reference) SW)
        (field (name Value) SW_Push))
      (pins
        (pin (num 1) (name 1) (type passive))
        (pin (num 2) (name 2) (type passive))))
    (libpart (lib Switch) (part SW_SPST)
      (description "Single Pole Single Throw (SPST) switch")
      (docs ~)
      (fields
        (field (name Reference) SW)
        (field (name Value) SW_SPST))
      (pins
        (pin (num 1) (name A) (type passive))
        (pin (num 2) (name B) (type passive))))
    (libpart (lib arduinoBase-rescue) (part CONN_01X15-fridgeLogger-rescue)
      (footprints
        (fp Pin_Header_Straight_1X15)
        (fp Pin_Header_Angled_1X15)
        (fp Socket_Strip_Straight_1X15)
        (fp Socket_Strip_Angled_1X15))
      (fields
        (field (name Reference) P)
        (field (name Value) CONN_01X15-fridgeLogger-rescue))
      (pins
        (pin (num 1) (name P1) (type passive))
        (pin (num 2) (name P2) (type passive))
        (pin (num 3) (name P3) (type passive))
        (pin (num 4) (name P4) (type passive))
        (pin (num 5) (name P5) (type passive))
        (pin (num 6) (name P6) (type passive))
        (pin (num 7) (name P7) (type passive))
        (pin (num 8) (name P8) (type passive))
        (pin (num 9) (name P9) (type passive))
        (pin (num 10) (name P10) (type passive))
        (pin (num 11) (name P11) (type passive))
        (pin (num 12) (name P12) (type passive))
        (pin (num 13) (name P13) (type passive))
        (pin (num 14) (name P14) (type passive))
        (pin (num 15) (name P15) (type passive))))
    (libpart (lib arduinoBase-rescue) (part Conn_01x03-fridgeLogger-rescue)
      (footprints
        (fp Connector*:*_??x*mm*)
        (fp Connector*:*1x??x*mm*)
        (fp Pin?Header?Straight?1X*)
        (fp Pin?Header?Angled?1X*)
        (fp Socket?Strip?Straight?1X*)
        (fp Socket?Strip?Angled?1X*))
      (fields
        (field (name Reference) J)
        (field (name Value) Conn_01x03-fridgeLogger-rescue))
      (pins
        (pin (num 1) (name Pin_1) (type passive))
        (pin (num 2) (name Pin_2) (type passive))
        (pin (num 3) (name Pin_3) (type passive))))
    (libpart (lib arduinoBase-rescue) (part R-fridgeLogger-rescue)
      (footprints
        (fp R_*))
      (fields
        (field (name Reference) R)
        (field (name Value) R-fridgeLogger-rescue))
      (pins
        (pin (num 1) (name ~) (type passive))
        (pin (num 2) (name ~) (type passive)))))
  (libraries
    (library (logical Connector)
      (uri /usr/share/kicad/library/Connector.lib))
    (library (logical Connector_Generic)
      (uri /usr/share/kicad/library/Connector_Generic.lib))
    (library (logical Device)
      (uri /usr/share/kicad/library/Device.lib))
    (library (logical Mechanical)
      (uri /usr/share/kicad/library/Mechanical.lib))
    (library (logical Switch)
      (uri /usr/share/kicad/library/Switch.lib))
    (library (logical arduinoBase-rescue)
      (uri /home/lui/Documents/vent/electrical/arduinobase/arduinoBase-rescue.lib)))
  (nets
    (net (code 1) (name GND)
      (node (ref J12) (pin 3))
      (node (ref J11) (pin 1))
      (node (ref J13) (pin 3))
      (node (ref J10) (pin 1))
      (node (ref D2) (pin 1))
      (node (ref J3) (pin 3))
      (node (ref D1) (pin 1))
      (node (ref J4) (pin 3))
      (node (ref J17) (pin 2))
      (node (ref J14) (pin 4))
      (node (ref J5) (pin 4))
      (node (ref J1) (pin 2))
      (node (ref D3) (pin 1))
      (node (ref C3) (pin 2))
      (node (ref R8) (pin 1))
      (node (ref R7) (pin 1))
      (node (ref RV1) (pin 3))
      (node (ref C1) (pin 2))
      (node (ref C2) (pin 2))
      (node (ref P1) (pin 4))
      (node (ref P2) (pin 2))
      (node (ref J7) (pin 3))
      (node (ref J8) (pin 3))
      (node (ref J6) (pin 3))
      (node (ref J9) (pin 3)))
    (net (code 2) (name +5V)
      (node (ref J14) (pin 3))
      (node (ref J6) (pin 2))
      (node (ref C2) (pin 1))
      (node (ref J5) (pin 3))
      (node (ref J9) (pin 2))
      (node (ref J8) (pin 2))
      (node (ref P2) (pin 4))
      (node (ref J10) (pin 3))
      (node (ref J11) (pin 3))
      (node (ref R1) (pin 1))
      (node (ref R2) (pin 1))
      (node (ref RV1) (pin 1))
      (node (ref J4) (pin 2))
      (node (ref J3) (pin 2))
      (node (ref J17) (pin 1))
      (node (ref SW1) (pin 1))
      (node (ref SW2) (pin 1))
      (node (ref J7) (pin 2)))
    (net (code 3) (name /A2)
      (node (ref J4) (pin 1))
      (node (ref P2) (pin 10))
      (node (ref J14) (pin 2)))
    (net (code 4) (name /A7analogIn)
      (node (ref J2) (pin 1))
      (node (ref J9) (pin 1)))
    (net (code 5) (name "Net-(D1-Pad2)")
      (node (ref R3) (pin 2))
      (node (ref D1) (pin 2)))
    (net (code 6) (name /pot)
      (node (ref RV1) (pin 2))
      (node (ref J2) (pin 3)))
    (net (code 7) (name "Net-(D2-Pad2)")
      (node (ref D2) (pin 2))
      (node (ref R4) (pin 2)))
    (net (code 8) (name "Net-(D3-Pad2)")
      (node (ref D3) (pin 2))
      (node (ref R6) (pin 2)))
    (net (code 9) (name /A0)
      (node (ref J3) (pin 1))
      (node (ref J5) (pin 2))
      (node (ref P2) (pin 12)))
    (net (code 10) (name /A5)
      (node (ref R2) (pin 2))
      (node (ref J7) (pin 1))
      (node (ref P2) (pin 7)))
    (net (code 11) (name /A4)
      (node (ref J6) (pin 1))
      (node (ref P2) (pin 8))
      (node (ref R1) (pin 2)))
    (net (code 12) (name "/0(Rx)")
      (node (ref J17) (pin 3))
      (node (ref P1) (pin 2)))
    (net (code 13) (name /7)
      (node (ref P1) (pin 10))
      (node (ref J16) (pin 5))
      (node (ref R3) (pin 1)))
    (net (code 14) (name /4)
      (node (ref J16) (pin 4))
      (node (ref P1) (pin 7))
      (node (ref R6) (pin 1)))
    (net (code 15) (name "/1(Tx)")
      (node (ref J17) (pin 4))
      (node (ref P1) (pin 1)))
    (net (code 16) (name "/10(**/SS)")
      (node (ref P1) (pin 13))
      (node (ref J10) (pin 6)))
    (net (code 17) (name /Vin)
      (node (ref J12) (pin 2))
      (node (ref J13) (pin 2))
      (node (ref C3) (pin 1))
      (node (ref P2) (pin 1))
      (node (ref SW3) (pin 1)))
    (net (code 18) (name "/6(**)")
      (node (ref J13) (pin 1))
      (node (ref P1) (pin 9)))
    (net (code 19) (name "/5(**)")
      (node (ref J12) (pin 1))
      (node (ref P1) (pin 8)))
    (net (code 20) (name "/9(**)")
      (node (ref J11) (pin 6))
      (node (ref P1) (pin 12)))
    (net (code 21) (name "/11(**/MOSI)")
      (node (ref J11) (pin 5))
      (node (ref J10) (pin 5))
      (node (ref P1) (pin 14)))
    (net (code 22) (name "/12(MISO)")
      (node (ref P1) (pin 15))
      (node (ref J10) (pin 4))
      (node (ref J11) (pin 4)))
    (net (code 23) (name "/13(SCK)")
      (node (ref P2) (pin 15))
      (node (ref J11) (pin 2))
      (node (ref J10) (pin 2)))
    (net (code 24) (name /8)
      (node (ref R4) (pin 1))
      (node (ref J16) (pin 3))
      (node (ref P1) (pin 11)))
    (net (code 25) (name /3)
      (node (ref R7) (pin 2))
      (node (ref P1) (pin 6))
      (node (ref SW1) (pin 2))
      (node (ref J16) (pin 2)))
    (net (code 26) (name /2)
      (node (ref J16) (pin 1))
      (node (ref SW2) (pin 2))
      (node (ref P1) (pin 5))
      (node (ref R8) (pin 2)))
    (net (code 27) (name /A6)
      (node (ref P2) (pin 6))
      (node (ref J8) (pin 1)))
    (net (code 28) (name /A7)
      (node (ref P2) (pin 5))
      (node (ref J2) (pin 2)))
    (net (code 29) (name /Reset)
      (node (ref P2) (pin 3))
      (node (ref P1) (pin 3)))
    (net (code 30) (name +3V3)
      (node (ref P2) (pin 14)))
    (net (code 31) (name /A3)
      (node (ref J14) (pin 1))
      (node (ref P2) (pin 9)))
    (net (code 32) (name /AREF)
      (node (ref P2) (pin 13)))
    (net (code 33) (name /A1)
      (node (ref J5) (pin 1))
      (node (ref P2) (pin 11)))
    (net (code 34) (name /VBatt)
      (node (ref SW3) (pin 2))
      (node (ref J1) (pin 1))
      (node (ref C1) (pin 1)))))