EESchema Schematic File Version 4
EELAYER 30 0
EELAYER END
$Descr A4 11693 8268
encoding utf-8
Sheet 1 1
Title ""
Date "jeu. 02 avril 2015"
Rev ""
Comp ""
Comment1 ""
Comment2 ""
Comment3 ""
Comment4 ""
$EndDescr
Text Label 8350 1400 0    60   ~ 0
1(Tx)
Text Label 8350 1500 0    60   ~ 0
0(Rx)
Text Label 8350 1600 0    60   ~ 0
Reset
Text Label 8350 1800 0    60   ~ 0
2
Text Label 8350 1900 0    60   ~ 0
3
Text Label 8350 2000 0    60   ~ 0
4
Text Label 8350 2100 0    60   ~ 0
5(**)
Text Label 8350 2200 0    60   ~ 0
6(**)
Text Label 8350 2300 0    60   ~ 0
7
Text Label 8350 2400 0    60   ~ 0
8
Text Label 8350 2500 0    60   ~ 0
9(**)
Text Label 8350 2600 0    60   ~ 0
10(**/SS)
Text Label 8350 2700 0    60   ~ 0
11(**/MOSI)
Text Label 8350 2800 0    60   ~ 0
12(MISO)
Text Label 10200 2800 0    60   ~ 0
13(SCK)
Text Label 10200 2500 0    60   ~ 0
A0
Text Label 10200 2400 0    60   ~ 0
A1
Text Label 10200 2300 0    60   ~ 0
A2
Text Label 10200 2200 0    60   ~ 0
A3
Text Label 10200 1900 0    60   ~ 0
A6
Text Label 10200 1800 0    60   ~ 0
A7
Text Label 10200 2600 0    60   ~ 0
AREF
Text Label 10200 1600 0    60   ~ 0
Reset
Text Notes 8150 900  0    60   ~ 0
Shield for Arduino Nano
Text Label 9900 1250 1    60   ~ 0
Vin
$Comp
L arduinoBase-rescue:CONN_01X15-fridgeLogger-rescue P1
U 1 1 56D73FAC
P 9200 2100
F 0 "P1" H 9200 2900 50  0000 C CNN
F 1 "Digital" V 9300 2100 50  0000 C CNN
F 2 "Pin_Headers:Pin_Header_Straight_1x15_Pitch2.54mm" H 9200 2100 50  0001 C CNN
F 3 "" H 9200 2100 50  0000 C CNN
	1    9200 2100
	1    0    0    -1  
$EndComp
$Comp
L arduinoBase-rescue:CONN_01X15-fridgeLogger-rescue P2
U 1 1 56D740C7
P 9600 2100
F 0 "P2" H 9600 2900 50  0000 C CNN
F 1 "Analog" V 9700 2100 50  0000 C CNN
F 2 "Pin_Headers:Pin_Header_Straight_1x15_Pitch2.54mm" H 9600 2100 50  0001 C CNN
F 3 "" H 9600 2100 50  0000 C CNN
	1    9600 2100
	-1   0    0    -1  
$EndComp
$Comp
L power:GND #PWR014
U 1 1 56D7422C
P 8900 2900
F 0 "#PWR014" H 8900 2650 50  0001 C CNN
F 1 "GND" H 8900 2750 50  0000 C CNN
F 2 "" H 8900 2900 50  0000 C CNN
F 3 "" H 8900 2900 50  0000 C CNN
	1    8900 2900
	1    0    0    -1  
$EndComp
$Comp
L power:GND #PWR015
U 1 1 56D746ED
P 9900 2900
F 0 "#PWR015" H 9900 2650 50  0001 C CNN
F 1 "GND" H 9900 2750 50  0000 C CNN
F 2 "" H 9900 2900 50  0000 C CNN
F 3 "" H 9900 2900 50  0000 C CNN
	1    9900 2900
	1    0    0    -1  
$EndComp
$Comp
L power:+5V #PWR016
U 1 1 56D747E8
P 10000 1250
F 0 "#PWR016" H 10000 1100 50  0001 C CNN
F 1 "+5V" H 10000 1390 28  0000 C CNN
F 2 "" H 10000 1250 50  0000 C CNN
F 3 "" H 10000 1250 50  0000 C CNN
	1    10000 1250
	1    0    0    -1  
$EndComp
$Comp
L power:+3.3V #PWR017
U 1 1 56D74854
P 10100 1250
F 0 "#PWR017" H 10100 1100 50  0001 C CNN
F 1 "+3.3V" H 10100 1390 28  0000 C CNN
F 2 "" H 10100 1250 50  0000 C CNN
F 3 "" H 10100 1250 50  0000 C CNN
	1    10100 1250
	1    0    0    -1  
$EndComp
Text Notes 9300 1400 0    60   ~ 0
1
Wire Notes Line
	9325 950  9325 775 
Wire Wire Line
	9000 1700 8900 1700
Wire Wire Line
	8900 1700 8900 2900
Wire Wire Line
	9000 1400 8350 1400
Wire Wire Line
	8350 1500 9000 1500
Wire Wire Line
	9000 1600 8350 1600
Wire Wire Line
	8350 1800 9000 1800
Wire Wire Line
	9000 1900 8350 1900
Wire Wire Line
	8350 2000 9000 2000
Wire Wire Line
	9000 2100 8350 2100
Wire Wire Line
	8350 2200 9000 2200
Wire Wire Line
	9000 2300 8350 2300
Wire Wire Line
	8350 2400 9000 2400
Wire Wire Line
	9000 2500 8350 2500
Wire Wire Line
	8350 2600 9000 2600
Wire Wire Line
	9000 2700 8350 2700
Wire Wire Line
	8350 2800 9000 2800
Wire Wire Line
	9900 2900 9900 1500
Wire Wire Line
	9900 1500 9800 1500
Wire Wire Line
	9800 1400 9900 1400
Wire Wire Line
	9900 1400 9900 1250
Wire Wire Line
	10000 1250 10000 1700
Wire Wire Line
	10000 1700 9800 1700
Wire Wire Line
	10100 1250 10100 2700
Wire Wire Line
	10100 2700 9800 2700
Wire Wire Line
	10200 1600 9800 1600
Wire Wire Line
	9800 1800 10200 1800
Wire Wire Line
	10200 1900 9800 1900
Wire Wire Line
	10200 2000 9800 2000
Wire Wire Line
	9800 2100 10200 2100
Wire Wire Line
	10200 2200 9800 2200
Wire Wire Line
	10200 2300 9800 2300
Wire Wire Line
	9800 2400 10200 2400
Wire Wire Line
	10200 2500 9800 2500
Wire Wire Line
	10200 2600 9800 2600
Wire Wire Line
	9800 2800 10200 2800
Wire Notes Line
	10850 3150 8100 3150
Wire Notes Line
	8100 3150 8100 800 
Text Label 3700 1850 2    60   ~ 0
VBatt
Text Label 3150 6300 0    60   ~ 0
2
Wire Wire Line
	2300 5450 2100 5450
Wire Wire Line
	2700 5450 2800 5450
$Comp
L arduinoBase-rescue:R-fridgeLogger-rescue R7
U 1 1 5B17812A
P 2800 5150
F 0 "R7" V 2880 5150 50  0000 C CNN
F 1 "R" V 2800 5150 50  0000 C CNN
F 2 "Resistors_SMD:R_1206_HandSoldering" V 2730 5150 50  0001 C CNN
F 3 "" H 2800 5150 50  0001 C CNN
	1    2800 5150
	1    0    0    -1  
$EndComp
Wire Wire Line
	2800 5300 2800 5450
Connection ~ 2800 5450
$Comp
L power:GND #PWR06
U 1 1 5B1782FF
P 2800 5000
F 0 "#PWR06" H 2800 4750 50  0001 C CNN
F 1 "GND" H 2800 4850 50  0000 C CNN
F 2 "" H 2800 5000 50  0001 C CNN
F 3 "" H 2800 5000 50  0001 C CNN
	1    2800 5000
	-1   0    0    1   
$EndComp
$Comp
L power:+5V #PWR08
U 1 1 5B178347
P 2100 5450
F 0 "#PWR08" H 2100 5300 50  0001 C CNN
F 1 "+5V" H 2100 5590 50  0000 C CNN
F 2 "" H 2100 5450 50  0001 C CNN
F 3 "" H 2100 5450 50  0001 C CNN
	1    2100 5450
	1    0    0    -1  
$EndComp
Wire Wire Line
	2300 6300 2050 6300
Wire Wire Line
	2700 6300 2800 6300
$Comp
L arduinoBase-rescue:R-fridgeLogger-rescue R8
U 1 1 5B1785EC
P 2800 6000
F 0 "R8" V 2880 6000 50  0000 C CNN
F 1 "R" V 2800 6000 50  0000 C CNN
F 2 "Resistors_SMD:R_1206_HandSoldering" V 2730 6000 50  0001 C CNN
F 3 "" H 2800 6000 50  0001 C CNN
	1    2800 6000
	1    0    0    -1  
$EndComp
Wire Wire Line
	2800 6150 2800 6300
Connection ~ 2800 6300
$Comp
L power:GND #PWR07
U 1 1 5B1785F4
P 2800 5850
F 0 "#PWR07" H 2800 5600 50  0001 C CNN
F 1 "GND" H 2800 5700 50  0000 C CNN
F 2 "" H 2800 5850 50  0001 C CNN
F 3 "" H 2800 5850 50  0001 C CNN
	1    2800 5850
	-1   0    0    1   
$EndComp
$Comp
L power:+5V #PWR09
U 1 1 5B1785FA
P 2050 6300
F 0 "#PWR09" H 2050 6150 50  0001 C CNN
F 1 "+5V" H 2050 6440 50  0000 C CNN
F 2 "" H 2050 6300 50  0001 C CNN
F 3 "" H 2050 6300 50  0001 C CNN
	1    2050 6300
	1    0    0    -1  
$EndComp
Text Label 7200 1550 0    60   ~ 0
A7
NoConn ~ -4500 2000
NoConn ~ -850 5150
$Comp
L Switch:SW_Push SW1
U 1 1 5B1CFA89
P 2500 5450
F 0 "SW1" H 2550 5550 50  0000 L CNN
F 1 "SW_Push" H 2500 5390 50  0000 C CNN
F 2 "Buttons_Switches_THT:SW_PUSH_6mm_h5mm" H 2500 5650 50  0001 C CNN
F 3 "" H 2500 5650 50  0001 C CNN
	1    2500 5450
	1    0    0    -1  
$EndComp
$Comp
L Switch:SW_Push SW2
U 1 1 5B1CFC03
P 2500 6300
F 0 "SW2" H 2550 6400 50  0000 L CNN
F 1 "SW_Push" H 2500 6240 50  0000 C CNN
F 2 "Buttons_Switches_THT:SW_PUSH_6mm_h5mm" H 2500 6500 50  0001 C CNN
F 3 "" H 2500 6500 50  0001 C CNN
	1    2500 6300
	1    0    0    -1  
$EndComp
Wire Wire Line
	2800 5450 3150 5450
Wire Wire Line
	2800 6300 3150 6300
$Comp
L Device:R_POT RV1
U 1 1 5C1B8139
P 1400 5150
F 0 "RV1" H 1330 5196 50  0000 R CNN
F 1 "R_POT" H 1330 5105 50  0000 R CNN
F 2 "misc-components:Potentiometer_Bourns_PTV09A-2_Horizontal" H 1400 5150 50  0001 C CNN
F 3 "~" H 1400 5150 50  0001 C CNN
	1    1400 5150
	1    0    0    -1  
$EndComp
$Comp
L power:+5V #PWR01
U 1 1 5C1BA057
P 1400 5000
F 0 "#PWR01" H 1400 4850 50  0001 C CNN
F 1 "+5V" H 1415 5173 50  0000 C CNN
F 2 "" H 1400 5000 50  0001 C CNN
F 3 "" H 1400 5000 50  0001 C CNN
	1    1400 5000
	1    0    0    -1  
$EndComp
$Comp
L power:GND #PWR02
U 1 1 5C1BA0D6
P 1400 5300
F 0 "#PWR02" H 1400 5050 50  0001 C CNN
F 1 "GND" H 1405 5127 50  0000 C CNN
F 2 "" H 1400 5300 50  0001 C CNN
F 3 "" H 1400 5300 50  0001 C CNN
	1    1400 5300
	1    0    0    -1  
$EndComp
Text Label 3150 5450 0    60   ~ 0
3
$Comp
L Connector:Conn_01x02_Male J1
U 1 1 5C1BA975
P 2800 1150
F 0 "J1" H 2906 1328 50  0000 C CNN
F 1 "Conn_01x02_Male" H 2906 1237 50  0000 C CNN
F 2 "Connectors_Terminal_Blocks:TerminalBlock_bornier-2_P5.08mm" H 2800 1150 50  0001 C CNN
F 3 "~" H 2800 1150 50  0001 C CNN
	1    2800 1150
	1    0    0    -1  
$EndComp
Wire Wire Line
	3000 1150 3550 1150
Wire Wire Line
	3000 1250 3550 1250
$Comp
L power:GND #PWR05
U 1 1 5C1BEA89
P 3550 1250
F 0 "#PWR05" H 3550 1000 50  0001 C CNN
F 1 "GND" H 3555 1077 50  0000 C CNN
F 2 "" H 3550 1250 50  0001 C CNN
F 3 "" H 3550 1250 50  0001 C CNN
	1    3550 1250
	1    0    0    -1  
$EndComp
Wire Wire Line
	3300 1850 3700 1850
Text Label 2700 1850 0    50   ~ 0
Vin
Text Label 3250 1150 0    60   ~ 0
VBatt
$Comp
L Mechanical:MountingHole H6
U 1 1 5C1C5471
P 1000 1050
F 0 "H6" H 1100 1096 50  0000 L CNN
F 1 "MountingHole" H 1100 1005 50  0000 L CNN
F 2 "Mounting_Holes:MountingHole_4.3mm_M4" H 1000 1050 50  0001 C CNN
F 3 "~" H 1000 1050 50  0001 C CNN
	1    1000 1050
	1    0    0    -1  
$EndComp
$Comp
L Mechanical:MountingHole H5
U 1 1 5C1C554B
P 1000 1300
F 0 "H5" H 1100 1346 50  0000 L CNN
F 1 "MountingHole" H 1100 1255 50  0000 L CNN
F 2 "Mounting_Holes:MountingHole_4.3mm_M4" H 1000 1300 50  0001 C CNN
F 3 "~" H 1000 1300 50  0001 C CNN
	1    1000 1300
	1    0    0    -1  
$EndComp
$Comp
L Mechanical:MountingHole H7
U 1 1 5C1C559B
P 1000 1550
F 0 "H7" H 1100 1596 50  0000 L CNN
F 1 "MountingHole" H 1100 1505 50  0000 L CNN
F 2 "Mounting_Holes:MountingHole_4.3mm_M4" H 1000 1550 50  0001 C CNN
F 3 "~" H 1000 1550 50  0001 C CNN
	1    1000 1550
	1    0    0    -1  
$EndComp
$Comp
L Mechanical:MountingHole H8
U 1 1 5C1C55E9
P 1000 1800
F 0 "H8" H 1100 1846 50  0000 L CNN
F 1 "MountingHole" H 1100 1755 50  0000 L CNN
F 2 "Mounting_Holes:MountingHole_4.3mm_M4" H 1000 1800 50  0001 C CNN
F 3 "~" H 1000 1800 50  0001 C CNN
	1    1000 1800
	1    0    0    -1  
$EndComp
Text Label 8800 4600 0    60   ~ 0
A1
$Comp
L power:GND #PWR0106
U 1 1 5C370447
P 8850 4900
F 0 "#PWR0106" H 8850 4650 50  0001 C CNN
F 1 "GND" H 8850 4750 50  0000 C CNN
F 2 "" H 8850 4900 50  0001 C CNN
F 3 "" H 8850 4900 50  0001 C CNN
	1    8850 4900
	0    1    1    0   
$EndComp
Text Label 3100 2300 0    60   ~ 0
VBatt
$Comp
L power:GND #PWR0108
U 1 1 5C520D96
P 3100 2600
F 0 "#PWR0108" H 3100 2350 50  0001 C CNN
F 1 "GND" H 3105 2427 50  0000 C CNN
F 2 "" H 3100 2600 50  0001 C CNN
F 3 "" H 3100 2600 50  0001 C CNN
	1    3100 2600
	1    0    0    -1  
$EndComp
$Comp
L power:GND #PWR0112
U 1 1 5C521325
P 3550 2600
F 0 "#PWR0112" H 3550 2350 50  0001 C CNN
F 1 "GND" H 3555 2427 50  0000 C CNN
F 2 "" H 3550 2600 50  0001 C CNN
F 3 "" H 3550 2600 50  0001 C CNN
	1    3550 2600
	1    0    0    -1  
$EndComp
Text Notes 1700 1950 1    50   ~ 0
These ones are the corners
$Comp
L Device:CP C1
U 1 1 5C52F4F7
P 3100 2450
F 0 "C1" H 3218 2496 50  0000 L CNN
F 1 "CP" H 3218 2405 50  0000 L CNN
F 2 "Capacitors_SMD:CP_Elec_8x10" H 3138 2300 50  0001 C CNN
F 3 "~" H 3100 2450 50  0001 C CNN
	1    3100 2450
	1    0    0    -1  
$EndComp
$Comp
L Device:CP C2
U 1 1 5C52F651
P 3550 2450
F 0 "C2" H 3668 2496 50  0000 L CNN
F 1 "CP" H 3668 2405 50  0000 L CNN
F 2 "Capacitors_SMD:CP_Elec_8x10" H 3588 2300 50  0001 C CNN
F 3 "~" H 3550 2450 50  0001 C CNN
	1    3550 2450
	1    0    0    -1  
$EndComp
$Comp
L power:+5V #PWR0114
U 1 1 5C5377A9
P 3550 2300
F 0 "#PWR0114" H 3550 2150 50  0001 C CNN
F 1 "+5V" H 3550 2440 50  0000 C CNN
F 2 "" H 3550 2300 50  0001 C CNN
F 3 "" H 3550 2300 50  0001 C CNN
	1    3550 2300
	1    0    0    -1  
$EndComp
$Comp
L Device:CP C3
U 1 1 5E398CFE
P 2750 2450
F 0 "C3" H 2868 2496 50  0000 L CNN
F 1 "CP" H 2868 2405 50  0000 L CNN
F 2 "Capacitors_THT:CP_Radial_D10.0mm_P2.50mm_P5.00mm" H 2788 2300 50  0001 C CNN
F 3 "~" H 2750 2450 50  0001 C CNN
	1    2750 2450
	1    0    0    -1  
$EndComp
$Comp
L power:GND #PWR0117
U 1 1 5E39903E
P 2750 2600
F 0 "#PWR0117" H 2750 2350 50  0001 C CNN
F 1 "GND" H 2755 2427 50  0000 C CNN
F 2 "" H 2750 2600 50  0001 C CNN
F 3 "" H 2750 2600 50  0001 C CNN
	1    2750 2600
	1    0    0    -1  
$EndComp
$Comp
L Switch:SW_SPST SW3
U 1 1 5E39A049
P 3100 1850
F 0 "SW3" H 3100 2085 50  0000 C CNN
F 1 "SW_SPST" H 3100 1994 50  0000 C CNN
F 2 "misc-components:SW_Slide-SPST-L101011MS01Q" H 3100 1850 50  0001 C CNN
F 3 "~" H 3100 1850 50  0001 C CNN
	1    3100 1850
	1    0    0    -1  
$EndComp
Wire Wire Line
	2900 1850 2700 1850
Text Label 2750 2300 0    50   ~ 0
Vin
$Comp
L power:+5V #PWR0101
U 1 1 5EBF8AEE
P 9050 4800
F 0 "#PWR0101" H 9050 4650 50  0001 C CNN
F 1 "+5V" H 9065 4973 50  0000 C CNN
F 2 "" H 9050 4800 50  0001 C CNN
F 3 "" H 9050 4800 50  0001 C CNN
	1    9050 4800
	0    -1   -1   0   
$EndComp
Text Label 10200 2100 0    60   ~ 0
A4
Text Label 10200 2000 0    60   ~ 0
A5
Text Label 8800 4150 0    60   ~ 0
A0
Text Label 8800 5200 0    60   ~ 0
A2
Text Label 8800 5700 0    60   ~ 0
A3
Text Label 10050 5300 0    60   ~ 0
A6
Text Label 10050 4300 0    60   ~ 0
A4
Text Label 10050 4800 0    60   ~ 0
A5
Text Label 4900 5350 0    60   ~ 0
7
Text Label 4950 5750 0    60   ~ 0
8
$Comp
L Device:LED D3
U 1 1 5C1B4400
P 4150 6100
F 0 "D3" H 4141 6316 50  0000 C CNN
F 1 "LED" H 4141 6225 50  0000 C CNN
F 2 "LEDs:LED_1206_HandSoldering" H 4150 6100 50  0001 C CNN
F 3 "~" H 4150 6100 50  0001 C CNN
	1    4150 6100
	1    0    0    -1  
$EndComp
$Comp
L Device:LED D2
U 1 1 5C1B436D
P 4150 5750
F 0 "D2" H 4141 5966 50  0000 C CNN
F 1 "LED" H 4141 5875 50  0000 C CNN
F 2 "LEDs:LED_1206_HandSoldering" H 4150 5750 50  0001 C CNN
F 3 "~" H 4150 5750 50  0001 C CNN
	1    4150 5750
	1    0    0    -1  
$EndComp
$Comp
L Device:LED D1
U 1 1 5C1B42AB
P 4150 5350
F 0 "D1" H 4141 5566 50  0000 C CNN
F 1 "LED" H 4141 5475 50  0000 C CNN
F 2 "LEDs:LED_1206_HandSoldering" H 4150 5350 50  0001 C CNN
F 3 "~" H 4150 5350 50  0001 C CNN
	1    4150 5350
	1    0    0    -1  
$EndComp
Wire Wire Line
	4600 6100 4900 6100
Wire Wire Line
	4600 5750 4950 5750
Wire Wire Line
	4600 5350 4900 5350
$Comp
L arduinoBase-rescue:R-fridgeLogger-rescue R6
U 1 1 5B164EFE
P 4450 6100
F 0 "R6" V 4530 6100 50  0000 C CNN
F 1 "R" V 4450 6100 50  0000 C CNN
F 2 "Resistors_SMD:R_1206_HandSoldering" V 4380 6100 50  0001 C CNN
F 3 "" H 4450 6100 50  0001 C CNN
	1    4450 6100
	0    1    1    0   
$EndComp
$Comp
L arduinoBase-rescue:R-fridgeLogger-rescue R4
U 1 1 5B164E0C
P 4450 5750
F 0 "R4" V 4530 5750 50  0000 C CNN
F 1 "R" V 4450 5750 50  0000 C CNN
F 2 "Resistors_SMD:R_1206_HandSoldering" V 4380 5750 50  0001 C CNN
F 3 "" H 4450 5750 50  0001 C CNN
	1    4450 5750
	0    1    1    0   
$EndComp
$Comp
L arduinoBase-rescue:R-fridgeLogger-rescue R3
U 1 1 5B164D7F
P 4450 5350
F 0 "R3" V 4530 5350 50  0000 C CNN
F 1 "R" V 4450 5350 50  0000 C CNN
F 2 "Resistors_SMD:R_1206_HandSoldering" V 4380 5350 50  0001 C CNN
F 3 "" H 4450 5350 50  0001 C CNN
	1    4450 5350
	0    1    1    0   
$EndComp
Wire Wire Line
	4000 6100 3600 6100
Wire Wire Line
	3600 5750 3600 6100
Wire Wire Line
	3600 5350 3600 5750
Connection ~ 3600 5750
Wire Wire Line
	4000 5750 3600 5750
Wire Wire Line
	4000 5350 3600 5350
$Comp
L power:GND #PWR04
U 1 1 5B1627E1
P 3600 6100
F 0 "#PWR04" H 3600 5850 50  0001 C CNN
F 1 "GND" H 3600 5950 50  0000 C CNN
F 2 "" H 3600 6100 50  0001 C CNN
F 3 "" H 3600 6100 50  0001 C CNN
	1    3600 6100
	1    0    0    -1  
$EndComp
$Comp
L arduinoBase-rescue:Conn_01x03-fridgeLogger-rescue J2
U 1 1 5EC5E104
P 7000 1550
F 0 "J2" H 7000 1750 50  0000 C CNN
F 1 "Conn_01x03" H 7000 1350 50  0000 C CNN
F 2 "Pin_Headers:Pin_Header_Straight_1x03_Pitch2.54mm" H 7000 1550 50  0001 C CNN
F 3 "" H 7000 1550 50  0001 C CNN
	1    7000 1550
	-1   0    0    1   
$EndComp
Text Label 7200 1450 0    50   ~ 0
pot
Text Label 7200 1650 0    50   ~ 0
A7analogIn
Wire Wire Line
	9050 4700 8800 4700
Wire Wire Line
	9050 4900 8850 4900
$Comp
L arduinoBase-rescue:Conn_01x03-fridgeLogger-rescue J3
U 1 1 5EC72E05
P 9250 4250
F 0 "J3" H 9250 4450 50  0000 C CNN
F 1 "Conn_01x03" H 9250 4050 50  0000 C CNN
F 2 "Pin_Headers:Pin_Header_Straight_1x03_Pitch2.54mm" H 9250 4250 50  0001 C CNN
F 3 "" H 9250 4250 50  0001 C CNN
	1    9250 4250
	1    0    0    -1  
$EndComp
$Comp
L power:GND #PWR0102
U 1 1 5EC72E0B
P 8850 4350
F 0 "#PWR0102" H 8850 4100 50  0001 C CNN
F 1 "GND" H 8850 4200 50  0000 C CNN
F 2 "" H 8850 4350 50  0001 C CNN
F 3 "" H 8850 4350 50  0001 C CNN
	1    8850 4350
	0    1    1    0   
$EndComp
$Comp
L power:+5V #PWR0103
U 1 1 5EC72E11
P 9050 4250
F 0 "#PWR0103" H 9050 4100 50  0001 C CNN
F 1 "+5V" H 9065 4423 50  0000 C CNN
F 2 "" H 9050 4250 50  0001 C CNN
F 3 "" H 9050 4250 50  0001 C CNN
	1    9050 4250
	0    -1   -1   0   
$EndComp
Wire Wire Line
	9050 4150 8800 4150
Wire Wire Line
	9050 4350 8850 4350
$Comp
L arduinoBase-rescue:Conn_01x03-fridgeLogger-rescue J4
U 1 1 5EC7BBD9
P 9250 5300
F 0 "J4" H 9250 5500 50  0000 C CNN
F 1 "Conn_01x03" H 9250 5100 50  0000 C CNN
F 2 "Pin_Headers:Pin_Header_Straight_1x03_Pitch2.54mm" H 9250 5300 50  0001 C CNN
F 3 "" H 9250 5300 50  0001 C CNN
	1    9250 5300
	1    0    0    -1  
$EndComp
$Comp
L power:GND #PWR0104
U 1 1 5EC7BBDF
P 8850 5400
F 0 "#PWR0104" H 8850 5150 50  0001 C CNN
F 1 "GND" H 8850 5250 50  0000 C CNN
F 2 "" H 8850 5400 50  0001 C CNN
F 3 "" H 8850 5400 50  0001 C CNN
	1    8850 5400
	0    1    1    0   
$EndComp
$Comp
L power:+5V #PWR0105
U 1 1 5EC7BBE5
P 9050 5300
F 0 "#PWR0105" H 9050 5150 50  0001 C CNN
F 1 "+5V" H 9065 5473 50  0000 C CNN
F 2 "" H 9050 5300 50  0001 C CNN
F 3 "" H 9050 5300 50  0001 C CNN
	1    9050 5300
	0    -1   -1   0   
$EndComp
Wire Wire Line
	9050 5200 8800 5200
Wire Wire Line
	9050 5400 8850 5400
$Comp
L power:GND #PWR0107
U 1 1 5EC80B3C
P 8850 6000
F 0 "#PWR0107" H 8850 5750 50  0001 C CNN
F 1 "GND" H 8850 5850 50  0000 C CNN
F 2 "" H 8850 6000 50  0001 C CNN
F 3 "" H 8850 6000 50  0001 C CNN
	1    8850 6000
	0    1    1    0   
$EndComp
$Comp
L power:+5V #PWR0109
U 1 1 5EC80B42
P 9050 5900
F 0 "#PWR0109" H 9050 5750 50  0001 C CNN
F 1 "+5V" H 9065 6073 50  0000 C CNN
F 2 "" H 9050 5900 50  0001 C CNN
F 3 "" H 9050 5900 50  0001 C CNN
	1    9050 5900
	0    -1   -1   0   
$EndComp
Wire Wire Line
	9050 5800 8800 5800
Wire Wire Line
	9050 6000 8850 6000
$Comp
L arduinoBase-rescue:Conn_01x03-fridgeLogger-rescue J6
U 1 1 5EC85BC4
P 10500 4400
F 0 "J6" H 10500 4600 50  0000 C CNN
F 1 "Conn_01x03" H 10500 4200 50  0000 C CNN
F 2 "Pin_Headers:Pin_Header_Straight_1x03_Pitch2.54mm" H 10500 4400 50  0001 C CNN
F 3 "" H 10500 4400 50  0001 C CNN
	1    10500 4400
	1    0    0    -1  
$EndComp
$Comp
L power:GND #PWR0110
U 1 1 5EC85BCA
P 10100 4500
F 0 "#PWR0110" H 10100 4250 50  0001 C CNN
F 1 "GND" H 10100 4350 50  0000 C CNN
F 2 "" H 10100 4500 50  0001 C CNN
F 3 "" H 10100 4500 50  0001 C CNN
	1    10100 4500
	0    1    1    0   
$EndComp
$Comp
L power:+5V #PWR0111
U 1 1 5EC85BD0
P 10300 4400
F 0 "#PWR0111" H 10300 4250 50  0001 C CNN
F 1 "+5V" H 10315 4573 50  0000 C CNN
F 2 "" H 10300 4400 50  0001 C CNN
F 3 "" H 10300 4400 50  0001 C CNN
	1    10300 4400
	0    -1   -1   0   
$EndComp
Wire Wire Line
	10300 4300 10050 4300
Wire Wire Line
	10300 4500 10100 4500
$Comp
L arduinoBase-rescue:Conn_01x03-fridgeLogger-rescue J7
U 1 1 5EC8B151
P 10500 4900
F 0 "J7" H 10500 5100 50  0000 C CNN
F 1 "Conn_01x03" H 10500 4700 50  0000 C CNN
F 2 "Pin_Headers:Pin_Header_Straight_1x03_Pitch2.54mm" H 10500 4900 50  0001 C CNN
F 3 "" H 10500 4900 50  0001 C CNN
	1    10500 4900
	1    0    0    -1  
$EndComp
$Comp
L power:GND #PWR0113
U 1 1 5EC8B157
P 10100 5000
F 0 "#PWR0113" H 10100 4750 50  0001 C CNN
F 1 "GND" H 10100 4850 50  0000 C CNN
F 2 "" H 10100 5000 50  0001 C CNN
F 3 "" H 10100 5000 50  0001 C CNN
	1    10100 5000
	0    1    1    0   
$EndComp
$Comp
L power:+5V #PWR0115
U 1 1 5EC8B15D
P 10300 4900
F 0 "#PWR0115" H 10300 4750 50  0001 C CNN
F 1 "+5V" H 10315 5073 50  0000 C CNN
F 2 "" H 10300 4900 50  0001 C CNN
F 3 "" H 10300 4900 50  0001 C CNN
	1    10300 4900
	0    -1   -1   0   
$EndComp
Wire Wire Line
	10300 4800 10050 4800
Wire Wire Line
	10300 5000 10100 5000
$Comp
L arduinoBase-rescue:Conn_01x03-fridgeLogger-rescue J8
U 1 1 5EC90A9B
P 10500 5400
F 0 "J8" H 10500 5600 50  0000 C CNN
F 1 "Conn_01x03" H 10500 5200 50  0000 C CNN
F 2 "Pin_Headers:Pin_Header_Straight_1x03_Pitch2.54mm" H 10500 5400 50  0001 C CNN
F 3 "" H 10500 5400 50  0001 C CNN
	1    10500 5400
	1    0    0    -1  
$EndComp
$Comp
L power:GND #PWR0116
U 1 1 5EC90AA1
P 10100 5500
F 0 "#PWR0116" H 10100 5250 50  0001 C CNN
F 1 "GND" H 10100 5350 50  0000 C CNN
F 2 "" H 10100 5500 50  0001 C CNN
F 3 "" H 10100 5500 50  0001 C CNN
	1    10100 5500
	0    1    1    0   
$EndComp
$Comp
L power:+5V #PWR0118
U 1 1 5EC90AA7
P 10300 5400
F 0 "#PWR0118" H 10300 5250 50  0001 C CNN
F 1 "+5V" H 10315 5573 50  0000 C CNN
F 2 "" H 10300 5400 50  0001 C CNN
F 3 "" H 10300 5400 50  0001 C CNN
	1    10300 5400
	0    -1   -1   0   
$EndComp
Wire Wire Line
	10300 5300 10050 5300
Wire Wire Line
	10300 5500 10100 5500
$Comp
L arduinoBase-rescue:Conn_01x03-fridgeLogger-rescue J9
U 1 1 5EC96BA0
P 10500 5900
F 0 "J9" H 10500 6100 50  0000 C CNN
F 1 "Conn_01x03" H 10500 5700 50  0000 C CNN
F 2 "Pin_Headers:Pin_Header_Straight_1x03_Pitch2.54mm" H 10500 5900 50  0001 C CNN
F 3 "" H 10500 5900 50  0001 C CNN
	1    10500 5900
	1    0    0    -1  
$EndComp
$Comp
L power:GND #PWR0119
U 1 1 5EC96BA6
P 10100 6000
F 0 "#PWR0119" H 10100 5750 50  0001 C CNN
F 1 "GND" H 10100 5850 50  0000 C CNN
F 2 "" H 10100 6000 50  0001 C CNN
F 3 "" H 10100 6000 50  0001 C CNN
	1    10100 6000
	0    1    1    0   
$EndComp
$Comp
L power:+5V #PWR0120
U 1 1 5EC96BAC
P 10300 5900
F 0 "#PWR0120" H 10300 5750 50  0001 C CNN
F 1 "+5V" H 10315 6073 50  0000 C CNN
F 2 "" H 10300 5900 50  0001 C CNN
F 3 "" H 10300 5900 50  0001 C CNN
	1    10300 5900
	0    -1   -1   0   
$EndComp
Wire Wire Line
	10300 5800 10050 5800
Wire Wire Line
	10300 6000 10100 6000
Text Label 10050 5800 2    50   ~ 0
A7analogIn
Text Label 7050 5950 1    60   ~ 0
12(MISO)
Text Label 7150 5950 1    60   ~ 0
11(**/MOSI)
Wire Wire Line
	6750 5950 6750 5350
$Comp
L power:GND #PWR0122
U 1 1 5EBFD9BD
P 6750 5350
F 0 "#PWR0122" H 6750 5100 50  0001 C CNN
F 1 "GND" H 6755 5177 50  0000 C CNN
F 2 "" H 6750 5350 50  0001 C CNN
F 3 "" H 6750 5350 50  0001 C CNN
	1    6750 5350
	-1   0    0    1   
$EndComp
Text Label 7250 5950 1    60   ~ 0
10(**/SS)
Text Label 8050 5950 1    60   ~ 0
9(**)
Text Label 6850 5950 1    60   ~ 0
13(SCK)
$Comp
L Connector:Conn_01x06_Male J10
U 1 1 5EC14CFB
P 6950 6150
F 0 "J10" H 7058 6531 50  0000 C CNN
F 1 "Conn_01x06_Male" H 7300 6450 50  0000 C CNN
F 2 "Pin_Headers:Pin_Header_Straight_1x06_Pitch2.54mm" H 6950 6150 50  0001 C CNN
F 3 "~" H 6950 6150 50  0001 C CNN
	1    6950 6150
	0    -1   -1   0   
$EndComp
$Comp
L Connector:Conn_01x06_Male J11
U 1 1 5EC15818
P 7750 6150
F 0 "J11" H 7858 6531 50  0000 C CNN
F 1 "Conn_01x06_Male" H 8100 6450 50  0000 C CNN
F 2 "Pin_Headers:Pin_Header_Straight_1x06_Pitch2.54mm" H 7750 6150 50  0001 C CNN
F 3 "~" H 7750 6150 50  0001 C CNN
	1    7750 6150
	0    -1   -1   0   
$EndComp
$Comp
L arduinoBase-rescue:Conn_01x03-fridgeLogger-rescue J12
U 1 1 5EC4023F
P 6950 3550
F 0 "J12" H 6950 3750 50  0000 C CNN
F 1 "Conn_01x03" H 6800 3300 50  0000 C CNN
F 2 "Pin_Headers:Pin_Header_Straight_1x03_Pitch2.54mm" H 6950 3550 50  0001 C CNN
F 3 "" H 6950 3550 50  0001 C CNN
	1    6950 3550
	-1   0    0    1   
$EndComp
$Comp
L arduinoBase-rescue:Conn_01x03-fridgeLogger-rescue J13
U 1 1 5EC40803
P 6950 2950
F 0 "J13" H 6950 3150 50  0000 C CNN
F 1 "Conn_01x03" H 6800 2700 50  0000 C CNN
F 2 "Pin_Headers:Pin_Header_Straight_1x03_Pitch2.54mm" H 6950 2950 50  0001 C CNN
F 3 "" H 6950 2950 50  0001 C CNN
	1    6950 2950
	-1   0    0    1   
$EndComp
Text Label 7150 3650 0    60   ~ 0
5(**)
Text Label 7150 3050 0    60   ~ 0
6(**)
$Comp
L power:GND #PWR0125
U 1 1 5EC41A7E
P 7150 2850
F 0 "#PWR0125" H 7150 2600 50  0001 C CNN
F 1 "GND" H 7155 2677 50  0000 C CNN
F 2 "" H 7150 2850 50  0001 C CNN
F 3 "" H 7150 2850 50  0001 C CNN
	1    7150 2850
	0    -1   -1   0   
$EndComp
$Comp
L power:GND #PWR0126
U 1 1 5EC41E97
P 7150 3450
F 0 "#PWR0126" H 7150 3200 50  0001 C CNN
F 1 "GND" H 7155 3277 50  0000 C CNN
F 2 "" H 7150 3450 50  0001 C CNN
F 3 "" H 7150 3450 50  0001 C CNN
	1    7150 3450
	0    -1   -1   0   
$EndComp
Text Label 4900 6100 0    60   ~ 0
4
Text Label 1550 5150 0    50   ~ 0
pot
Text Label 7150 3550 0    50   ~ 0
Vin
Text Label 7150 2950 0    50   ~ 0
Vin
Wire Wire Line
	7550 5950 7550 5350
$Comp
L power:GND #PWR0124
U 1 1 5ECD5075
P 7550 5350
F 0 "#PWR0124" H 7550 5100 50  0001 C CNN
F 1 "GND" H 7555 5177 50  0000 C CNN
F 2 "" H 7550 5350 50  0001 C CNN
F 3 "" H 7550 5350 50  0001 C CNN
	1    7550 5350
	-1   0    0    1   
$EndComp
Text Label 7650 5950 1    60   ~ 0
13(SCK)
Wire Wire Line
	7750 5950 7750 5300
$Comp
L power:+5V #PWR0121
U 1 1 5EBF98B4
P 6950 5350
F 0 "#PWR0121" H 6950 5200 50  0001 C CNN
F 1 "+5V" H 6965 5523 50  0000 C CNN
F 2 "" H 6950 5350 50  0001 C CNN
F 3 "" H 6950 5350 50  0001 C CNN
	1    6950 5350
	1    0    0    -1  
$EndComp
Wire Wire Line
	6950 5950 6950 5350
$Comp
L Connector:Conn_01x05_Male J16
U 1 1 5ED88554
P 1300 6100
F 0 "J16" H 1400 6550 50  0000 C CNN
F 1 "Conn_01x05_Male" H 1400 6450 50  0000 C CNN
F 2 "Pin_Headers:Pin_Header_Straight_1x05_Pitch2.54mm" H 1300 6100 50  0001 C CNN
F 3 "~" H 1300 6100 50  0001 C CNN
	1    1300 6100
	1    0    0    -1  
$EndComp
Text Label 1500 6100 0    60   ~ 0
8
Text Label 1500 6200 0    60   ~ 0
4
Text Label 1500 6300 0    60   ~ 0
7
Text Label 1500 6000 0    60   ~ 0
3
Text Label 1500 5900 0    60   ~ 0
2
$Comp
L power:+5V #PWR0123
U 1 1 5ECD506E
P 7800 4700
F 0 "#PWR0123" H 7800 4550 50  0001 C CNN
F 1 "+5V" H 7815 4873 50  0000 C CNN
F 2 "" H 7800 4700 50  0001 C CNN
F 3 "" H 7800 4700 50  0001 C CNN
	1    7800 4700
	-1   0    0    1   
$EndComp
Text Label 7950 5950 1    60   ~ 0
11(**/MOSI)
Text Label 7850 5950 1    60   ~ 0
12(MISO)
Text Label 6800 4400 1    60   ~ 0
A4
Text Label 7000 4400 1    60   ~ 0
A5
$Comp
L arduinoBase-rescue:R-fridgeLogger-rescue R1
U 1 1 5ED7FBE4
P 6800 4550
F 0 "R1" V 6880 4550 50  0000 C CNN
F 1 "R" V 6800 4550 50  0000 C CNN
F 2 "Resistors_SMD:R_1206_HandSoldering" V 6730 4550 50  0001 C CNN
F 3 "" H 6800 4550 50  0001 C CNN
	1    6800 4550
	-1   0    0    1   
$EndComp
$Comp
L arduinoBase-rescue:R-fridgeLogger-rescue R2
U 1 1 5ED80BED
P 7000 4550
F 0 "R2" V 7080 4550 50  0000 C CNN
F 1 "R" V 7000 4550 50  0000 C CNN
F 2 "Resistors_SMD:R_1206_HandSoldering" V 6930 4550 50  0001 C CNN
F 3 "" H 7000 4550 50  0001 C CNN
	1    7000 4550
	-1   0    0    1   
$EndComp
$Comp
L power:+5V #PWR0128
U 1 1 5ED80DB5
P 6800 4700
F 0 "#PWR0128" H 6800 4550 50  0001 C CNN
F 1 "+5V" H 6815 4873 50  0000 C CNN
F 2 "" H 6800 4700 50  0001 C CNN
F 3 "" H 6800 4700 50  0001 C CNN
	1    6800 4700
	-1   0    0    1   
$EndComp
$Comp
L power:+5V #PWR0129
U 1 1 5ED81B50
P 7000 4700
F 0 "#PWR0129" H 7000 4550 50  0001 C CNN
F 1 "+5V" H 7015 4873 50  0000 C CNN
F 2 "" H 7000 4700 50  0001 C CNN
F 3 "" H 7000 4700 50  0001 C CNN
	1    7000 4700
	-1   0    0    1   
$EndComp
$Comp
L Connector:Conn_01x04_Male J17
U 1 1 5ED830C0
P 8000 4600
F 0 "J17" V 8154 4312 50  0000 R CNN
F 1 "Conn_01x04_Male" V 7900 4900 50  0000 R CNN
F 2 "Pin_Headers:Pin_Header_Straight_1x04_Pitch2.54mm" H 8000 4600 50  0001 C CNN
F 3 "~" H 8000 4600 50  0001 C CNN
	1    8000 4600
	-1   0    0    1   
$EndComp
Wire Wire Line
	7800 4600 7550 4600
$Comp
L power:GND #PWR0130
U 1 1 5ED9081B
P 7550 4600
F 0 "#PWR0130" H 7550 4350 50  0001 C CNN
F 1 "GND" H 7555 4427 50  0000 C CNN
F 2 "" H 7550 4600 50  0001 C CNN
F 3 "" H 7550 4600 50  0001 C CNN
	1    7550 4600
	0    1    1    0   
$EndComp
Connection ~ 3600 6100
Wire Notes Line
	3350 4750 3350 6400
Wire Notes Line
	1850 6400 1850 4750
Wire Notes Line
	5450 6450 5450 4700
Text Notes 5150 6350 0    50   ~ 0
LEDs
Text Notes 1900 4850 0    50   ~ 0
Buttons
Text Notes 5000 4850 0    50   ~ 0
Interface
Wire Notes Line
	800  2050 1850 2050
Wire Notes Line
	1850 2050 1850 750 
Wire Notes Line
	1850 750  800  750 
Wire Notes Line
	800  750  800  2050
Wire Notes Line
	1000 6400 1000 4750
Wire Notes Line
	1000 6400 5400 6400
Wire Notes Line
	950  4700 950  6450
Wire Notes Line
	950  4700 5450 4700
Wire Notes Line
	950  6450 5450 6450
Wire Notes Line
	1000 5550 1850 5550
Wire Notes Line
	2450 750  2450 2900
Wire Notes Line
	2450 2900 3850 2900
Wire Notes Line
	3850 2900 3850 750 
Wire Notes Line
	3850 750  2450 750 
Text Notes 2500 850  0    50   ~ 0
Power
Wire Notes Line
	10850 6200 8600 6200
Wire Notes Line
	6500 6200 8200 6200
Wire Notes Line
	6800 3850 7550 3850
Wire Notes Line
	7550 3850 7550 2550
Wire Notes Line
	7550 2550 6800 2550
Wire Notes Line
	6800 3850 6800 2550
Text Notes 6750 1100 0    50   ~ 0
Jumpers
Wire Notes Line
	7700 950  6700 950 
Text Notes 7500 2600 3    50   ~ 0
Servos
Text Notes 6550 4150 0    50   ~ 0
Communications
Wire Notes Line
	8200 4050 6500 4050
Wire Notes Line
	8200 4050 8200 6200
Wire Notes Line
	6500 4050 6500 6200
Text Notes 10150 4000 0    50   ~ 0
Analog headers
Wire Notes Line
	8125 950  9325 950 
Wire Notes Line
	6700 1150 7100 1150
Wire Notes Line
	7100 1150 7100 950 
Wire Notes Line
	7400 2550 7400 2900
Wire Notes Line
	7400 2900 7550 2900
Wire Notes Line
	8100 800  10850 800 
Wire Notes Line
	10850 800  10850 3150
Wire Notes Line
	6500 4200 7250 4200
Wire Notes Line
	7250 4200 7250 4050
Wire Notes Line
	11050 6400 11050 600 
Text Notes 6350 750  0    50   ~ 0
Connectors
Wire Notes Line
	5400 6250 5100 6250
Wire Notes Line
	5100 6250 5100 6400
Wire Notes Line
	1850 4900 2250 4900
Wire Notes Line
	2250 4900 2250 4750
Wire Notes Line
	3350 4750 1000 4750
Wire Notes Line
	4900 4700 4900 4900
Wire Notes Line
	5400 6400 5400 5000
Wire Notes Line
	4900 4900 5450 4900
Wire Notes Line
	3350 5000 5400 5000
Wire Notes Line
	6300 6400 6300 600 
Wire Notes Line
	6300 600  11150 600 
Wire Notes Line
	6300 6400 11050 6400
Wire Notes Line
	6300 850  6900 850 
Wire Notes Line
	6900 850  6900 600 
$Comp
L Connector_Generic:Conn_01x04 J5
U 1 1 5EDA17E8
P 9250 4700
F 0 "J5" H 9330 4692 50  0000 L CNN
F 1 "Conn_01x04" H 9330 4601 50  0000 L CNN
F 2 "Pin_Headers:Pin_Header_Straight_1x04_Pitch2.54mm" H 9250 4700 50  0001 C CNN
F 3 "~" H 9250 4700 50  0001 C CNN
	1    9250 4700
	1    0    0    -1  
$EndComp
Text Label 8800 4700 0    60   ~ 0
A0
Wire Wire Line
	9050 4600 8800 4600
$Comp
L Connector_Generic:Conn_01x04 J14
U 1 1 5EDB05ED
P 9250 5800
F 0 "J14" H 9330 5792 50  0000 L CNN
F 1 "Conn_01x04" H 9330 5701 50  0000 L CNN
F 2 "Pin_Headers:Pin_Header_Straight_1x04_Pitch2.54mm" H 9250 5800 50  0001 C CNN
F 3 "~" H 9250 5800 50  0001 C CNN
	1    9250 5800
	1    0    0    -1  
$EndComp
Text Label 8800 5800 0    60   ~ 0
A2
Wire Wire Line
	9050 5700 8800 5700
Wire Notes Line
	10850 3850 8600 3850
Wire Notes Line
	8600 3850 8600 6200
Wire Notes Line
	10850 3850 10850 6200
Wire Notes Line
	10850 4100 10000 4100
Wire Notes Line
	10000 4100 10000 3850
Text Label 7800 4500 2    60   ~ 0
0(Rx)
Text Label 7800 4400 2    60   ~ 0
1(Tx)
$Comp
L power:+5V #PWR0131
U 1 1 5F0577D8
P 7750 5300
F 0 "#PWR0131" H 7750 5150 50  0001 C CNN
F 1 "+5V" H 7765 5473 50  0000 C CNN
F 2 "" H 7750 5300 50  0001 C CNN
F 3 "" H 7750 5300 50  0001 C CNN
	1    7750 5300
	1    0    0    -1  
$EndComp
Wire Notes Line
	6700 950  6700 1900
Wire Notes Line
	6700 1900 7700 1900
Wire Notes Line
	7700 1900 7700 950 
$EndSCHEMATC
