EESchema Schematic File Version 2
LIBS:power
LIBS:device
LIBS:transistors
LIBS:conn
LIBS:linear
LIBS:regul
LIBS:74xx
LIBS:cmos4000
LIBS:adc-dac
LIBS:memory
LIBS:xilinx
LIBS:microcontrollers
LIBS:dsp
LIBS:microchip
LIBS:analog_switches
LIBS:motorola
LIBS:texas
LIBS:intel
LIBS:audio
LIBS:interface
LIBS:digital-audio
LIBS:philips
LIBS:display
LIBS:cypress
LIBS:siliconi
LIBS:opto
LIBS:atmel
LIBS:contrib
LIBS:valves
LIBS:Switch
LIBS:fridgeLogger-cache
EELAYER 25 0
EELAYER END
$Descr A4 11693 8268
encoding utf-8
Sheet 1 1
Title ""
Date "jeu. 02 avril 2015"
Rev ""
Comp ""
Comment1 ""
Comment2 ""
Comment3 ""
Comment4 ""
$EndDescr
Text Label 8700 1100 0    60   ~ 0
1(Tx)
Text Label 8700 1200 0    60   ~ 0
0(Rx)
Text Label 8700 1300 0    60   ~ 0
Reset
Text Label 8700 1500 0    60   ~ 0
2
Text Label 8700 1600 0    60   ~ 0
3
Text Label 8700 1700 0    60   ~ 0
4
Text Label 8700 1800 0    60   ~ 0
5(**)
Text Label 8700 1900 0    60   ~ 0
6(**)
Text Label 8700 2000 0    60   ~ 0
7
Text Label 8700 2100 0    60   ~ 0
8
Text Label 8700 2200 0    60   ~ 0
9(**)
Text Label 8700 2300 0    60   ~ 0
10(**/SS)
Text Label 8700 2400 0    60   ~ 0
11(**/MOSI)
Text Label 8700 2500 0    60   ~ 0
12(MISO)
Text Label 10550 2500 0    60   ~ 0
13(SCK)
Text Label 10550 2200 0    60   ~ 0
A0
Text Label 10550 2100 0    60   ~ 0
A1
Text Label 10550 2000 0    60   ~ 0
A2
Text Label 10550 1900 0    60   ~ 0
A3
Text Label 10550 1600 0    60   ~ 0
A6
Text Label 10550 1500 0    60   ~ 0
A7
Text Label 10550 2300 0    60   ~ 0
AREF
Text Label 10550 1300 0    60   ~ 0
Reset
Text Notes 10800 1000 0    60   ~ 0
Holes
Text Notes 8500 575  0    60   ~ 0
Shield for Arduino Nano
Text Label 10250 950  1    60   ~ 0
Vin
$Comp
L CONN_01X01 P3
U 1 1 56D73ADD
P 10800 650
F 0 "P3" V 10900 650 50  0000 C CNN
F 1 "CONN_01X01" V 10900 650 50  0001 C CNN
F 2 "Socket_Arduino_Nano:1pin_Nano" H 10800 650 50  0001 C CNN
F 3 "" H 10800 650 50  0000 C CNN
	1    10800 650 
	0    -1   -1   0   
$EndComp
NoConn ~ 10800 850 
$Comp
L CONN_01X01 P4
U 1 1 56D73D86
P 10900 650
F 0 "P4" V 11000 650 50  0000 C CNN
F 1 "CONN_01X01" V 11000 650 50  0001 C CNN
F 2 "Socket_Arduino_Nano:1pin_Nano" H 10900 650 50  0001 C CNN
F 3 "" H 10900 650 50  0000 C CNN
	1    10900 650 
	0    -1   -1   0   
$EndComp
$Comp
L CONN_01X01 P5
U 1 1 56D73DAE
P 11000 650
F 0 "P5" V 11100 650 50  0000 C CNN
F 1 "CONN_01X01" V 11100 650 50  0001 C CNN
F 2 "Socket_Arduino_Nano:1pin_Nano" H 11000 650 50  0001 C CNN
F 3 "" H 11000 650 50  0000 C CNN
	1    11000 650 
	0    -1   -1   0   
$EndComp
$Comp
L CONN_01X01 P6
U 1 1 56D73DD9
P 11100 650
F 0 "P6" V 11200 650 50  0000 C CNN
F 1 "CONN_01X01" V 11200 650 50  0001 C CNN
F 2 "Socket_Arduino_Nano:1pin_Nano" H 11100 650 50  0001 C CNN
F 3 "" H 11100 650 50  0000 C CNN
	1    11100 650 
	0    -1   -1   0   
$EndComp
NoConn ~ 10900 850 
NoConn ~ 11000 850 
NoConn ~ 11100 850 
$Comp
L CONN_01X15 P1
U 1 1 56D73FAC
P 9550 1800
F 0 "P1" H 9550 2600 50  0000 C CNN
F 1 "Digital" V 9650 1800 50  0000 C CNN
F 2 "Socket_Arduino_Nano:Socket_Strip_Arduino_1x15" H 9550 1800 50  0001 C CNN
F 3 "" H 9550 1800 50  0000 C CNN
	1    9550 1800
	1    0    0    -1  
$EndComp
$Comp
L CONN_01X15 P2
U 1 1 56D740C7
P 9950 1800
F 0 "P2" H 9950 2600 50  0000 C CNN
F 1 "Analog" V 10050 1800 50  0000 C CNN
F 2 "Socket_Arduino_Nano:Socket_Strip_Arduino_1x15" H 9950 1800 50  0001 C CNN
F 3 "" H 9950 1800 50  0000 C CNN
	1    9950 1800
	-1   0    0    -1  
$EndComp
$Comp
L GND #PWR01
U 1 1 56D7422C
P 9250 2600
F 0 "#PWR01" H 9250 2350 50  0001 C CNN
F 1 "GND" H 9250 2450 50  0000 C CNN
F 2 "" H 9250 2600 50  0000 C CNN
F 3 "" H 9250 2600 50  0000 C CNN
	1    9250 2600
	1    0    0    -1  
$EndComp
$Comp
L GND #PWR02
U 1 1 56D746ED
P 10250 2600
F 0 "#PWR02" H 10250 2350 50  0001 C CNN
F 1 "GND" H 10250 2450 50  0000 C CNN
F 2 "" H 10250 2600 50  0000 C CNN
F 3 "" H 10250 2600 50  0000 C CNN
	1    10250 2600
	1    0    0    -1  
$EndComp
$Comp
L +5V #PWR03
U 1 1 56D747E8
P 10350 950
F 0 "#PWR03" H 10350 800 50  0001 C CNN
F 1 "+5V" H 10350 1090 28  0000 C CNN
F 2 "" H 10350 950 50  0000 C CNN
F 3 "" H 10350 950 50  0000 C CNN
	1    10350 950 
	1    0    0    -1  
$EndComp
$Comp
L +3.3V #PWR04
U 1 1 56D74854
P 10450 950
F 0 "#PWR04" H 10450 800 50  0001 C CNN
F 1 "+3.3V" H 10450 1090 28  0000 C CNN
F 2 "" H 10450 950 50  0000 C CNN
F 3 "" H 10450 950 50  0000 C CNN
	1    10450 950 
	1    0    0    -1  
$EndComp
Text Notes 9650 1100 0    60   ~ 0
1
$Comp
L R R1
U 1 1 5B150DB8
P 2100 2300
F 0 "R1" V 2180 2300 50  0000 C CNN
F 1 "4K7" V 2100 2300 50  0000 C CNN
F 2 "Resistors_SMD:R_1206_HandSoldering" V 2030 2300 50  0001 C CNN
F 3 "" H 2100 2300 50  0001 C CNN
	1    2100 2300
	1    0    0    -1  
$EndComp
$Comp
L Conn_02x04_Odd_Even J4
U 1 1 5B15159F
P 5150 1500
F 0 "J4" H 5200 1700 50  0000 C CNN
F 1 "Conn_I2C " H 5200 1200 50  0000 C CNN
F 2 "Pin_Headers:Pin_Header_Straight_2x04_Pitch2.54mm" H 5150 1500 50  0001 C CNN
F 3 "" H 5150 1500 50  0001 C CNN
	1    5150 1500
	1    0    0    -1  
$EndComp
$Comp
L Conn_01x03 J3
U 1 1 5B151DF5
P 2700 2650
F 0 "J3" H 2700 2850 50  0000 C CNN
F 1 "Conn_oneWire" H 2700 2450 50  0000 C CNN
F 2 "Pin_Headers:Pin_Header_Straight_1x03_Pitch2.54mm" H 2700 2650 50  0001 C CNN
F 3 "" H 2700 2650 50  0001 C CNN
	1    2700 2650
	1    0    0    -1  
$EndComp
$Comp
L GND #PWR05
U 1 1 5B1529B7
P 4600 1200
F 0 "#PWR05" H 4600 950 50  0001 C CNN
F 1 "GND" H 4600 1050 50  0000 C CNN
F 2 "" H 4600 1200 50  0001 C CNN
F 3 "" H 4600 1200 50  0001 C CNN
	1    4600 1200
	1    0    0    -1  
$EndComp
$Comp
L GND #PWR06
U 1 1 5B152ADD
P 5800 1200
F 0 "#PWR06" H 5800 950 50  0001 C CNN
F 1 "GND" H 5800 1050 50  0000 C CNN
F 2 "" H 5800 1200 50  0001 C CNN
F 3 "" H 5800 1200 50  0001 C CNN
	1    5800 1200
	1    0    0    -1  
$EndComp
$Comp
L +5V #PWR07
U 1 1 5B152BA6
P 6000 1500
F 0 "#PWR07" H 6000 1350 50  0001 C CNN
F 1 "+5V" H 6000 1640 50  0000 C CNN
F 2 "" H 6000 1500 50  0001 C CNN
F 3 "" H 6000 1500 50  0001 C CNN
	1    6000 1500
	1    0    0    -1  
$EndComp
$Comp
L +5V #PWR08
U 1 1 5B152BDE
P 4350 1500
F 0 "#PWR08" H 4350 1350 50  0001 C CNN
F 1 "+5V" H 4350 1640 50  0000 C CNN
F 2 "" H 4350 1500 50  0001 C CNN
F 3 "" H 4350 1500 50  0001 C CNN
	1    4350 1500
	1    0    0    -1  
$EndComp
Text Label 4700 1600 0    60   ~ 0
SCK
Text Label 4750 1700 0    60   ~ 0
SDA
Text Label 5500 1700 0    60   ~ 0
SDA
Text Label 5550 1600 0    60   ~ 0
SCK
Text Label 10300 1800 0    60   ~ 0
SDA
Text Label 10300 1700 0    60   ~ 0
SCK
Text Label 2150 3400 0    60   ~ 0
13(SCK)
Text Label 2100 3600 0    60   ~ 0
12(MISO)
Text Label 2050 3500 0    60   ~ 0
11(**/MOSI)
$Comp
L Conn_01x07 J2
U 1 1 5B15E2BB
P 2850 3600
F 0 "J2" H 2850 4000 50  0000 C CNN
F 1 "Conn_SPI" H 2850 3200 50  0000 C CNN
F 2 "Pin_Headers:Pin_Header_Straight_1x07_Pitch2.54mm" H 2850 3600 50  0001 C CNN
F 3 "" H 2850 3600 50  0001 C CNN
	1    2850 3600
	1    0    0    -1  
$EndComp
Wire Notes Line
	8475 650  9675 650 
Wire Notes Line
	9675 650  9675 475 
Wire Wire Line
	9350 1400 9250 1400
Wire Wire Line
	9250 1400 9250 2600
Wire Wire Line
	9350 1100 8700 1100
Wire Wire Line
	8700 1200 9350 1200
Wire Wire Line
	9350 1300 8700 1300
Wire Wire Line
	8700 1500 9350 1500
Wire Wire Line
	9350 1600 8700 1600
Wire Wire Line
	8700 1700 9350 1700
Wire Wire Line
	9350 1800 8700 1800
Wire Wire Line
	8700 1900 9350 1900
Wire Wire Line
	9350 2000 8700 2000
Wire Wire Line
	8700 2100 9350 2100
Wire Wire Line
	9350 2200 8700 2200
Wire Wire Line
	8700 2300 9350 2300
Wire Wire Line
	9350 2400 8700 2400
Wire Wire Line
	8700 2500 9350 2500
Wire Wire Line
	10250 2600 10250 1200
Wire Wire Line
	10250 1200 10150 1200
Wire Wire Line
	10150 1100 10250 1100
Wire Wire Line
	10250 1100 10250 950 
Wire Wire Line
	10350 950  10350 1400
Wire Wire Line
	10350 1400 10150 1400
Wire Wire Line
	10450 950  10450 2400
Wire Wire Line
	10450 2400 10150 2400
Wire Wire Line
	10550 1300 10150 1300
Wire Wire Line
	10150 1500 10550 1500
Wire Wire Line
	10550 1600 10150 1600
Wire Wire Line
	10550 1700 10150 1700
Wire Wire Line
	10150 1800 10550 1800
Wire Wire Line
	10550 1900 10150 1900
Wire Wire Line
	10550 2000 10150 2000
Wire Wire Line
	10150 2100 10550 2100
Wire Wire Line
	10550 2200 10150 2200
Wire Wire Line
	10550 2300 10150 2300
Wire Wire Line
	10150 2500 10550 2500
Wire Notes Line
	11200 1050 10650 1050
Wire Notes Line
	10650 1050 10650 500 
Wire Notes Line
	11200 2850 8450 2850
Wire Notes Line
	8450 2850 8450 500 
Wire Wire Line
	4950 1600 4650 1600
Wire Wire Line
	4950 1700 4650 1700
Wire Wire Line
	5450 1600 5850 1600
Wire Wire Line
	5450 1700 5850 1700
Wire Wire Line
	5450 1400 5600 1400
Wire Wire Line
	5600 1400 5600 1200
Wire Wire Line
	5600 1200 5800 1200
Wire Wire Line
	4950 1400 4800 1400
Wire Wire Line
	4800 1400 4800 1200
Wire Wire Line
	4800 1200 4600 1200
Wire Wire Line
	5450 1500 6000 1500
Wire Wire Line
	4950 1500 4350 1500
Wire Wire Line
	1950 3300 2650 3300
Wire Wire Line
	2650 3400 1950 3400
Wire Wire Line
	2650 3500 2000 3500
Wire Wire Line
	2650 3600 1950 3600
Wire Wire Line
	1550 3700 2650 3700
$Comp
L GND #PWR09
U 1 1 5B160D27
P 1850 3800
F 0 "#PWR09" H 1850 3550 50  0001 C CNN
F 1 "GND" H 1850 3650 50  0000 C CNN
F 2 "" H 1850 3800 50  0001 C CNN
F 3 "" H 1850 3800 50  0001 C CNN
	1    1850 3800
	0    1    1    0   
$EndComp
Wire Wire Line
	2500 2550 2100 2550
Wire Wire Line
	2500 2650 1950 2650
Wire Wire Line
	1950 2650 1950 2350
Wire Wire Line
	1950 2350 1700 2350
Wire Wire Line
	1500 2750 2500 2750
$Comp
L GND #PWR010
U 1 1 5B1611B2
P 1700 2350
F 0 "#PWR010" H 1700 2100 50  0001 C CNN
F 1 "GND" H 1700 2200 50  0000 C CNN
F 2 "" H 1700 2350 50  0001 C CNN
F 3 "" H 1700 2350 50  0001 C CNN
	1    1700 2350
	1    0    0    -1  
$EndComp
$Comp
L +5V #PWR011
U 1 1 5B1611EA
P 1500 2750
F 0 "#PWR011" H 1500 2600 50  0001 C CNN
F 1 "+5V" H 1500 2890 50  0000 C CNN
F 2 "" H 1500 2750 50  0001 C CNN
F 3 "" H 1500 2750 50  0001 C CNN
	1    1500 2750
	1    0    0    -1  
$EndComp
Wire Wire Line
	2100 2550 2100 2450
Wire Wire Line
	2100 2050 2100 2150
$Comp
L +5V #PWR012
U 1 1 5B1613BD
P 2100 2050
F 0 "#PWR012" H 2100 1900 50  0001 C CNN
F 1 "+5V" H 2100 2190 50  0000 C CNN
F 2 "" H 2100 2050 50  0001 C CNN
F 3 "" H 2100 2050 50  0001 C CNN
	1    2100 2050
	1    0    0    -1  
$EndComp
Text Label 2250 2550 0    60   ~ 0
2
$Comp
L GND #PWR013
U 1 1 5B1627E1
P 4400 7100
F 0 "#PWR013" H 4400 6850 50  0001 C CNN
F 1 "GND" H 4400 6950 50  0000 C CNN
F 2 "" H 4400 7100 50  0001 C CNN
F 3 "" H 4400 7100 50  0001 C CNN
	1    4400 7100
	1    0    0    -1  
$EndComp
Wire Wire Line
	4800 5400 4400 5400
Connection ~ 4400 5400
Wire Wire Line
	4800 5800 4400 5800
Connection ~ 4400 5800
Wire Wire Line
	4800 6150 4400 6150
Connection ~ 4400 6150
Wire Wire Line
	4800 6550 4400 6550
Connection ~ 4400 6550
$Comp
L R R6
U 1 1 5B164D7F
P 5450 5400
F 0 "R6" V 5530 5400 50  0000 C CNN
F 1 "R" V 5450 5400 50  0000 C CNN
F 2 "Resistors_SMD:R_1206_HandSoldering" V 5380 5400 50  0001 C CNN
F 3 "" H 5450 5400 50  0001 C CNN
	1    5450 5400
	0    1    1    0   
$EndComp
$Comp
L R R7
U 1 1 5B164E0C
P 5450 5800
F 0 "R7" V 5530 5800 50  0000 C CNN
F 1 "R" V 5450 5800 50  0000 C CNN
F 2 "Resistors_SMD:R_1206_HandSoldering" V 5380 5800 50  0001 C CNN
F 3 "" H 5450 5800 50  0001 C CNN
	1    5450 5800
	0    1    1    0   
$EndComp
$Comp
L R R8
U 1 1 5B164E7C
P 5450 6150
F 0 "R8" V 5530 6150 50  0000 C CNN
F 1 "R" V 5450 6150 50  0000 C CNN
F 2 "Resistors_SMD:R_1206_HandSoldering" V 5380 6150 50  0001 C CNN
F 3 "" H 5450 6150 50  0001 C CNN
	1    5450 6150
	0    1    1    0   
$EndComp
$Comp
L R R9
U 1 1 5B164EFE
P 5450 6550
F 0 "R9" V 5530 6550 50  0000 C CNN
F 1 "R" V 5450 6550 50  0000 C CNN
F 2 "Resistors_SMD:R_1206_HandSoldering" V 5380 6550 50  0001 C CNN
F 3 "" H 5450 6550 50  0001 C CNN
	1    5450 6550
	0    1    1    0   
$EndComp
Wire Wire Line
	5600 5400 5900 5400
Wire Wire Line
	5600 5800 5950 5800
Wire Wire Line
	5600 6150 5900 6150
Wire Wire Line
	5600 6550 5900 6550
Text Label 5900 5400 0    60   ~ 0
7
Text Label 5950 5800 0    60   ~ 0
8
Text Label 5900 6150 0    60   ~ 0
9(**)
Text Label 5900 6550 0    60   ~ 0
A0
$Comp
L Conn_02x04_Odd_Even J1
U 1 1 5B165672
P 2700 1450
F 0 "J1" H 2750 1650 50  0000 C CNN
F 1 "Conn_I2C " H 2750 1150 50  0000 C CNN
F 2 "Pin_Headers:Pin_Header_Straight_2x04_Pitch2.54mm" H 2700 1450 50  0001 C CNN
F 3 "" H 2700 1450 50  0001 C CNN
	1    2700 1450
	1    0    0    -1  
$EndComp
$Comp
L GND #PWR014
U 1 1 5B165678
P 2150 1150
F 0 "#PWR014" H 2150 900 50  0001 C CNN
F 1 "GND" H 2150 1000 50  0000 C CNN
F 2 "" H 2150 1150 50  0001 C CNN
F 3 "" H 2150 1150 50  0001 C CNN
	1    2150 1150
	1    0    0    -1  
$EndComp
$Comp
L GND #PWR015
U 1 1 5B16567E
P 3350 1150
F 0 "#PWR015" H 3350 900 50  0001 C CNN
F 1 "GND" H 3350 1000 50  0000 C CNN
F 2 "" H 3350 1150 50  0001 C CNN
F 3 "" H 3350 1150 50  0001 C CNN
	1    3350 1150
	1    0    0    -1  
$EndComp
$Comp
L +5V #PWR016
U 1 1 5B165684
P 3550 1450
F 0 "#PWR016" H 3550 1300 50  0001 C CNN
F 1 "+5V" H 3550 1590 50  0000 C CNN
F 2 "" H 3550 1450 50  0001 C CNN
F 3 "" H 3550 1450 50  0001 C CNN
	1    3550 1450
	1    0    0    -1  
$EndComp
$Comp
L +5V #PWR017
U 1 1 5B16568A
P 1900 1450
F 0 "#PWR017" H 1900 1300 50  0001 C CNN
F 1 "+5V" H 1900 1590 50  0000 C CNN
F 2 "" H 1900 1450 50  0001 C CNN
F 3 "" H 1900 1450 50  0001 C CNN
	1    1900 1450
	1    0    0    -1  
$EndComp
Wire Wire Line
	2500 1550 2200 1550
Wire Wire Line
	2500 1650 2200 1650
Wire Wire Line
	3000 1550 3400 1550
Wire Wire Line
	3000 1650 3400 1650
Wire Wire Line
	3000 1350 3150 1350
Wire Wire Line
	3150 1350 3150 1150
Wire Wire Line
	3150 1150 3350 1150
Wire Wire Line
	2500 1350 2350 1350
Wire Wire Line
	2350 1350 2350 1150
Wire Wire Line
	2350 1150 2150 1150
Wire Wire Line
	3000 1450 3550 1450
Wire Wire Line
	2500 1450 1900 1450
$Comp
L R R10
U 1 1 5B16563D
P 4000 2350
F 0 "R10" V 4080 2350 50  0000 C CNN
F 1 "4K7" V 4000 2350 50  0000 C CNN
F 2 "Resistors_SMD:R_1206_HandSoldering" V 3930 2350 50  0001 C CNN
F 3 "" H 4000 2350 50  0001 C CNN
	1    4000 2350
	1    0    0    -1  
$EndComp
$Comp
L Conn_01x03 J5
U 1 1 5B165643
P 4600 2700
F 0 "J5" H 4600 2900 50  0000 C CNN
F 1 "Conn_oneWire" H 4600 2500 50  0000 C CNN
F 2 "Pin_Headers:Pin_Header_Straight_1x03_Pitch2.54mm" H 4600 2700 50  0001 C CNN
F 3 "" H 4600 2700 50  0001 C CNN
	1    4600 2700
	1    0    0    -1  
$EndComp
Wire Wire Line
	4400 2600 4000 2600
Wire Wire Line
	4400 2700 3850 2700
Wire Wire Line
	3850 2700 3850 2400
Wire Wire Line
	3850 2400 3600 2400
Wire Wire Line
	3400 2800 4400 2800
$Comp
L GND #PWR018
U 1 1 5B16564E
P 3600 2400
F 0 "#PWR018" H 3600 2150 50  0001 C CNN
F 1 "GND" H 3600 2250 50  0000 C CNN
F 2 "" H 3600 2400 50  0001 C CNN
F 3 "" H 3600 2400 50  0001 C CNN
	1    3600 2400
	1    0    0    -1  
$EndComp
$Comp
L +5V #PWR019
U 1 1 5B165654
P 3400 2800
F 0 "#PWR019" H 3400 2650 50  0001 C CNN
F 1 "+5V" H 3400 2940 50  0000 C CNN
F 2 "" H 3400 2800 50  0001 C CNN
F 3 "" H 3400 2800 50  0001 C CNN
	1    3400 2800
	1    0    0    -1  
$EndComp
Wire Wire Line
	4000 2600 4000 2500
Wire Wire Line
	4000 2100 4000 2200
$Comp
L +5V #PWR020
U 1 1 5B16565C
P 4000 2100
F 0 "#PWR020" H 4000 1950 50  0001 C CNN
F 1 "+5V" H 4000 2240 50  0000 C CNN
F 2 "" H 4000 2100 50  0001 C CNN
F 3 "" H 4000 2100 50  0001 C CNN
	1    4000 2100
	1    0    0    -1  
$EndComp
$Comp
L Conn_02x01 J7
U 1 1 5B165C44
P 8250 4000
F 0 "J7" H 8300 4100 50  0000 C CNN
F 1 "Power in 5-10V" H 8300 3900 50  0000 C CNN
F 2 "Pin_Headers:Pin_Header_Straight_2x01_Pitch2.54mm" H 8250 4000 50  0001 C CNN
F 3 "" H 8250 4000 50  0001 C CNN
	1    8250 4000
	1    0    0    -1  
$EndComp
Wire Wire Line
	8550 4000 8950 4000
Wire Wire Line
	8050 4000 7550 4000
$Comp
L GND #PWR021
U 1 1 5B165F6B
P 8950 4000
F 0 "#PWR021" H 8950 3750 50  0001 C CNN
F 1 "GND" H 8950 3850 50  0000 C CNN
F 2 "" H 8950 4000 50  0001 C CNN
F 3 "" H 8950 4000 50  0001 C CNN
	1    8950 4000
	1    0    0    -1  
$EndComp
Text Label 7650 4000 0    60   ~ 0
Vin
Text Label 2300 1550 0    60   ~ 0
SDA
Text Label 2300 1650 0    60   ~ 0
SCK
Text Label 3100 1550 0    60   ~ 0
SDA
Text Label 3100 1650 0    60   ~ 0
SCK
Text Label 7950 5100 0    60   ~ 0
3
Text Label 7950 6050 0    60   ~ 0
4
Wire Wire Line
	4400 5400 4400 7100
Wire Wire Line
	7100 5100 6600 5100
Wire Wire Line
	7500 5100 7950 5100
Text Label 4100 2600 0    60   ~ 0
5(**)
$Comp
L R R4
U 1 1 5B17812A
P 7600 4800
F 0 "R4" V 7680 4800 50  0000 C CNN
F 1 "R" V 7600 4800 50  0000 C CNN
F 2 "Resistors_SMD:R_1206_HandSoldering" V 7530 4800 50  0001 C CNN
F 3 "" H 7600 4800 50  0001 C CNN
	1    7600 4800
	1    0    0    -1  
$EndComp
Wire Wire Line
	7600 4950 7600 5100
Connection ~ 7600 5100
$Comp
L GND #PWR022
U 1 1 5B1782FF
P 6600 5100
F 0 "#PWR022" H 6600 4850 50  0001 C CNN
F 1 "GND" H 6600 4950 50  0000 C CNN
F 2 "" H 6600 5100 50  0001 C CNN
F 3 "" H 6600 5100 50  0001 C CNN
	1    6600 5100
	1    0    0    -1  
$EndComp
$Comp
L +5V #PWR023
U 1 1 5B178347
P 7600 4650
F 0 "#PWR023" H 7600 4500 50  0001 C CNN
F 1 "+5V" H 7600 4790 50  0000 C CNN
F 2 "" H 7600 4650 50  0001 C CNN
F 3 "" H 7600 4650 50  0001 C CNN
	1    7600 4650
	1    0    0    -1  
$EndComp
Wire Wire Line
	7100 6050 6600 6050
Wire Wire Line
	7500 6050 7950 6050
$Comp
L R R5
U 1 1 5B1785EC
P 7600 5750
F 0 "R5" V 7680 5750 50  0000 C CNN
F 1 "R" V 7600 5750 50  0000 C CNN
F 2 "Resistors_SMD:R_1206_HandSoldering" V 7530 5750 50  0001 C CNN
F 3 "" H 7600 5750 50  0001 C CNN
	1    7600 5750
	1    0    0    -1  
$EndComp
Wire Wire Line
	7600 5900 7600 6050
Connection ~ 7600 6050
$Comp
L GND #PWR024
U 1 1 5B1785F4
P 6600 6050
F 0 "#PWR024" H 6600 5800 50  0001 C CNN
F 1 "GND" H 6600 5900 50  0000 C CNN
F 2 "" H 6600 6050 50  0001 C CNN
F 3 "" H 6600 6050 50  0001 C CNN
	1    6600 6050
	1    0    0    -1  
$EndComp
$Comp
L +5V #PWR025
U 1 1 5B1785FA
P 7600 5600
F 0 "#PWR025" H 7600 5450 50  0001 C CNN
F 1 "+5V" H 7600 5740 50  0000 C CNN
F 2 "" H 7600 5600 50  0001 C CNN
F 3 "" H 7600 5600 50  0001 C CNN
	1    7600 5600
	1    0    0    -1  
$EndComp
$Comp
L R R2
U 1 1 5B178762
P 2350 4950
F 0 "R2" V 2430 4950 50  0000 C CNN
F 1 "R" V 2350 4950 50  0000 C CNN
F 2 "Resistors_SMD:R_1206_HandSoldering" V 2280 4950 50  0001 C CNN
F 3 "" H 2350 4950 50  0001 C CNN
	1    2350 4950
	1    0    0    -1  
$EndComp
$Comp
L R R3
U 1 1 5B1787F4
P 2350 5450
F 0 "R3" V 2430 5450 50  0000 C CNN
F 1 "R" V 2350 5450 50  0000 C CNN
F 2 "Resistors_SMD:R_1206_HandSoldering" V 2280 5450 50  0001 C CNN
F 3 "" H 2350 5450 50  0001 C CNN
	1    2350 5450
	1    0    0    -1  
$EndComp
Wire Wire Line
	2350 5100 2350 5300
Wire Wire Line
	2350 5200 2750 5200
Connection ~ 2350 5200
Wire Wire Line
	2350 4800 2350 4550
Wire Wire Line
	2350 4550 2050 4550
Text Label 2200 4550 0    60   ~ 0
Vin
Wire Wire Line
	2350 5600 2350 5700
$Comp
L GND #PWR026
U 1 1 5B178C26
P 2350 5700
F 0 "#PWR026" H 2350 5450 50  0001 C CNN
F 1 "GND" H 2350 5550 50  0000 C CNN
F 2 "" H 2350 5700 50  0001 C CNN
F 3 "" H 2350 5700 50  0001 C CNN
	1    2350 5700
	1    0    0    -1  
$EndComp
Text Label 2500 5200 0    60   ~ 0
A7
Text Label 2100 3300 0    60   ~ 0
10(**/SS)
Wire Wire Line
	1500 3900 2650 3900
Wire Wire Line
	2650 3800 1850 3800
$Comp
L +5V #PWR027
U 1 1 5B179748
P 1550 3700
F 0 "#PWR027" H 1550 3550 50  0001 C CNN
F 1 "+5V" H 1550 3840 50  0000 C CNN
F 2 "" H 1550 3700 50  0001 C CNN
F 3 "" H 1550 3700 50  0001 C CNN
	1    1550 3700
	0    -1   -1   0   
$EndComp
$Comp
L +3.3V #PWR028
U 1 1 5B179798
P 1500 3900
F 0 "#PWR028" H 1500 3750 50  0001 C CNN
F 1 "+3.3V" H 1500 4040 50  0000 C CNN
F 2 "" H 1500 3900 50  0001 C CNN
F 3 "" H 1500 3900 50  0001 C CNN
	1    1500 3900
	0    -1   -1   0   
$EndComp
NoConn ~ -4500 2000
NoConn ~ -850 5150
$Comp
L SW_Push SW1
U 1 1 5B1CFA89
P 7300 5100
F 0 "SW1" H 7350 5200 50  0000 L CNN
F 1 "SW_Push" H 7300 5040 50  0000 C CNN
F 2 "Buttons_Switches_THT:SW_PUSH_6mm_h5mm" H 7300 5300 50  0001 C CNN
F 3 "" H 7300 5300 50  0001 C CNN
	1    7300 5100
	1    0    0    -1  
$EndComp
$Comp
L SW_Push SW2
U 1 1 5B1CFC03
P 7300 6050
F 0 "SW2" H 7350 6150 50  0000 L CNN
F 1 "SW_Push" H 7300 5990 50  0000 C CNN
F 2 "Buttons_Switches_THT:SW_PUSH_6mm_h5mm" H 7300 6250 50  0001 C CNN
F 3 "" H 7300 6250 50  0001 C CNN
	1    7300 6050
	1    0    0    -1  
$EndComp
$Comp
L Conn_02x01 J8
U 1 1 5B1D0BFC
P 5000 5400
F 0 "J8" H 5050 5500 50  0000 C CNN
F 1 "Conn_02x01" H 5050 5300 50  0000 C CNN
F 2 "Pin_Headers:Pin_Header_Straight_2x01_Pitch2.54mm" H 5000 5400 50  0001 C CNN
F 3 "" H 5000 5400 50  0001 C CNN
	1    5000 5400
	1    0    0    -1  
$EndComp
$Comp
L Conn_02x01 J9
U 1 1 5B1D0DA9
P 5000 5800
F 0 "J9" H 5050 5900 50  0000 C CNN
F 1 "Conn_02x01" H 5050 5700 50  0000 C CNN
F 2 "Pin_Headers:Pin_Header_Straight_2x01_Pitch2.54mm" H 5000 5800 50  0001 C CNN
F 3 "" H 5000 5800 50  0001 C CNN
	1    5000 5800
	1    0    0    -1  
$EndComp
$Comp
L Conn_02x01 J10
U 1 1 5B1D0E15
P 5000 6150
F 0 "J10" H 5050 6250 50  0000 C CNN
F 1 "Conn_02x01" H 5050 6050 50  0000 C CNN
F 2 "Pin_Headers:Pin_Header_Straight_2x01_Pitch2.54mm" H 5000 6150 50  0001 C CNN
F 3 "" H 5000 6150 50  0001 C CNN
	1    5000 6150
	1    0    0    -1  
$EndComp
$Comp
L Conn_02x01 J11
U 1 1 5B1D0E86
P 5000 6550
F 0 "J11" H 5050 6650 50  0000 C CNN
F 1 "Conn_02x01" H 5050 6450 50  0000 C CNN
F 2 "Pin_Headers:Pin_Header_Straight_2x01_Pitch2.54mm" H 5000 6550 50  0001 C CNN
F 3 "" H 5000 6550 50  0001 C CNN
	1    5000 6550
	1    0    0    -1  
$EndComp
$Comp
L Conn_01x03 J12
U 1 1 5B1D2035
P 9150 4950
F 0 "J12" H 9150 5150 50  0000 C CNN
F 1 "Conn_01x03" H 9150 4750 50  0000 C CNN
F 2 "Pin_Headers:Pin_Header_Straight_1x03_Pitch2.54mm" H 9150 4950 50  0001 C CNN
F 3 "" H 9150 4950 50  0001 C CNN
	1    9150 4950
	1    0    0    -1  
$EndComp
$Comp
L Conn_01x03 J13
U 1 1 5B1D2134
P 9150 5900
F 0 "J13" H 9150 6100 50  0000 C CNN
F 1 "Conn_01x03" H 9150 5700 50  0000 C CNN
F 2 "Pin_Headers:Pin_Header_Straight_1x03_Pitch2.54mm" H 9150 5900 50  0001 C CNN
F 3 "" H 9150 5900 50  0001 C CNN
	1    9150 5900
	1    0    0    -1  
$EndComp
Wire Wire Line
	8950 4850 8500 4850
Wire Wire Line
	8950 4950 8500 4950
Wire Wire Line
	8500 5050 8950 5050
Wire Wire Line
	8950 5800 8550 5800
Wire Wire Line
	8950 5900 8550 5900
Wire Wire Line
	8950 6000 8550 6000
Text Label 8500 4850 0    60   ~ 0
3
Text Label 8550 5800 0    60   ~ 0
4
$Comp
L GND #PWR029
U 1 1 5B1D274C
P 8550 5900
F 0 "#PWR029" H 8550 5650 50  0001 C CNN
F 1 "GND" H 8550 5750 50  0000 C CNN
F 2 "" H 8550 5900 50  0001 C CNN
F 3 "" H 8550 5900 50  0001 C CNN
	1    8550 5900
	0    1    1    0   
$EndComp
$Comp
L +5V #PWR030
U 1 1 5B1D27E6
P 8550 6000
F 0 "#PWR030" H 8550 5850 50  0001 C CNN
F 1 "+5V" H 8550 6140 50  0000 C CNN
F 2 "" H 8550 6000 50  0001 C CNN
F 3 "" H 8550 6000 50  0001 C CNN
	1    8550 6000
	-1   0    0    1   
$EndComp
$Comp
L GND #PWR031
U 1 1 5B1D28E4
P 8500 4950
F 0 "#PWR031" H 8500 4700 50  0001 C CNN
F 1 "GND" H 8500 4800 50  0000 C CNN
F 2 "" H 8500 4950 50  0001 C CNN
F 3 "" H 8500 4950 50  0001 C CNN
	1    8500 4950
	0    1    1    0   
$EndComp
$Comp
L +5V #PWR032
U 1 1 5B1D294F
P 8500 5050
F 0 "#PWR032" H 8500 4900 50  0001 C CNN
F 1 "+5V" H 8500 5190 50  0000 C CNN
F 2 "" H 8500 5050 50  0001 C CNN
F 3 "" H 8500 5050 50  0001 C CNN
	1    8500 5050
	-1   0    0    1   
$EndComp
$EndSCHEMATC
