EESchema Schematic File Version 4
EELAYER 30 0
EELAYER END
$Descr A4 11693 8268
encoding utf-8
Sheet 1 1
Title ""
Date ""
Rev ""
Comp ""
Comment1 ""
Comment2 ""
Comment3 ""
Comment4 ""
$EndDescr
$Comp
L MCU_Module:Arduino_Nano_v3.x A2
U 1 1 5F7A7547
P 10150 2250
F 0 "A2" H 9850 1300 50  0000 C CNN
F 1 "Arduino_Nano_v3.x" H 9750 1200 50  0000 C CNN
F 2 "Modules:Arduino_Nano" H 10150 2250 50  0001 C CIN
F 3 "http://www.mouser.com/pdfdocs/Gravitech_Arduino_Nano3_0.pdf" H 10150 2250 50  0001 C CNN
	1    10150 2250
	1    0    0    -1  
$EndComp
Text Label 9650 1650 2    50   ~ 0
RX
Text Label 9650 1750 2    50   ~ 0
TX
Text Label 9650 1850 2    50   ~ 0
ardD2
Text Label 9650 1950 2    50   ~ 0
ardD3
Text Label 9650 2050 2    50   ~ 0
ardD4
Text Label 9650 2150 2    50   ~ 0
ardD5
Text Label 9650 2250 2    50   ~ 0
ardD6
Text Label 9650 2350 2    50   ~ 0
ardD7
Text Label 9650 2450 2    50   ~ 0
ardD8
Text Label 9650 2550 2    50   ~ 0
ardD9
Text Label 9650 2650 2    50   ~ 0
butt1
Text Label 9650 2750 2    50   ~ 0
butt2
Text Label 9650 2850 2    50   ~ 0
butt3
Text Label 9650 2950 2    50   ~ 0
ardD13
Text Label 10650 2950 0    50   ~ 0
potIn
Wire Wire Line
	10150 3250 10250 3250
$Comp
L power:GND #PWR0101
U 1 1 5F7A964F
P 10250 3350
F 0 "#PWR0101" H 10250 3100 50  0001 C CNN
F 1 "GND" H 10255 3177 50  0000 C CNN
F 2 "" H 10250 3350 50  0001 C CNN
F 3 "" H 10250 3350 50  0001 C CNN
	1    10250 3350
	1    0    0    -1  
$EndComp
Wire Wire Line
	10250 3350 10250 3250
Connection ~ 10250 3250
$Comp
L Connector:Conn_01x04_Male J1
U 1 1 5F7A9CF4
P 3700 5950
F 0 "J1" H 3808 6231 50  0000 C CNN
F 1 "Conn_01x04_Male" V 3650 5900 50  0000 C CNN
F 2 "Pin_Headers:Pin_Header_Angled_1x04_Pitch2.54mm" H 3700 5950 50  0001 C CNN
F 3 "~" H 3700 5950 50  0001 C CNN
	1    3700 5950
	1    0    0    -1  
$EndComp
Text Label 3900 5850 0    50   ~ 0
RX
Text Label 3900 5950 0    50   ~ 0
TX
Wire Wire Line
	3900 6050 4250 6050
Wire Wire Line
	4250 6050 4250 6150
$Comp
L power:GND #PWR0102
U 1 1 5F7AABFF
P 4250 6150
F 0 "#PWR0102" H 4250 5900 50  0001 C CNN
F 1 "GND" H 4255 5977 50  0000 C CNN
F 2 "" H 4250 6150 50  0001 C CNN
F 3 "" H 4250 6150 50  0001 C CNN
	1    4250 6150
	1    0    0    -1  
$EndComp
$Comp
L power:+5V #PWR0103
U 1 1 5F7AB1FB
P 3900 6150
F 0 "#PWR0103" H 3900 6000 50  0001 C CNN
F 1 "+5V" V 3915 6278 50  0000 L CNN
F 2 "" H 3900 6150 50  0001 C CNN
F 3 "" H 3900 6150 50  0001 C CNN
	1    3900 6150
	0    1    1    0   
$EndComp
$Comp
L power:+5V #PWR0104
U 1 1 5F7AB668
P 10350 1250
F 0 "#PWR0104" H 10350 1100 50  0001 C CNN
F 1 "+5V" H 10365 1423 50  0000 C CNN
F 2 "" H 10350 1250 50  0001 C CNN
F 3 "" H 10350 1250 50  0001 C CNN
	1    10350 1250
	1    0    0    -1  
$EndComp
Wire Wire Line
	1150 1200 950  1200
Wire Wire Line
	950  1200 950  1450
$Comp
L power:GND #PWR0105
U 1 1 5F7AFC29
P 950 1450
F 0 "#PWR0105" H 950 1200 50  0001 C CNN
F 1 "GND" H 955 1277 50  0000 C CNN
F 2 "" H 950 1450 50  0001 C CNN
F 3 "" H 950 1450 50  0001 C CNN
	1    950  1450
	1    0    0    -1  
$EndComp
Text Label 2650 1200 0    50   ~ 0
butt1
$Comp
L Device:R R2
U 1 1 5F7B0D1C
P 1700 2100
F 0 "R2" V 1493 2100 50  0000 C CNN
F 1 "R" V 1584 2100 50  0000 C CNN
F 2 "Resistors_SMD:R_1206_HandSoldering" V 1630 2100 50  0001 C CNN
F 3 "~" H 1700 2100 50  0001 C CNN
	1    1700 2100
	0    1    1    0   
$EndComp
Wire Wire Line
	1150 2100 950  2100
Wire Wire Line
	950  2100 950  2350
$Comp
L power:GND #PWR0106
U 1 1 5F7B0D24
P 950 2350
F 0 "#PWR0106" H 950 2100 50  0001 C CNN
F 1 "GND" H 955 2177 50  0000 C CNN
F 2 "" H 950 2350 50  0001 C CNN
F 3 "" H 950 2350 50  0001 C CNN
	1    950  2350
	1    0    0    -1  
$EndComp
Text Label 2700 2100 0    50   ~ 0
butt2
$Comp
L Device:R R3
U 1 1 5F7B1325
P 1700 3100
F 0 "R3" V 1493 3100 50  0000 C CNN
F 1 "R" V 1584 3100 50  0000 C CNN
F 2 "Resistors_SMD:R_1206_HandSoldering" V 1630 3100 50  0001 C CNN
F 3 "~" H 1700 3100 50  0001 C CNN
	1    1700 3100
	0    1    1    0   
$EndComp
Wire Wire Line
	1150 3100 950  3100
Wire Wire Line
	950  3100 950  3350
$Comp
L power:GND #PWR0107
U 1 1 5F7B132D
P 950 3350
F 0 "#PWR0107" H 950 3100 50  0001 C CNN
F 1 "GND" H 955 3177 50  0000 C CNN
F 2 "" H 950 3350 50  0001 C CNN
F 3 "" H 950 3350 50  0001 C CNN
	1    950  3350
	1    0    0    -1  
$EndComp
Text Label 2700 3100 0    50   ~ 0
butt3
$Comp
L Device:R_POT RV1
U 1 1 5F7B1BED
P 1550 3800
F 0 "RV1" V 1343 3800 50  0000 C CNN
F 1 "R_POT" V 1434 3800 50  0000 C CNN
F 2 "Potentiometers:Potentiometer_Bourns_PTV09A-1_Horizontal" H 1550 3800 50  0001 C CNN
F 3 "~" H 1550 3800 50  0001 C CNN
	1    1550 3800
	0    1    1    0   
$EndComp
Text Label 1550 3950 3    50   ~ 0
potIn
$Comp
L power:GND #PWR0108
U 1 1 5F7B235C
P 1700 3800
F 0 "#PWR0108" H 1700 3550 50  0001 C CNN
F 1 "GND" V 1705 3672 50  0000 R CNN
F 2 "" H 1700 3800 50  0001 C CNN
F 3 "" H 1700 3800 50  0001 C CNN
	1    1700 3800
	0    -1   -1   0   
$EndComp
$Comp
L power:+5V #PWR0109
U 1 1 5F7B2794
P 1400 3800
F 0 "#PWR0109" H 1400 3650 50  0001 C CNN
F 1 "+5V" V 1415 3928 50  0000 L CNN
F 2 "" H 1400 3800 50  0001 C CNN
F 3 "" H 1400 3800 50  0001 C CNN
	1    1400 3800
	0    -1   -1   0   
$EndComp
$Comp
L MCU_Module:Arduino_UNO_R3 A1
U 1 1 5F7B423E
P 1750 6050
F 0 "A1" H 900 7000 50  0000 C CNN
F 1 "Arduino_UNO_R3" H 1150 7100 50  0000 C CNN
F 2 "Modules:Arduino_UNO_R3" H 1750 6050 50  0001 C CIN
F 3 "https://www.arduino.cc/en/Main/arduinoBoardUno" H 1750 6050 50  0001 C CNN
	1    1750 6050
	1    0    0    -1  
$EndComp
$Comp
L power:+5V #PWR0110
U 1 1 5F7B5487
P 1950 5050
F 0 "#PWR0110" H 1950 4900 50  0001 C CNN
F 1 "+5V" H 1965 5223 50  0000 C CNN
F 2 "" H 1950 5050 50  0001 C CNN
F 3 "" H 1950 5050 50  0001 C CNN
	1    1950 5050
	1    0    0    -1  
$EndComp
$Comp
L power:+3V3 #PWR0111
U 1 1 5F7B68A7
P 10250 1000
F 0 "#PWR0111" H 10250 850 50  0001 C CNN
F 1 "+3V3" H 10265 1173 50  0000 C CNN
F 2 "" H 10250 1000 50  0001 C CNN
F 3 "" H 10250 1000 50  0001 C CNN
	1    10250 1000
	1    0    0    -1  
$EndComp
Wire Wire Line
	10250 1250 10250 1000
$Comp
L power:+3V3 #PWR0112
U 1 1 5F7B7202
P 1850 4900
F 0 "#PWR0112" H 1850 4750 50  0001 C CNN
F 1 "+3V3" H 1865 5073 50  0000 C CNN
F 2 "" H 1850 4900 50  0001 C CNN
F 3 "" H 1850 4900 50  0001 C CNN
	1    1850 4900
	1    0    0    -1  
$EndComp
Wire Wire Line
	1850 5050 1850 4900
Text Label 1250 5650 2    50   ~ 0
ardD2
Text Label 1250 5750 2    50   ~ 0
ardD3
Text Label 1250 5850 2    50   ~ 0
ardD4
Text Label 1250 5950 2    50   ~ 0
ardD5
Text Label 1250 6050 2    50   ~ 0
ardD6
Text Label 1250 6150 2    50   ~ 0
ardD7
Text Label 1250 6250 2    50   ~ 0
ardD8
Text Label 1250 6350 2    50   ~ 0
ardD9
Text Label 10650 2250 0    50   ~ 0
ardA0
Text Label 10650 2350 0    50   ~ 0
ardA1
Text Label 10650 2450 0    50   ~ 0
ardA2
Text Label 10650 2550 0    50   ~ 0
ardA3
Text Label 10650 2650 0    50   ~ 0
ardA4
$Comp
L power:GND #PWR0113
U 1 1 5F7B9AF4
P 1750 7300
F 0 "#PWR0113" H 1750 7050 50  0001 C CNN
F 1 "GND" H 1755 7127 50  0000 C CNN
F 2 "" H 1750 7300 50  0001 C CNN
F 3 "" H 1750 7300 50  0001 C CNN
	1    1750 7300
	1    0    0    -1  
$EndComp
Wire Wire Line
	1650 7150 1750 7150
Connection ~ 1750 7150
Wire Wire Line
	1750 7150 1850 7150
Wire Wire Line
	1750 7150 1750 7300
Text Label 2250 6050 0    50   ~ 0
ardA0
Text Label 2250 6150 0    50   ~ 0
ardA1
Text Label 2250 6250 0    50   ~ 0
ardA2
Text Label 2250 6350 0    50   ~ 0
ardA3
Text Label 2250 6450 0    50   ~ 0
ardA4
$Comp
L Switch:SW_Push SW1
U 1 1 5F9903B6
P 1350 1200
F 0 "SW1" H 1350 1485 50  0000 C CNN
F 1 "SW_Push" H 1350 1394 50  0000 C CNN
F 2 "Buttons_Switches_THT:SW_PUSH_6mm" H 1350 1400 50  0001 C CNN
F 3 "~" H 1350 1400 50  0001 C CNN
	1    1350 1200
	1    0    0    -1  
$EndComp
$Comp
L Switch:SW_Push SW2
U 1 1 5F990E12
P 1350 2100
F 0 "SW2" H 1350 2385 50  0000 C CNN
F 1 "SW_Push" H 1350 2294 50  0000 C CNN
F 2 "Buttons_Switches_THT:SW_PUSH_6mm" H 1350 2300 50  0001 C CNN
F 3 "~" H 1350 2300 50  0001 C CNN
	1    1350 2100
	1    0    0    -1  
$EndComp
$Comp
L Switch:SW_Push SW3
U 1 1 5F9911EF
P 1350 3100
F 0 "SW3" H 1350 3385 50  0000 C CNN
F 1 "SW_Push" H 1350 3294 50  0000 C CNN
F 2 "Buttons_Switches_THT:SW_PUSH_6mm" H 1350 3300 50  0001 C CNN
F 3 "~" H 1350 3300 50  0001 C CNN
	1    1350 3100
	1    0    0    -1  
$EndComp
Wire Wire Line
	1550 1200 1550 1350
Wire Wire Line
	1550 1350 1600 1350
$Comp
L Connector:Conn_01x02_Male J2
U 1 1 5F99A384
P 1800 1450
F 0 "J2" H 1772 1332 50  0000 R CNN
F 1 "Conn_01x02_Male" H 1772 1423 50  0000 R CNN
F 2 "Pin_Headers:Pin_Header_Angled_1x02_Pitch2.54mm" H 1800 1450 50  0001 C CNN
F 3 "~" H 1800 1450 50  0001 C CNN
	1    1800 1450
	-1   0    0    1   
$EndComp
Wire Wire Line
	1150 1450 1600 1450
Wire Wire Line
	1150 1200 1150 1450
Wire Wire Line
	1550 2100 1550 2250
Wire Wire Line
	1550 2250 1600 2250
$Comp
L Connector:Conn_01x02_Male J3
U 1 1 5F99F812
P 1800 2350
F 0 "J3" H 1772 2232 50  0000 R CNN
F 1 "Conn_01x02_Male" H 1772 2323 50  0000 R CNN
F 2 "Pin_Headers:Pin_Header_Angled_1x02_Pitch2.54mm" H 1800 2350 50  0001 C CNN
F 3 "~" H 1800 2350 50  0001 C CNN
	1    1800 2350
	-1   0    0    1   
$EndComp
Wire Wire Line
	1150 2350 1600 2350
Wire Wire Line
	1150 2100 1150 2350
Wire Wire Line
	1550 3100 1550 3250
Wire Wire Line
	1550 3250 1600 3250
$Comp
L Connector:Conn_01x02_Male J4
U 1 1 5F9A013E
P 1800 3350
F 0 "J4" H 1772 3232 50  0000 R CNN
F 1 "Conn_01x02_Male" H 1772 3323 50  0000 R CNN
F 2 "Pin_Headers:Pin_Header_Angled_1x02_Pitch2.54mm" H 1800 3350 50  0001 C CNN
F 3 "~" H 1800 3350 50  0001 C CNN
	1    1800 3350
	-1   0    0    1   
$EndComp
Wire Wire Line
	1150 3350 1600 3350
Wire Wire Line
	1150 3100 1150 3350
Text Label 10650 2750 0    50   ~ 0
led1
Text Label 10650 2850 0    50   ~ 0
led2
$Comp
L Connector:Conn_01x03_Male J7
U 1 1 5F9B709A
P 4350 2450
F 0 "J7" H 4322 2382 50  0000 R CNN
F 1 "Conn_01x03_Male" V 4150 2800 50  0000 R CNN
F 2 "Pin_Headers:Pin_Header_Angled_1x03_Pitch2.54mm" H 4350 2450 50  0001 C CNN
F 3 "~" H 4350 2450 50  0001 C CNN
	1    4350 2450
	0    -1   -1   0   
$EndComp
$Comp
L Device:LED D2
U 1 1 5F9BF6AC
P 4100 1950
F 0 "D2" H 4093 2167 50  0000 C CNN
F 1 "LED" H 4093 2076 50  0000 C CNN
F 2 "LEDs:LED_1206_HandSoldering" H 4100 1950 50  0001 C CNN
F 3 "~" H 4100 1950 50  0001 C CNN
	1    4100 1950
	1    0    0    -1  
$EndComp
$Comp
L Device:R R5
U 1 1 5F9BF6B2
P 4650 1950
F 0 "R5" V 4443 1950 50  0000 C CNN
F 1 "R" V 4534 1950 50  0000 C CNN
F 2 "Resistors_SMD:R_1206_HandSoldering" V 4580 1950 50  0001 C CNN
F 3 "~" H 4650 1950 50  0001 C CNN
	1    4650 1950
	0    1    1    0   
$EndComp
$Comp
L power:GND #PWR0116
U 1 1 5F9BF6B8
P 3750 1950
F 0 "#PWR0116" H 3750 1700 50  0001 C CNN
F 1 "GND" V 3755 1822 50  0000 R CNN
F 2 "" H 3750 1950 50  0001 C CNN
F 3 "" H 3750 1950 50  0001 C CNN
	1    3750 1950
	0    1    1    0   
$EndComp
$Comp
L Jumper:Jumper_2_Open JP2
U 1 1 5F9C334F
P 4650 1600
F 0 "JP2" H 4650 1835 50  0000 C CNN
F 1 "Jumper_2_Open" H 4650 1744 50  0000 C CNN
F 2 "Jumpers:SolderJumper-2_P1.3mm_Open_RoundedPad1.0x1.5mm" H 4650 1600 50  0001 C CNN
F 3 "~" H 4650 1600 50  0001 C CNN
	1    4650 1600
	1    0    0    -1  
$EndComp
Wire Wire Line
	4450 1600 4450 1950
Connection ~ 4450 1950
Wire Wire Line
	4450 1950 4500 1950
Wire Wire Line
	4800 1950 5050 1950
Wire Wire Line
	5050 1950 5050 1600
Wire Wire Line
	5050 1600 4850 1600
Wire Wire Line
	5050 1950 5150 1950
Connection ~ 5050 1950
Text Label 5150 1950 0    50   ~ 0
led1
Wire Wire Line
	4250 2250 3800 2250
$Comp
L power:+5V #PWR0117
U 1 1 5F9CA2A5
P 4450 2250
F 0 "#PWR0117" H 4450 2100 50  0001 C CNN
F 1 "+5V" V 4465 2378 50  0000 L CNN
F 2 "" H 4450 2250 50  0001 C CNN
F 3 "" H 4450 2250 50  0001 C CNN
	1    4450 2250
	0    1    1    0   
$EndComp
Wire Wire Line
	4250 1950 4350 1950
Wire Wire Line
	3750 1950 3800 1950
Wire Wire Line
	4350 2250 4350 1950
Connection ~ 4350 1950
Wire Wire Line
	4350 1950 4450 1950
Wire Wire Line
	3800 2250 3800 1950
Connection ~ 3800 1950
Wire Wire Line
	3800 1950 3950 1950
Text Notes 4650 2500 0    50   ~ 0
Can have LED on or of board,\nOr can solder JP2 and use as GPIO
$Comp
L Connector:Conn_01x03_Male J6
U 1 1 5F9CF8A6
P 4450 3900
F 0 "J6" H 4422 3832 50  0000 R CNN
F 1 "Conn_01x03_Male" V 4250 4250 50  0000 R CNN
F 2 "Pin_Headers:Pin_Header_Angled_1x03_Pitch2.54mm" H 4450 3900 50  0001 C CNN
F 3 "~" H 4450 3900 50  0001 C CNN
	1    4450 3900
	0    -1   -1   0   
$EndComp
$Comp
L Device:LED D1
U 1 1 5F9CF8AC
P 4200 3400
F 0 "D1" H 4193 3617 50  0000 C CNN
F 1 "LED" H 4193 3526 50  0000 C CNN
F 2 "LEDs:LED_1206_HandSoldering" H 4200 3400 50  0001 C CNN
F 3 "~" H 4200 3400 50  0001 C CNN
	1    4200 3400
	1    0    0    -1  
$EndComp
$Comp
L Device:R R4
U 1 1 5F9CF8B2
P 4750 3400
F 0 "R4" V 4543 3400 50  0000 C CNN
F 1 "R" V 4634 3400 50  0000 C CNN
F 2 "Resistors_SMD:R_1206_HandSoldering" V 4680 3400 50  0001 C CNN
F 3 "~" H 4750 3400 50  0001 C CNN
	1    4750 3400
	0    1    1    0   
$EndComp
$Comp
L power:GND #PWR0118
U 1 1 5F9CF8B8
P 3850 3400
F 0 "#PWR0118" H 3850 3150 50  0001 C CNN
F 1 "GND" V 3855 3272 50  0000 R CNN
F 2 "" H 3850 3400 50  0001 C CNN
F 3 "" H 3850 3400 50  0001 C CNN
	1    3850 3400
	0    1    1    0   
$EndComp
$Comp
L Jumper:Jumper_2_Open JP1
U 1 1 5F9CF8BE
P 4750 3050
F 0 "JP1" H 4750 3285 50  0000 C CNN
F 1 "Jumper_2_Open" H 4750 3194 50  0000 C CNN
F 2 "Jumpers:SolderJumper-2_P1.3mm_Open_RoundedPad1.0x1.5mm" H 4750 3050 50  0001 C CNN
F 3 "~" H 4750 3050 50  0001 C CNN
	1    4750 3050
	1    0    0    -1  
$EndComp
Wire Wire Line
	4550 3050 4550 3400
Connection ~ 4550 3400
Wire Wire Line
	4550 3400 4600 3400
Wire Wire Line
	4900 3400 5150 3400
Wire Wire Line
	5150 3400 5150 3050
Wire Wire Line
	5150 3050 4950 3050
Wire Wire Line
	5150 3400 5250 3400
Connection ~ 5150 3400
Text Label 5250 3400 0    50   ~ 0
led2
Wire Wire Line
	4350 3700 3900 3700
$Comp
L power:+5V #PWR0119
U 1 1 5F9CF8CE
P 4550 3700
F 0 "#PWR0119" H 4550 3550 50  0001 C CNN
F 1 "+5V" V 4565 3828 50  0000 L CNN
F 2 "" H 4550 3700 50  0001 C CNN
F 3 "" H 4550 3700 50  0001 C CNN
	1    4550 3700
	0    1    1    0   
$EndComp
Wire Wire Line
	4350 3400 4450 3400
Wire Wire Line
	3850 3400 3900 3400
Wire Wire Line
	4450 3700 4450 3400
Connection ~ 4450 3400
Wire Wire Line
	4450 3400 4550 3400
Wire Wire Line
	3900 3700 3900 3400
Connection ~ 3900 3400
Wire Wire Line
	3900 3400 4050 3400
Text Notes 4750 3950 0    50   ~ 0
Can have LED on or of board,\nOr can solder JP1 and use as GPIO
$Comp
L Device:LED D3
U 1 1 5F9FA5E8
P 4800 1100
F 0 "D3" H 4793 1317 50  0000 C CNN
F 1 "LED" H 4793 1226 50  0000 C CNN
F 2 "LEDs:LED_1206_HandSoldering" H 4800 1100 50  0001 C CNN
F 3 "~" H 4800 1100 50  0001 C CNN
	1    4800 1100
	1    0    0    -1  
$EndComp
$Comp
L Device:R R6
U 1 1 5F9FA5EE
P 5250 1100
F 0 "R6" V 5043 1100 50  0000 C CNN
F 1 "R" V 5134 1100 50  0000 C CNN
F 2 "Resistors_SMD:R_1206_HandSoldering" V 5180 1100 50  0001 C CNN
F 3 "~" H 5250 1100 50  0001 C CNN
	1    5250 1100
	0    1    1    0   
$EndComp
$Comp
L power:GND #PWR0120
U 1 1 5F9FA5F4
P 4450 1100
F 0 "#PWR0120" H 4450 850 50  0001 C CNN
F 1 "GND" V 4455 972 50  0000 R CNN
F 2 "" H 4450 1100 50  0001 C CNN
F 3 "" H 4450 1100 50  0001 C CNN
	1    4450 1100
	0    1    1    0   
$EndComp
Wire Wire Line
	4450 1100 4650 1100
$Comp
L power:+5V #PWR0121
U 1 1 5F9FBBA5
P 5500 1100
F 0 "#PWR0121" H 5500 950 50  0001 C CNN
F 1 "+5V" V 5515 1228 50  0000 L CNN
F 2 "" H 5500 1100 50  0001 C CNN
F 3 "" H 5500 1100 50  0001 C CNN
	1    5500 1100
	0    1    1    0   
$EndComp
Wire Wire Line
	1600 1200 1550 1200
Connection ~ 1550 1200
Connection ~ 1150 1200
Connection ~ 1550 2100
Connection ~ 1150 2100
Connection ~ 1550 3100
Connection ~ 1150 3100
Text Notes 700  4750 0    50   ~ 0
Parallel interface screen
$Comp
L Connector:Conn_01x14_Male J5
U 1 1 5FB3C9DB
P 8700 5450
F 0 "J5" H 8808 6231 50  0000 C CNN
F 1 "Conn_01x14_Male" H 8808 6140 50  0000 C CNN
F 2 "Pin_Headers:Pin_Header_Straight_1x14_Pitch2.54mm" H 8700 5450 50  0001 C CNN
F 3 "~" H 8700 5450 50  0001 C CNN
	1    8700 5450
	1    0    0    -1  
$EndComp
$Comp
L power:+5V #PWR0114
U 1 1 5FB3FAB7
P 9200 4850
F 0 "#PWR0114" H 9200 4700 50  0001 C CNN
F 1 "+5V" V 9215 4978 50  0000 L CNN
F 2 "" H 9200 4850 50  0001 C CNN
F 3 "" H 9200 4850 50  0001 C CNN
	1    9200 4850
	0    1    1    0   
$EndComp
Wire Wire Line
	9200 4850 8900 4850
$Comp
L power:GND #PWR0115
U 1 1 5FB41C56
P 8900 4950
F 0 "#PWR0115" H 8900 4700 50  0001 C CNN
F 1 "GND" V 8905 4822 50  0000 R CNN
F 2 "" H 8900 4950 50  0001 C CNN
F 3 "" H 8900 4950 50  0001 C CNN
	1    8900 4950
	0    -1   -1   0   
$EndComp
Wire Wire Line
	8900 5050 9200 5050
Wire Wire Line
	8900 5150 9200 5150
Wire Wire Line
	8900 5250 9200 5250
Wire Wire Line
	8900 5350 9200 5350
Wire Wire Line
	8900 5450 9200 5450
Wire Wire Line
	8900 5650 9200 5650
Wire Wire Line
	8900 5750 9200 5750
Wire Wire Line
	8900 5950 9200 5950
Wire Wire Line
	8900 6050 9200 6050
Wire Wire Line
	8900 6150 9200 6150
Text Label 9200 5050 0    50   ~ 0
S_CS
Text Label 9200 5150 0    50   ~ 0
S_RESET
Text Label 9200 5250 0    50   ~ 0
S_DC
Text Label 9200 5350 0    50   ~ 0
S_MOSI
Text Label 9200 5450 0    50   ~ 0
S_SCK
Text Label 9200 5550 0    50   ~ 0
S_LED
Text Label 9200 5650 0    50   ~ 0
S_MISO
Text Label 9200 5750 0    50   ~ 0
T_CLK
Text Label 9200 5850 0    50   ~ 0
T_CS
Text Label 9200 5950 0    50   ~ 0
T_DIN
Text Label 9200 6050 0    50   ~ 0
T_DO
Text Label 9200 6150 0    50   ~ 0
T_IRQ
$Comp
L Device:R R8
U 1 1 5FB6262B
P 8600 2950
F 0 "R8" V 8807 2950 50  0000 C CNN
F 1 "R" V 8716 2950 50  0000 C CNN
F 2 "Resistors_SMD:R_1206_HandSoldering" V 8530 2950 50  0001 C CNN
F 3 "~" H 8600 2950 50  0001 C CNN
	1    8600 2950
	0    -1   -1   0   
$EndComp
$Comp
L Device:R R10
U 1 1 5FB638A2
P 8900 2750
F 0 "R10" V 8693 2750 50  0000 C CNN
F 1 "R" V 8784 2750 50  0000 C CNN
F 2 "Resistors_SMD:R_1206_HandSoldering" V 8830 2750 50  0001 C CNN
F 3 "~" H 8900 2750 50  0001 C CNN
	1    8900 2750
	0    1    1    0   
$EndComp
$Comp
L Device:R R11
U 1 1 5FB66F5B
P 9250 2650
F 0 "R11" V 9043 2650 50  0000 C CNN
F 1 "R" V 9134 2650 50  0000 C CNN
F 2 "Resistors_SMD:R_1206_HandSoldering" V 9180 2650 50  0001 C CNN
F 3 "~" H 9250 2650 50  0001 C CNN
	1    9250 2650
	0    1    1    0   
$EndComp
$Comp
L Device:R R7
U 1 1 5FB67571
P 8600 2550
F 0 "R7" V 8393 2550 50  0000 C CNN
F 1 "R" V 8484 2550 50  0000 C CNN
F 2 "Resistors_SMD:R_1206_HandSoldering" V 8530 2550 50  0001 C CNN
F 3 "~" H 8600 2550 50  0001 C CNN
	1    8600 2550
	0    1    1    0   
$EndComp
$Comp
L Device:R R9
U 1 1 5FB67C93
P 8900 2450
F 0 "R9" V 8693 2450 50  0000 C CNN
F 1 "R" V 8784 2450 50  0000 C CNN
F 2 "Resistors_SMD:R_1206_HandSoldering" V 8830 2450 50  0001 C CNN
F 3 "~" H 8900 2450 50  0001 C CNN
	1    8900 2450
	0    1    1    0   
$EndComp
Wire Wire Line
	9650 2650 9400 2650
Wire Wire Line
	9650 2750 9050 2750
Wire Wire Line
	9650 2550 8750 2550
Wire Wire Line
	9650 2450 9050 2450
Wire Wire Line
	9650 2950 8750 2950
Wire Wire Line
	9100 2650 8350 2650
Wire Wire Line
	8450 2550 8350 2550
Wire Wire Line
	8750 2450 8350 2450
Wire Wire Line
	8750 2750 8350 2750
Wire Wire Line
	8450 2950 8350 2950
Text Label 8350 2950 2    50   ~ 0
S_SCK
Text Label 8350 2450 2    50   ~ 0
S_CS
Text Label 8350 2550 2    50   ~ 0
S_RESET
Text Label 8350 2650 2    50   ~ 0
S_DC
Text Label 8350 2750 2    50   ~ 0
S_MOSI
Wire Wire Line
	8900 5550 9600 5550
$Comp
L power:+5V #PWR0122
U 1 1 5FB7E66C
P 9600 5550
F 0 "#PWR0122" H 9600 5400 50  0001 C CNN
F 1 "+5V" V 9615 5678 50  0000 L CNN
F 2 "" H 9600 5550 50  0001 C CNN
F 3 "" H 9600 5550 50  0001 C CNN
	1    9600 5550
	0    1    1    0   
$EndComp
Text Label 10250 5250 2    50   ~ 0
S_SCK
Text Label 10250 4650 2    50   ~ 0
S_CS
Text Label 10250 4950 2    50   ~ 0
S_DC
Text Label 10250 5550 2    50   ~ 0
S_MOSI
$Comp
L Device:R R17
U 1 1 5FB80C31
P 10400 4650
F 0 "R17" V 10607 4650 50  0000 C CNN
F 1 "R" V 10516 4650 50  0000 C CNN
F 2 "Resistors_SMD:R_1206_HandSoldering" V 10330 4650 50  0001 C CNN
F 3 "~" H 10400 4650 50  0001 C CNN
	1    10400 4650
	0    -1   -1   0   
$EndComp
$Comp
L Device:R R13
U 1 1 5FB810E8
P 10400 4950
F 0 "R13" V 10607 4950 50  0000 C CNN
F 1 "R" V 10516 4950 50  0000 C CNN
F 2 "Resistors_SMD:R_1206_HandSoldering" V 10330 4950 50  0001 C CNN
F 3 "~" H 10400 4950 50  0001 C CNN
	1    10400 4950
	0    -1   -1   0   
$EndComp
$Comp
L Device:R R14
U 1 1 5FB8139F
P 10400 5250
F 0 "R14" V 10607 5250 50  0000 C CNN
F 1 "R" V 10516 5250 50  0000 C CNN
F 2 "Resistors_SMD:R_1206_HandSoldering" V 10330 5250 50  0001 C CNN
F 3 "~" H 10400 5250 50  0001 C CNN
	1    10400 5250
	0    -1   -1   0   
$EndComp
$Comp
L Device:R R15
U 1 1 5FB81AE7
P 10400 5550
F 0 "R15" V 10607 5550 50  0000 C CNN
F 1 "R" V 10516 5550 50  0000 C CNN
F 2 "Resistors_SMD:R_1206_HandSoldering" V 10330 5550 50  0001 C CNN
F 3 "~" H 10400 5550 50  0001 C CNN
	1    10400 5550
	0    -1   -1   0   
$EndComp
$Comp
L Device:R R16
U 1 1 5FB83D73
P 10400 6150
F 0 "R16" V 10607 6150 50  0000 C CNN
F 1 "R" V 10516 6150 50  0000 C CNN
F 2 "Resistors_SMD:R_1206_HandSoldering" V 10330 6150 50  0001 C CNN
F 3 "~" H 10400 6150 50  0001 C CNN
	1    10400 6150
	0    -1   -1   0   
$EndComp
Text Label 10250 6150 2    50   ~ 0
S_RESET
$Comp
L power:GND #PWR0123
U 1 1 5FB84C42
P 10550 4650
F 0 "#PWR0123" H 10550 4400 50  0001 C CNN
F 1 "GND" V 10555 4522 50  0000 R CNN
F 2 "" H 10550 4650 50  0001 C CNN
F 3 "" H 10550 4650 50  0001 C CNN
	1    10550 4650
	0    -1   -1   0   
$EndComp
$Comp
L power:GND #PWR0124
U 1 1 5FB84F9B
P 10550 4950
F 0 "#PWR0124" H 10550 4700 50  0001 C CNN
F 1 "GND" V 10555 4822 50  0000 R CNN
F 2 "" H 10550 4950 50  0001 C CNN
F 3 "" H 10550 4950 50  0001 C CNN
	1    10550 4950
	0    -1   -1   0   
$EndComp
$Comp
L power:GND #PWR0125
U 1 1 5FB8541E
P 10550 5250
F 0 "#PWR0125" H 10550 5000 50  0001 C CNN
F 1 "GND" V 10555 5122 50  0000 R CNN
F 2 "" H 10550 5250 50  0001 C CNN
F 3 "" H 10550 5250 50  0001 C CNN
	1    10550 5250
	0    -1   -1   0   
$EndComp
$Comp
L power:GND #PWR0126
U 1 1 5FB855FA
P 10550 5550
F 0 "#PWR0126" H 10550 5300 50  0001 C CNN
F 1 "GND" V 10555 5422 50  0000 R CNN
F 2 "" H 10550 5550 50  0001 C CNN
F 3 "" H 10550 5550 50  0001 C CNN
	1    10550 5550
	0    -1   -1   0   
$EndComp
$Comp
L power:GND #PWR0127
U 1 1 5FB8582A
P 10550 6150
F 0 "#PWR0127" H 10550 5900 50  0001 C CNN
F 1 "GND" V 10555 6022 50  0000 R CNN
F 2 "" H 10550 6150 50  0001 C CNN
F 3 "" H 10550 6150 50  0001 C CNN
	1    10550 6150
	0    -1   -1   0   
$EndComp
Text Notes 9000 4550 0    50   ~ 0
SPI type screen
Wire Notes Line
	11000 4400 8300 4400
Wire Notes Line
	8300 4400 8300 6250
Wire Notes Line
	11000 4400 11000 6250
Wire Notes Line
	8300 6250 11000 6250
Wire Notes Line
	11050 650  11050 3650
Wire Notes Line
	11050 3650 7800 3650
Wire Notes Line
	7800 3650 7800 650 
Text Notes 7850 750  0    50   ~ 0
Arduino Nano
Wire Wire Line
	5100 1100 4950 1100
Wire Wire Line
	5400 1100 5500 1100
Wire Notes Line
	6150 600  3300 600 
Wire Notes Line
	3300 600  3300 4250
Wire Notes Line
	3300 4250 6150 4250
Wire Notes Line
	6150 600  6150 4250
Text Notes 3400 800  0    50   ~ 0
LEDs
Wire Notes Line
	650  7600 2550 7600
Wire Notes Line
	2550 7600 2550 4500
Wire Notes Line
	2550 4500 650  4500
Wire Notes Line
	650  4500 650  7600
Wire Notes Line
	600  600  600  4250
Text Notes 2300 4200 0    50   ~ 0
Physical I/O
Wire Wire Line
	2350 1200 2650 1200
Wire Wire Line
	1950 1200 1950 900 
$Comp
L Jumper:Jumper_2_Bridged JP4
U 1 1 5FBDC711
P 2150 1200
F 0 "JP4" H 2150 1395 50  0000 C CNN
F 1 "Jumper_2_Bridged" H 2150 1304 50  0000 C CNN
F 2 "Jumpers:SolderJumper-2_P1.3mm_Bridged_RoundedPad1.0x1.5mm" H 2150 1200 50  0001 C CNN
F 3 "~" H 2150 1200 50  0001 C CNN
	1    2150 1200
	1    0    0    -1  
$EndComp
$Comp
L Jumper:Jumper_2_Open JP3
U 1 1 5FBDB216
P 2150 900
F 0 "JP3" H 2150 1135 50  0000 C CNN
F 1 "Jumper_2_Open" H 2150 1044 50  0000 C CNN
F 2 "Jumpers:SolderJumper-2_P1.3mm_Open_RoundedPad1.0x1.5mm" H 2150 900 50  0001 C CNN
F 3 "~" H 2150 900 50  0001 C CNN
	1    2150 900 
	1    0    0    -1  
$EndComp
Connection ~ 1950 1200
Wire Wire Line
	1950 1200 1900 1200
$Comp
L Device:R R1
U 1 1 5F7AF220
P 1750 1200
F 0 "R1" V 1543 1200 50  0000 C CNN
F 1 "R" V 1634 1200 50  0000 C CNN
F 2 "Resistors_SMD:R_1206_HandSoldering" V 1680 1200 50  0001 C CNN
F 3 "~" H 1750 1200 50  0001 C CNN
	1    1750 1200
	0    1    1    0   
$EndComp
Wire Wire Line
	2400 2100 2700 2100
Wire Wire Line
	2000 2100 2000 1800
$Comp
L Jumper:Jumper_2_Bridged JP6
U 1 1 5FBE70F4
P 2200 2100
F 0 "JP6" H 2200 2295 50  0000 C CNN
F 1 "Jumper_2_Bridged" H 2200 2204 50  0000 C CNN
F 2 "Jumpers:SolderJumper-2_P1.3mm_Bridged_RoundedPad1.0x1.5mm" H 2200 2100 50  0001 C CNN
F 3 "~" H 2200 2100 50  0001 C CNN
	1    2200 2100
	1    0    0    -1  
$EndComp
$Comp
L Jumper:Jumper_2_Open JP5
U 1 1 5FBE70FA
P 2200 1800
F 0 "JP5" H 2200 2035 50  0000 C CNN
F 1 "Jumper_2_Open" H 2200 1944 50  0000 C CNN
F 2 "Jumpers:SolderJumper-2_P1.3mm_Open_RoundedPad1.0x1.5mm" H 2200 1800 50  0001 C CNN
F 3 "~" H 2200 1800 50  0001 C CNN
	1    2200 1800
	1    0    0    -1  
$EndComp
Connection ~ 2000 2100
Wire Wire Line
	1850 2100 2000 2100
Wire Wire Line
	2400 3100 2700 3100
Wire Wire Line
	2000 3100 2000 2800
$Comp
L Jumper:Jumper_2_Bridged JP8
U 1 1 5FBE9C7C
P 2200 3100
F 0 "JP8" H 2200 3295 50  0000 C CNN
F 1 "Jumper_2_Bridged" H 2200 3204 50  0000 C CNN
F 2 "Jumpers:SolderJumper-2_P1.3mm_Bridged_RoundedPad1.0x1.5mm" H 2200 3100 50  0001 C CNN
F 3 "~" H 2200 3100 50  0001 C CNN
	1    2200 3100
	1    0    0    -1  
$EndComp
$Comp
L Jumper:Jumper_2_Open JP7
U 1 1 5FBE9C82
P 2200 2800
F 0 "JP7" H 2200 3035 50  0000 C CNN
F 1 "Jumper_2_Open" H 2200 2944 50  0000 C CNN
F 2 "Jumpers:SolderJumper-2_P1.3mm_Open_RoundedPad1.0x1.5mm" H 2200 2800 50  0001 C CNN
F 3 "~" H 2200 2800 50  0001 C CNN
	1    2200 2800
	1    0    0    -1  
$EndComp
Connection ~ 2000 3100
Wire Wire Line
	1850 3100 2000 3100
Wire Notes Line
	600  600  3100 600 
Wire Notes Line
	3100 600  3100 4250
Wire Notes Line
	600  4250 3100 4250
Text Label 2350 900  0    50   ~ 0
ardD2
Text Label 2400 1800 0    50   ~ 0
ardD3
Text Label 2400 2800 0    50   ~ 0
ardD4
$Comp
L power:+5V #PWR0128
U 1 1 5FC45A8F
P 9500 5850
F 0 "#PWR0128" H 9500 5700 50  0001 C CNN
F 1 "+5V" V 9515 5978 50  0000 L CNN
F 2 "" H 9500 5850 50  0001 C CNN
F 3 "" H 9500 5850 50  0001 C CNN
	1    9500 5850
	0    1    1    0   
$EndComp
Wire Wire Line
	8900 5850 9500 5850
Wire Wire Line
	9650 2850 9400 2850
$Comp
L Device:R R12
U 1 1 5FC706F0
P 9250 2850
F 0 "R12" V 9350 2750 50  0000 C CNN
F 1 "R" V 9350 2850 50  0000 C CNN
F 2 "Resistors_SMD:R_1206_HandSoldering" V 9180 2850 50  0001 C CNN
F 3 "~" H 9250 2850 50  0001 C CNN
	1    9250 2850
	0    1    1    0   
$EndComp
Wire Wire Line
	9100 2850 8350 2850
Text Label 8350 2850 2    50   ~ 0
S_MISO
Text Label 10250 5850 2    50   ~ 0
S_MISO
$Comp
L Device:R R18
U 1 1 5FC76765
P 10400 5850
F 0 "R18" V 10607 5850 50  0000 C CNN
F 1 "R" V 10516 5850 50  0000 C CNN
F 2 "Resistors_SMD:R_1206_HandSoldering" V 10330 5850 50  0001 C CNN
F 3 "~" H 10400 5850 50  0001 C CNN
	1    10400 5850
	0    -1   -1   0   
$EndComp
$Comp
L power:GND #PWR0129
U 1 1 5FC7676B
P 10550 5850
F 0 "#PWR0129" H 10550 5600 50  0001 C CNN
F 1 "GND" V 10555 5722 50  0000 R CNN
F 2 "" H 10550 5850 50  0001 C CNN
F 3 "" H 10550 5850 50  0001 C CNN
	1    10550 5850
	0    -1   -1   0   
$EndComp
Wire Notes Line
	3050 5300 3050 7000
Wire Notes Line
	3050 7000 4600 7000
Text Notes 3100 5400 0    50   ~ 0
Serial comms
Wire Notes Line
	7800 650  11050 650 
Wire Notes Line
	3050 5300 4600 5300
Wire Notes Line
	4600 5300 4600 7000
$EndSCHEMATC
