EESchema Schematic File Version 4
LIBS:DIP8-cache
EELAYER 29 0
EELAYER END
$Descr A4 11693 8268
encoding utf-8
Sheet 1 1
Title ""
Date ""
Rev ""
Comp ""
Comment1 ""
Comment2 ""
Comment3 ""
Comment4 ""
$EndDescr
$Comp
L Sensor_Pressure:MPXA6115A U1
U 1 1 5E8D50E3
P 4350 2750
F 0 "U1" H 3921 2796 50  0000 R CNN
F 1 "MPXA6115A" H 3921 2705 50  0000 R CNN
F 2 "misc-components:DIP-8_W13.97mm_LongPads" H 3850 2400 50  0001 C CNN
F 3 "http://www.nxp.com/files/sensors/doc/data_sheet/MPXA6115A.pdf" H 4350 3350 50  0001 C CNN
	1    4350 2750
	1    0    0    -1  
$EndComp
$Comp
L Connector:Conn_01x04_Male J1
U 1 1 5E8D5AE0
P 2100 2650
F 0 "J1" H 2208 2931 50  0000 C CNN
F 1 "Conn_01x04_Male" H 2208 2840 50  0000 C CNN
F 2 "Pin_Headers:Pin_Header_Straight_1x04_Pitch2.54mm" H 2100 2650 50  0001 C CNN
F 3 "~" H 2100 2650 50  0001 C CNN
	1    2100 2650
	1    0    0    -1  
$EndComp
Text Label 4750 2750 0    50   ~ 0
Vout
$Comp
L power:GND #PWR0101
U 1 1 5E8D890C
P 4350 3050
F 0 "#PWR0101" H 4350 2800 50  0001 C CNN
F 1 "GND" H 4355 2877 50  0000 C CNN
F 2 "" H 4350 3050 50  0001 C CNN
F 3 "" H 4350 3050 50  0001 C CNN
	1    4350 3050
	1    0    0    -1  
$EndComp
$Comp
L power:GND #PWR0102
U 1 1 5E8D89FD
P 2300 2850
F 0 "#PWR0102" H 2300 2600 50  0001 C CNN
F 1 "GND" H 2305 2677 50  0000 C CNN
F 2 "" H 2300 2850 50  0001 C CNN
F 3 "" H 2300 2850 50  0001 C CNN
	1    2300 2850
	1    0    0    -1  
$EndComp
Text Label 2300 2750 0    50   ~ 0
Vout
$Comp
L power:GND #PWR0103
U 1 1 5E8D9288
P 2600 2650
F 0 "#PWR0103" H 2600 2400 50  0001 C CNN
F 1 "GND" V 2605 2522 50  0000 R CNN
F 2 "" H 2600 2650 50  0001 C CNN
F 3 "" H 2600 2650 50  0001 C CNN
	1    2600 2650
	0    -1   -1   0   
$EndComp
Wire Wire Line
	2600 2650 2300 2650
$Comp
L power:VCC #PWR0104
U 1 1 5E8DDF11
P 4350 2450
F 0 "#PWR0104" H 4350 2300 50  0001 C CNN
F 1 "VCC" H 4367 2623 50  0000 C CNN
F 2 "" H 4350 2450 50  0001 C CNN
F 3 "" H 4350 2450 50  0001 C CNN
	1    4350 2450
	1    0    0    -1  
$EndComp
Text Label 2300 2550 0    50   ~ 0
vin
Text Label 5900 2450 1    50   ~ 0
vin
$Comp
L Device:L L1
U 1 1 5E8F2153
P 7500 2700
F 0 "L1" V 7690 2700 50  0000 C CNN
F 1 "L" V 7599 2700 50  0000 C CNN
F 2 "Inductors_SMD:L_0805_HandSoldering" H 7500 2700 50  0001 C CNN
F 3 "~" H 7500 2700 50  0001 C CNN
	1    7500 2700
	0    -1   -1   0   
$EndComp
Wire Wire Line
	7200 2700 7350 2700
Wire Wire Line
	7650 2700 7750 2700
$Comp
L Device:C C2
U 1 1 5E8F3AE8
P 7750 2850
F 0 "C2" H 7865 2896 50  0000 L CNN
F 1 "C" H 7865 2805 50  0000 L CNN
F 2 "Capacitors_SMD:C_0805" H 7788 2700 50  0001 C CNN
F 3 "~" H 7750 2850 50  0001 C CNN
	1    7750 2850
	1    0    0    -1  
$EndComp
$Comp
L Device:C C1
U 1 1 5E8F423E
P 4050 1550
F 0 "C1" H 4165 1596 50  0000 L CNN
F 1 "C" H 4165 1505 50  0000 L CNN
F 2 "Capacitors_SMD:C_0805" H 4088 1400 50  0001 C CNN
F 3 "~" H 4050 1550 50  0001 C CNN
	1    4050 1550
	1    0    0    -1  
$EndComp
$Comp
L power:VCC #PWR0105
U 1 1 5E8F651F
P 4050 1400
F 0 "#PWR0105" H 4050 1250 50  0001 C CNN
F 1 "VCC" H 4067 1573 50  0000 C CNN
F 2 "" H 4050 1400 50  0001 C CNN
F 3 "" H 4050 1400 50  0001 C CNN
	1    4050 1400
	1    0    0    -1  
$EndComp
Text Label 5900 2950 3    50   ~ 0
filterOut
$Comp
L power:VCC #PWR0106
U 1 1 5E8F7801
P 5750 2700
F 0 "#PWR0106" H 5750 2550 50  0001 C CNN
F 1 "VCC" V 5768 2827 50  0000 L CNN
F 2 "" H 5750 2700 50  0001 C CNN
F 3 "" H 5750 2700 50  0001 C CNN
	1    5750 2700
	0    -1   -1   0   
$EndComp
$Comp
L power:GND #PWR0107
U 1 1 5E8F7E41
P 4050 1700
F 0 "#PWR0107" H 4050 1450 50  0001 C CNN
F 1 "GND" H 4055 1527 50  0000 C CNN
F 2 "" H 4050 1700 50  0001 C CNN
F 3 "" H 4050 1700 50  0001 C CNN
	1    4050 1700
	1    0    0    -1  
$EndComp
Text Label 8100 2700 0    50   ~ 0
filterOut
Text Label 7200 2700 2    50   ~ 0
vin
Wire Wire Line
	7750 2700 8100 2700
Connection ~ 7750 2700
$Comp
L power:GND #PWR0108
U 1 1 5E8FD852
P 7750 3000
F 0 "#PWR0108" H 7750 2750 50  0001 C CNN
F 1 "GND" H 7755 2827 50  0000 C CNN
F 2 "" H 7750 3000 50  0001 C CNN
F 3 "" H 7750 3000 50  0001 C CNN
	1    7750 3000
	1    0    0    -1  
$EndComp
$Comp
L Jumper:Jumper_3_Bridged12 JP1
U 1 1 5E8FDBFB
P 5900 2700
F 0 "JP1" V 5854 2767 50  0000 L CNN
F 1 "Jumper_3_Bridged12" V 5945 2767 50  0000 L CNN
F 2 "Jumpers:SolderJumper-3_P1.3mm_Bridged12_Pad1.0x1.5mm" H 5900 2700 50  0001 C CNN
F 3 "~" H 5900 2700 50  0001 C CNN
	1    5900 2700
	0    1    1    0   
$EndComp
$Comp
L Mechanical:MountingHole H4
U 1 1 5E9040FF
P 3300 4250
F 0 "H4" H 3400 4296 50  0000 L CNN
F 1 "MountingHole" H 3400 4205 50  0000 L CNN
F 2 "Mounting_Holes:MountingHole_3.2mm_M3" H 3300 4250 50  0001 C CNN
F 3 "~" H 3300 4250 50  0001 C CNN
	1    3300 4250
	1    0    0    -1  
$EndComp
$Comp
L Mechanical:MountingHole H3
U 1 1 5E903BE1
P 3300 3950
F 0 "H3" H 3400 3996 50  0000 L CNN
F 1 "MountingHole" H 3400 3905 50  0000 L CNN
F 2 "Mounting_Holes:MountingHole_3.2mm_M3" H 3300 3950 50  0001 C CNN
F 3 "~" H 3300 3950 50  0001 C CNN
	1    3300 3950
	1    0    0    -1  
$EndComp
$Comp
L Mechanical:MountingHole H2
U 1 1 5E9037D6
P 3300 3650
F 0 "H2" H 3400 3696 50  0000 L CNN
F 1 "MountingHole" H 3400 3605 50  0000 L CNN
F 2 "Mounting_Holes:MountingHole_3.2mm_M3" H 3300 3650 50  0001 C CNN
F 3 "~" H 3300 3650 50  0001 C CNN
	1    3300 3650
	1    0    0    -1  
$EndComp
$Comp
L Mechanical:MountingHole H1
U 1 1 5E902ED3
P 3300 3350
F 0 "H1" H 3400 3396 50  0000 L CNN
F 1 "MountingHole" H 3400 3305 50  0000 L CNN
F 2 "Mounting_Holes:MountingHole_3.2mm_M3" H 3300 3350 50  0001 C CNN
F 3 "~" H 3300 3350 50  0001 C CNN
	1    3300 3350
	1    0    0    -1  
$EndComp
$EndSCHEMATC
