M48
METRIC,TZ
T1C0.400
T2C0.800
T3C1.000
T4C1.100
%
G90
G05
T1
X116300Y-77200
X128400Y-61100
X128400Y-63700
X128400Y-66300
X128400Y-68800
X128400Y-71300
X128400Y-76400
X160100Y-88100
X177000Y-83500
X187000Y-86500
X187125Y-91000
X187125Y-93560
X187850Y-98650
X189000Y-98250
X190250Y-97500
X191500Y-96750
X192750Y-96000
X201600Y-62400
X208500Y-61750
T2
X145700Y-77300
X151550Y-58150
X153300Y-69700
X158700Y-65300
X165900Y-58200
X120460Y-48340
X123000Y-48340
X125540Y-48340
X128080Y-48340
X129600Y-96600
X130620Y-48340
X132140Y-96600
X133160Y-48340
X134680Y-96600
X135700Y-48340
X137220Y-96600
X138240Y-48340
X139760Y-96600
X140780Y-48340
X142300Y-96600
X143320Y-48340
X144840Y-96600
X147380Y-48340
X147380Y-96600
X149920Y-48340
X152460Y-48340
X152460Y-96600
X155000Y-48340
X155000Y-96600
X157540Y-48340
X157540Y-96600
X160080Y-48340
X160080Y-96600
X162620Y-48340
X162620Y-96600
X165160Y-48340
X165160Y-96600
X182700Y-58000
X182700Y-60540
X182700Y-63080
X182700Y-65620
X182700Y-68160
X182700Y-70700
X182700Y-73240
X182700Y-75780
X182700Y-78320
X182700Y-80860
X182700Y-83400
X182700Y-85940
X182700Y-88480
X182700Y-91020
X182700Y-93560
X197940Y-58000
X197940Y-60540
X197940Y-63080
X197940Y-65620
X197940Y-68160
X197940Y-70700
X197940Y-73240
X197940Y-75780
X197940Y-78320
X197940Y-80860
X197940Y-83400
X197940Y-85940
X197940Y-88480
X197940Y-91020
X197940Y-93560
T3
X204200Y-92475
X204200Y-95015
X201500Y-51500
X201500Y-54000
X201500Y-56500
X204200Y-73725
X204200Y-76265
X112000Y-56000
X112000Y-58540
X112000Y-61080
X112000Y-63620
X112000Y-66160
X112000Y-68700
X112000Y-71240
X112000Y-73780
X112000Y-76320
X112000Y-78860
X112000Y-81400
X112000Y-83940
X112000Y-86480
X112000Y-89020
X174800Y-52620
X174800Y-55160
X174800Y-57700
X186500Y-57750
X189040Y-57750
X191580Y-57750
X194120Y-57750
X204200Y-83100
X204200Y-85640
X174800Y-61320
X174800Y-63860
X174800Y-66400
T4
X206500Y-91500
X206500Y-96000
X213000Y-91500
X213000Y-96000
X206750Y-72750
X206750Y-77250
X213250Y-72750
X213250Y-77250
X206500Y-82125
X206500Y-86625
X213000Y-82125
X213000Y-86625
T0
M30
