EESchema Schematic File Version 4
LIBS:sdp8-cache
EELAYER 29 0
EELAYER END
$Descr A4 11693 8268
encoding utf-8
Sheet 1 1
Title ""
Date ""
Rev ""
Comp ""
Comment1 ""
Comment2 ""
Comment3 ""
Comment4 ""
$EndDescr
$Comp
L Connector:Conn_01x04_Male J2
U 1 1 5E8D63ED
P 2250 3350
F 0 "J2" H 2358 3631 50  0000 C CNN
F 1 "Conn_01x04_Male" H 2358 3540 50  0000 C CNN
F 2 "misc-components:SDP816" H 2250 3350 50  0001 C CNN
F 3 "~" H 2250 3350 50  0001 C CNN
	1    2250 3350
	1    0    0    -1  
$EndComp
Text Label 2750 3250 0    50   ~ 0
OCS
$Comp
L power:VCC #PWR0101
U 1 1 5E8D7038
P 2450 3350
F 0 "#PWR0101" H 2450 3200 50  0001 C CNN
F 1 "VCC" V 2467 3478 50  0000 L CNN
F 2 "" H 2450 3350 50  0001 C CNN
F 3 "" H 2450 3350 50  0001 C CNN
	1    2450 3350
	0    1    1    0   
$EndComp
$Comp
L power:GND #PWR0102
U 1 1 5E8D718C
P 2450 3450
F 0 "#PWR0102" H 2450 3200 50  0001 C CNN
F 1 "GND" V 2455 3322 50  0000 R CNN
F 2 "" H 2450 3450 50  0001 C CNN
F 3 "" H 2450 3450 50  0001 C CNN
	1    2450 3450
	0    -1   -1   0   
$EndComp
Wire Wire Line
	2750 3250 2450 3250
Wire Wire Line
	2450 3550 2750 3550
Text Label 2750 3550 0    50   ~ 0
vout
$Comp
L Connector:Conn_01x03_Male J3
U 1 1 5E8D7641
P 4600 2550
F 0 "J3" H 4708 2831 50  0000 C CNN
F 1 "Conn_01x03_Male" H 4708 2740 50  0000 C CNN
F 2 "Pin_Headers:Pin_Header_Straight_1x03_Pitch2.54mm" H 4600 2550 50  0001 C CNN
F 3 "~" H 4600 2550 50  0001 C CNN
	1    4600 2550
	1    0    0    -1  
$EndComp
Text Label 5150 2550 0    50   ~ 0
OCS
$Comp
L power:VCC #PWR0103
U 1 1 5E8D8E5E
P 4800 2450
F 0 "#PWR0103" H 4800 2300 50  0001 C CNN
F 1 "VCC" V 4817 2578 50  0000 L CNN
F 2 "" H 4800 2450 50  0001 C CNN
F 3 "" H 4800 2450 50  0001 C CNN
	1    4800 2450
	0    1    1    0   
$EndComp
$Comp
L power:GND #PWR0104
U 1 1 5E8D937E
P 4800 2650
F 0 "#PWR0104" H 4800 2400 50  0001 C CNN
F 1 "GND" V 4805 2522 50  0000 R CNN
F 2 "" H 4800 2650 50  0001 C CNN
F 3 "" H 4800 2650 50  0001 C CNN
	1    4800 2650
	0    -1   -1   0   
$EndComp
Wire Wire Line
	5150 2550 4800 2550
Text Notes 4350 2200 0    50   ~ 0
Will shunt one or t'other
$Comp
L power:VCC #PWR0105
U 1 1 5E8DB384
P 4100 3500
F 0 "#PWR0105" H 4100 3350 50  0001 C CNN
F 1 "VCC" H 4117 3673 50  0000 C CNN
F 2 "" H 4100 3500 50  0001 C CNN
F 3 "" H 4100 3500 50  0001 C CNN
	1    4100 3500
	1    0    0    -1  
$EndComp
$Comp
L Device:C C1
U 1 1 5E8DB9DD
P 4100 3650
F 0 "C1" H 4215 3696 50  0000 L CNN
F 1 "C" H 4215 3605 50  0000 L CNN
F 2 "Capacitors_SMD:C_0805_HandSoldering" H 4138 3500 50  0001 C CNN
F 3 "~" H 4100 3650 50  0001 C CNN
	1    4100 3650
	1    0    0    -1  
$EndComp
$Comp
L power:GND #PWR0106
U 1 1 5E8DBE45
P 4100 3800
F 0 "#PWR0106" H 4100 3550 50  0001 C CNN
F 1 "GND" H 4105 3627 50  0000 C CNN
F 2 "" H 4100 3800 50  0001 C CNN
F 3 "" H 4100 3800 50  0001 C CNN
	1    4100 3800
	1    0    0    -1  
$EndComp
$Comp
L Jumper:Jumper_3_Bridged12 JP1
U 1 1 5E8DE2A9
P 5650 3650
F 0 "JP1" V 5604 3717 50  0000 L CNN
F 1 "Jumper_3_Bridged12" V 5695 3717 50  0000 L CNN
F 2 "Jumpers:SolderJumper-3_P1.3mm_Bridged12_Pad1.0x1.5mm" H 5650 3650 50  0001 C CNN
F 3 "~" H 5650 3650 50  0001 C CNN
	1    5650 3650
	0    1    1    0   
$EndComp
$Comp
L power:VCC #PWR0107
U 1 1 5E8DF1F8
P 5500 3650
F 0 "#PWR0107" H 5500 3500 50  0001 C CNN
F 1 "VCC" V 5518 3777 50  0000 L CNN
F 2 "" H 5500 3650 50  0001 C CNN
F 3 "" H 5500 3650 50  0001 C CNN
	1    5500 3650
	0    -1   -1   0   
$EndComp
$Comp
L Connector:Conn_01x03_Male J1
U 1 1 5E8DFB45
P 1350 1700
F 0 "J1" H 1458 1981 50  0000 C CNN
F 1 "Conn_01x03_Male" H 1458 1890 50  0000 C CNN
F 2 "Pin_Headers:Pin_Header_Straight_1x03_Pitch2.54mm" H 1350 1700 50  0001 C CNN
F 3 "~" H 1350 1700 50  0001 C CNN
	1    1350 1700
	1    0    0    -1  
$EndComp
Text Label 1800 1600 0    50   ~ 0
vin
Wire Wire Line
	1550 1600 1800 1600
Wire Wire Line
	1550 1800 1800 1800
Wire Wire Line
	1550 1700 1800 1700
$Comp
L power:GND #PWR0108
U 1 1 5E8E2C5E
P 1800 1800
F 0 "#PWR0108" H 1800 1550 50  0001 C CNN
F 1 "GND" H 1805 1627 50  0000 C CNN
F 2 "" H 1800 1800 50  0001 C CNN
F 3 "" H 1800 1800 50  0001 C CNN
	1    1800 1800
	1    0    0    -1  
$EndComp
Text Label 1800 1700 0    50   ~ 0
vout
Text Label 5650 3400 0    50   ~ 0
vin
Text Label 5650 3900 3    50   ~ 0
filterOut
Text Label 8600 3650 0    50   ~ 0
filterOut
$Comp
L Device:L L1
U 1 1 5E8E37CF
P 7800 3650
F 0 "L1" V 7990 3650 50  0000 C CNN
F 1 "L" V 7899 3650 50  0000 C CNN
F 2 "Inductors_SMD:L_1206" H 7800 3650 50  0001 C CNN
F 3 "~" H 7800 3650 50  0001 C CNN
	1    7800 3650
	0    -1   -1   0   
$EndComp
$Comp
L Device:C C2
U 1 1 5E8E3FFC
P 8200 3800
F 0 "C2" H 8315 3846 50  0000 L CNN
F 1 "C" H 8315 3755 50  0000 L CNN
F 2 "Capacitors_SMD:C_0805_HandSoldering" H 8238 3650 50  0001 C CNN
F 3 "~" H 8200 3800 50  0001 C CNN
	1    8200 3800
	1    0    0    -1  
$EndComp
Wire Wire Line
	7950 3650 8200 3650
Wire Wire Line
	8200 3650 8600 3650
Connection ~ 8200 3650
Text Label 7650 3650 2    50   ~ 0
vin
$Comp
L power:GND #PWR0109
U 1 1 5E8E4E16
P 8200 3950
F 0 "#PWR0109" H 8200 3700 50  0001 C CNN
F 1 "GND" H 8205 3777 50  0000 C CNN
F 2 "" H 8200 3950 50  0001 C CNN
F 3 "" H 8200 3950 50  0001 C CNN
	1    8200 3950
	1    0    0    -1  
$EndComp
$Comp
L Mechanical:MountingHole H1
U 1 1 5E8E7271
P 7150 1200
F 0 "H1" H 7250 1246 50  0000 L CNN
F 1 "MountingHole" H 7250 1155 50  0000 L CNN
F 2 "Mounting_Holes:MountingHole_4.3mm_M4" H 7150 1200 50  0001 C CNN
F 3 "~" H 7150 1200 50  0001 C CNN
	1    7150 1200
	1    0    0    -1  
$EndComp
$Comp
L Mechanical:MountingHole H2
U 1 1 5E8E7686
P 7150 1500
F 0 "H2" H 7250 1546 50  0000 L CNN
F 1 "MountingHole" H 7250 1455 50  0000 L CNN
F 2 "Mounting_Holes:MountingHole_4.3mm_M4" H 7150 1500 50  0001 C CNN
F 3 "~" H 7150 1500 50  0001 C CNN
	1    7150 1500
	1    0    0    -1  
$EndComp
$Comp
L Mechanical:MountingHole H3
U 1 1 5E8E8769
P 8100 1250
F 0 "H3" H 8200 1296 50  0000 L CNN
F 1 "MountingHole" H 8200 1205 50  0000 L CNN
F 2 "Mounting_Holes:MountingHole_4.3mm_M4" H 8100 1250 50  0001 C CNN
F 3 "~" H 8100 1250 50  0001 C CNN
	1    8100 1250
	1    0    0    -1  
$EndComp
$Comp
L Mechanical:MountingHole H4
U 1 1 5E8E876F
P 8100 1550
F 0 "H4" H 8200 1596 50  0000 L CNN
F 1 "MountingHole" H 8200 1505 50  0000 L CNN
F 2 "Mounting_Holes:MountingHole_4.3mm_M4" H 8100 1550 50  0001 C CNN
F 3 "~" H 8100 1550 50  0001 C CNN
	1    8100 1550
	1    0    0    -1  
$EndComp
Wire Notes Line
	1700 2800 1700 3800
Wire Notes Line
	1700 3800 3150 3800
Wire Notes Line
	3150 3800 3150 2800
Wire Notes Line
	3150 2800 1700 2800
Text Notes 1700 3900 0    50   ~ 0
This is actually the sensor
$EndSCHEMATC
