G04 #@! TF.GenerationSoftware,KiCad,Pcbnew,5.1.6*
G04 #@! TF.CreationDate,2020-08-27T17:30:40+12:00*
G04 #@! TF.ProjectId,fridgeLogger,66726964-6765-44c6-9f67-6765722e6b69,rev?*
G04 #@! TF.SameCoordinates,Original*
G04 #@! TF.FileFunction,Legend,Top*
G04 #@! TF.FilePolarity,Positive*
%FSLAX46Y46*%
G04 Gerber Fmt 4.6, Leading zero omitted, Abs format (unit mm)*
G04 Created by KiCad (PCBNEW 5.1.6) date 2020-08-27 17:30:40*
%MOMM*%
%LPD*%
G01*
G04 APERTURE LIST*
%ADD10C,0.120000*%
%ADD11C,0.150000*%
%ADD12C,0.100000*%
%ADD13C,0.400000*%
%ADD14C,0.200000*%
%ADD15C,0.050000*%
G04 APERTURE END LIST*
D10*
X110967857Y-132550000D02*
X111539285Y-132550000D01*
X110853571Y-132892857D02*
X111253571Y-131692857D01*
X111653571Y-132892857D01*
X112282142Y-131692857D02*
X112396428Y-131692857D01*
X112510714Y-131750000D01*
X112567857Y-131807142D01*
X112625000Y-131921428D01*
X112682142Y-132150000D01*
X112682142Y-132435714D01*
X112625000Y-132664285D01*
X112567857Y-132778571D01*
X112510714Y-132835714D01*
X112396428Y-132892857D01*
X112282142Y-132892857D01*
X112167857Y-132835714D01*
X112110714Y-132778571D01*
X112053571Y-132664285D01*
X111996428Y-132435714D01*
X111996428Y-132150000D01*
X112053571Y-131921428D01*
X112110714Y-131807142D01*
X112167857Y-131750000D01*
X112282142Y-131692857D01*
D11*
X99627380Y-100792738D02*
X100341666Y-100792738D01*
X100484523Y-100840357D01*
X100579761Y-100935595D01*
X100627380Y-101078452D01*
X100627380Y-101173690D01*
X99627380Y-100316547D02*
X100436904Y-100316547D01*
X100532142Y-100268928D01*
X100579761Y-100221309D01*
X100627380Y-100126071D01*
X100627380Y-99935595D01*
X100579761Y-99840357D01*
X100532142Y-99792738D01*
X100436904Y-99745119D01*
X99627380Y-99745119D01*
X100627380Y-99268928D02*
X99627380Y-99268928D01*
X100341666Y-98935595D01*
X99627380Y-98602261D01*
X100627380Y-98602261D01*
X100627380Y-98126071D02*
X99627380Y-98126071D01*
X99627380Y-97745119D01*
X99675000Y-97649880D01*
X99722619Y-97602261D01*
X99817857Y-97554642D01*
X99960714Y-97554642D01*
X100055952Y-97602261D01*
X100103571Y-97649880D01*
X100151190Y-97745119D01*
X100151190Y-98126071D01*
X100103571Y-96030833D02*
X100103571Y-96364166D01*
X100627380Y-96364166D02*
X99627380Y-96364166D01*
X99627380Y-95887976D01*
X99627380Y-95316547D02*
X99627380Y-95126071D01*
X99675000Y-95030833D01*
X99770238Y-94935595D01*
X99960714Y-94887976D01*
X100294047Y-94887976D01*
X100484523Y-94935595D01*
X100579761Y-95030833D01*
X100627380Y-95126071D01*
X100627380Y-95316547D01*
X100579761Y-95411785D01*
X100484523Y-95507023D01*
X100294047Y-95554642D01*
X99960714Y-95554642D01*
X99770238Y-95507023D01*
X99675000Y-95411785D01*
X99627380Y-95316547D01*
X100627380Y-93887976D02*
X100151190Y-94221309D01*
X100627380Y-94459404D02*
X99627380Y-94459404D01*
X99627380Y-94078452D01*
X99675000Y-93983214D01*
X99722619Y-93935595D01*
X99817857Y-93887976D01*
X99960714Y-93887976D01*
X100055952Y-93935595D01*
X100103571Y-93983214D01*
X100151190Y-94078452D01*
X100151190Y-94459404D01*
X101991666Y-101745119D02*
X101991666Y-101268928D01*
X102277380Y-101840357D02*
X101277380Y-101507023D01*
X102277380Y-101173690D01*
X101277380Y-100935595D02*
X101277380Y-100268928D01*
X102277380Y-100697500D01*
X101277380Y-98935595D02*
X101277380Y-98745119D01*
X101325000Y-98649880D01*
X101420238Y-98554642D01*
X101610714Y-98507023D01*
X101944047Y-98507023D01*
X102134523Y-98554642D01*
X102229761Y-98649880D01*
X102277380Y-98745119D01*
X102277380Y-98935595D01*
X102229761Y-99030833D01*
X102134523Y-99126071D01*
X101944047Y-99173690D01*
X101610714Y-99173690D01*
X101420238Y-99126071D01*
X101325000Y-99030833D01*
X101277380Y-98935595D01*
X101277380Y-98078452D02*
X102086904Y-98078452D01*
X102182142Y-98030833D01*
X102229761Y-97983214D01*
X102277380Y-97887976D01*
X102277380Y-97697500D01*
X102229761Y-97602261D01*
X102182142Y-97554642D01*
X102086904Y-97507023D01*
X101277380Y-97507023D01*
X101277380Y-97173690D02*
X101277380Y-96602261D01*
X102277380Y-96887976D02*
X101277380Y-96887976D01*
X102277380Y-96268928D02*
X101277380Y-96268928D01*
X101277380Y-95887976D01*
X101325000Y-95792738D01*
X101372619Y-95745119D01*
X101467857Y-95697500D01*
X101610714Y-95697500D01*
X101705952Y-95745119D01*
X101753571Y-95792738D01*
X101801190Y-95887976D01*
X101801190Y-96268928D01*
X101277380Y-95268928D02*
X102086904Y-95268928D01*
X102182142Y-95221309D01*
X102229761Y-95173690D01*
X102277380Y-95078452D01*
X102277380Y-94887976D01*
X102229761Y-94792738D01*
X102182142Y-94745119D01*
X102086904Y-94697500D01*
X101277380Y-94697500D01*
X101277380Y-94364166D02*
X101277380Y-93792738D01*
X102277380Y-94078452D02*
X101277380Y-94078452D01*
X106037976Y-96116666D02*
X106514166Y-96116666D01*
X105942738Y-96402380D02*
X106276071Y-95402380D01*
X106609404Y-96402380D01*
X106942738Y-96402380D02*
X106942738Y-95402380D01*
X107514166Y-96402380D01*
X107514166Y-95402380D01*
X107942738Y-96116666D02*
X108418928Y-96116666D01*
X107847500Y-96402380D02*
X108180833Y-95402380D01*
X108514166Y-96402380D01*
X108609404Y-96497619D02*
X109371309Y-96497619D01*
X109609404Y-96402380D02*
X109609404Y-95402380D01*
X110085595Y-96402380D02*
X110085595Y-95402380D01*
X110657023Y-96402380D01*
X110657023Y-95402380D01*
X106085595Y-99702380D02*
X106085595Y-98702380D01*
X106466547Y-98702380D01*
X106561785Y-98750000D01*
X106609404Y-98797619D01*
X106657023Y-98892857D01*
X106657023Y-99035714D01*
X106609404Y-99130952D01*
X106561785Y-99178571D01*
X106466547Y-99226190D01*
X106085595Y-99226190D01*
X107276071Y-98702380D02*
X107466547Y-98702380D01*
X107561785Y-98750000D01*
X107657023Y-98845238D01*
X107704642Y-99035714D01*
X107704642Y-99369047D01*
X107657023Y-99559523D01*
X107561785Y-99654761D01*
X107466547Y-99702380D01*
X107276071Y-99702380D01*
X107180833Y-99654761D01*
X107085595Y-99559523D01*
X107037976Y-99369047D01*
X107037976Y-99035714D01*
X107085595Y-98845238D01*
X107180833Y-98750000D01*
X107276071Y-98702380D01*
X107990357Y-98702380D02*
X108561785Y-98702380D01*
X108276071Y-99702380D02*
X108276071Y-98702380D01*
D10*
X108392857Y-103200000D02*
X108964285Y-103200000D01*
X108278571Y-103542857D02*
X108678571Y-102342857D01*
X109078571Y-103542857D01*
X109364285Y-102342857D02*
X110164285Y-102342857D01*
X109650000Y-103542857D01*
D11*
X76771428Y-103238095D02*
X76809523Y-103200000D01*
X76885714Y-103161904D01*
X77076190Y-103161904D01*
X77152380Y-103200000D01*
X77190476Y-103238095D01*
X77228571Y-103314285D01*
X77228571Y-103390476D01*
X77190476Y-103504761D01*
X76733333Y-103961904D01*
X77228571Y-103961904D01*
X76733333Y-105861904D02*
X77228571Y-105861904D01*
X76961904Y-106166666D01*
X77076190Y-106166666D01*
X77152380Y-106204761D01*
X77190476Y-106242857D01*
X77228571Y-106319047D01*
X77228571Y-106509523D01*
X77190476Y-106585714D01*
X77152380Y-106623809D01*
X77076190Y-106661904D01*
X76847619Y-106661904D01*
X76771428Y-106623809D01*
X76733333Y-106585714D01*
X76923809Y-108904761D02*
X76847619Y-108866666D01*
X76809523Y-108828571D01*
X76771428Y-108752380D01*
X76771428Y-108714285D01*
X76809523Y-108638095D01*
X76847619Y-108600000D01*
X76923809Y-108561904D01*
X77076190Y-108561904D01*
X77152380Y-108600000D01*
X77190476Y-108638095D01*
X77228571Y-108714285D01*
X77228571Y-108752380D01*
X77190476Y-108828571D01*
X77152380Y-108866666D01*
X77076190Y-108904761D01*
X76923809Y-108904761D01*
X76847619Y-108942857D01*
X76809523Y-108980952D01*
X76771428Y-109057142D01*
X76771428Y-109209523D01*
X76809523Y-109285714D01*
X76847619Y-109323809D01*
X76923809Y-109361904D01*
X77076190Y-109361904D01*
X77152380Y-109323809D01*
X77190476Y-109285714D01*
X77228571Y-109209523D01*
X77228571Y-109057142D01*
X77190476Y-108980952D01*
X77152380Y-108942857D01*
X77076190Y-108904761D01*
X77152380Y-111528571D02*
X77152380Y-112061904D01*
X76961904Y-111223809D02*
X76771428Y-111795238D01*
X77266666Y-111795238D01*
X76733333Y-113961904D02*
X77266666Y-113961904D01*
X76923809Y-114761904D01*
X81703571Y-119685714D02*
X83203571Y-119185714D01*
X81703571Y-118685714D01*
X83203571Y-118185714D02*
X82203571Y-118185714D01*
X81703571Y-118185714D02*
X81775000Y-118257142D01*
X81846428Y-118185714D01*
X81775000Y-118114285D01*
X81703571Y-118185714D01*
X81846428Y-118185714D01*
X82203571Y-117471428D02*
X83203571Y-117471428D01*
X82346428Y-117471428D02*
X82275000Y-117400000D01*
X82203571Y-117257142D01*
X82203571Y-117042857D01*
X82275000Y-116900000D01*
X82417857Y-116828571D01*
X83203571Y-116828571D01*
X75378571Y-134578571D02*
X75485714Y-134614285D01*
X75664285Y-134614285D01*
X75735714Y-134578571D01*
X75771428Y-134542857D01*
X75807142Y-134471428D01*
X75807142Y-134400000D01*
X75771428Y-134328571D01*
X75735714Y-134292857D01*
X75664285Y-134257142D01*
X75521428Y-134221428D01*
X75450000Y-134185714D01*
X75414285Y-134150000D01*
X75378571Y-134078571D01*
X75378571Y-134007142D01*
X75414285Y-133935714D01*
X75450000Y-133900000D01*
X75521428Y-133864285D01*
X75700000Y-133864285D01*
X75807142Y-133900000D01*
X76092857Y-134578571D02*
X76200000Y-134614285D01*
X76378571Y-134614285D01*
X76450000Y-134578571D01*
X76485714Y-134542857D01*
X76521428Y-134471428D01*
X76521428Y-134400000D01*
X76485714Y-134328571D01*
X76450000Y-134292857D01*
X76378571Y-134257142D01*
X76235714Y-134221428D01*
X76164285Y-134185714D01*
X76128571Y-134150000D01*
X76092857Y-134078571D01*
X76092857Y-134007142D01*
X76128571Y-133935714D01*
X76164285Y-133900000D01*
X76235714Y-133864285D01*
X76414285Y-133864285D01*
X76521428Y-133900000D01*
X74771428Y-137164285D02*
X74771428Y-136414285D01*
X75021428Y-136950000D01*
X75271428Y-136414285D01*
X75271428Y-137164285D01*
X75628571Y-137164285D02*
X75628571Y-136414285D01*
X75950000Y-137128571D02*
X76057142Y-137164285D01*
X76235714Y-137164285D01*
X76307142Y-137128571D01*
X76342857Y-137092857D01*
X76378571Y-137021428D01*
X76378571Y-136950000D01*
X76342857Y-136878571D01*
X76307142Y-136842857D01*
X76235714Y-136807142D01*
X76092857Y-136771428D01*
X76021428Y-136735714D01*
X75985714Y-136700000D01*
X75950000Y-136628571D01*
X75950000Y-136557142D01*
X75985714Y-136485714D01*
X76021428Y-136450000D01*
X76092857Y-136414285D01*
X76271428Y-136414285D01*
X76378571Y-136450000D01*
X76842857Y-136414285D02*
X76985714Y-136414285D01*
X77057142Y-136450000D01*
X77128571Y-136521428D01*
X77164285Y-136664285D01*
X77164285Y-136914285D01*
X77128571Y-137057142D01*
X77057142Y-137128571D01*
X76985714Y-137164285D01*
X76842857Y-137164285D01*
X76771428Y-137128571D01*
X76700000Y-137057142D01*
X76664285Y-136914285D01*
X76664285Y-136664285D01*
X76700000Y-136521428D01*
X76771428Y-136450000D01*
X76842857Y-136414285D01*
X74771428Y-139714285D02*
X74771428Y-138964285D01*
X75021428Y-139500000D01*
X75271428Y-138964285D01*
X75271428Y-139714285D01*
X75771428Y-138964285D02*
X75914285Y-138964285D01*
X75985714Y-139000000D01*
X76057142Y-139071428D01*
X76092857Y-139214285D01*
X76092857Y-139464285D01*
X76057142Y-139607142D01*
X75985714Y-139678571D01*
X75914285Y-139714285D01*
X75771428Y-139714285D01*
X75700000Y-139678571D01*
X75628571Y-139607142D01*
X75592857Y-139464285D01*
X75592857Y-139214285D01*
X75628571Y-139071428D01*
X75700000Y-139000000D01*
X75771428Y-138964285D01*
X76378571Y-139678571D02*
X76485714Y-139714285D01*
X76664285Y-139714285D01*
X76735714Y-139678571D01*
X76771428Y-139642857D01*
X76807142Y-139571428D01*
X76807142Y-139500000D01*
X76771428Y-139428571D01*
X76735714Y-139392857D01*
X76664285Y-139357142D01*
X76521428Y-139321428D01*
X76450000Y-139285714D01*
X76414285Y-139250000D01*
X76378571Y-139178571D01*
X76378571Y-139107142D01*
X76414285Y-139035714D01*
X76450000Y-139000000D01*
X76521428Y-138964285D01*
X76700000Y-138964285D01*
X76807142Y-139000000D01*
X77128571Y-139714285D02*
X77128571Y-138964285D01*
X75307142Y-141978571D02*
X75878571Y-141978571D01*
X75592857Y-142264285D02*
X75592857Y-141692857D01*
X76592857Y-141514285D02*
X76235714Y-141514285D01*
X76200000Y-141871428D01*
X76235714Y-141835714D01*
X76307142Y-141800000D01*
X76485714Y-141800000D01*
X76557142Y-141835714D01*
X76592857Y-141871428D01*
X76628571Y-141942857D01*
X76628571Y-142121428D01*
X76592857Y-142192857D01*
X76557142Y-142228571D01*
X76485714Y-142264285D01*
X76307142Y-142264285D01*
X76235714Y-142228571D01*
X76200000Y-142192857D01*
X74985714Y-144778571D02*
X75092857Y-144814285D01*
X75271428Y-144814285D01*
X75342857Y-144778571D01*
X75378571Y-144742857D01*
X75414285Y-144671428D01*
X75414285Y-144600000D01*
X75378571Y-144528571D01*
X75342857Y-144492857D01*
X75271428Y-144457142D01*
X75128571Y-144421428D01*
X75057142Y-144385714D01*
X75021428Y-144350000D01*
X74985714Y-144278571D01*
X74985714Y-144207142D01*
X75021428Y-144135714D01*
X75057142Y-144100000D01*
X75128571Y-144064285D01*
X75307142Y-144064285D01*
X75414285Y-144100000D01*
X76164285Y-144742857D02*
X76128571Y-144778571D01*
X76021428Y-144814285D01*
X75950000Y-144814285D01*
X75842857Y-144778571D01*
X75771428Y-144707142D01*
X75735714Y-144635714D01*
X75700000Y-144492857D01*
X75700000Y-144385714D01*
X75735714Y-144242857D01*
X75771428Y-144171428D01*
X75842857Y-144100000D01*
X75950000Y-144064285D01*
X76021428Y-144064285D01*
X76128571Y-144100000D01*
X76164285Y-144135714D01*
X76485714Y-144814285D02*
X76485714Y-144064285D01*
X76914285Y-144814285D02*
X76592857Y-144385714D01*
X76914285Y-144064285D02*
X76485714Y-144492857D01*
X75378571Y-146650000D02*
X75307142Y-146614285D01*
X75200000Y-146614285D01*
X75092857Y-146650000D01*
X75021428Y-146721428D01*
X74985714Y-146792857D01*
X74950000Y-146935714D01*
X74950000Y-147042857D01*
X74985714Y-147185714D01*
X75021428Y-147257142D01*
X75092857Y-147328571D01*
X75200000Y-147364285D01*
X75271428Y-147364285D01*
X75378571Y-147328571D01*
X75414285Y-147292857D01*
X75414285Y-147042857D01*
X75271428Y-147042857D01*
X75735714Y-147364285D02*
X75735714Y-146614285D01*
X76164285Y-147364285D01*
X76164285Y-146614285D01*
X76521428Y-147364285D02*
X76521428Y-146614285D01*
X76700000Y-146614285D01*
X76807142Y-146650000D01*
X76878571Y-146721428D01*
X76914285Y-146792857D01*
X76950000Y-146935714D01*
X76950000Y-147042857D01*
X76914285Y-147185714D01*
X76878571Y-147257142D01*
X76807142Y-147328571D01*
X76700000Y-147364285D01*
X76521428Y-147364285D01*
D10*
X111017857Y-123500000D02*
X111589285Y-123500000D01*
X110903571Y-123842857D02*
X111303571Y-122642857D01*
X111703571Y-123842857D01*
X112046428Y-122757142D02*
X112103571Y-122700000D01*
X112217857Y-122642857D01*
X112503571Y-122642857D01*
X112617857Y-122700000D01*
X112675000Y-122757142D01*
X112732142Y-122871428D01*
X112732142Y-122985714D01*
X112675000Y-123157142D01*
X111989285Y-123842857D01*
X112732142Y-123842857D01*
D11*
X89911904Y-100154880D02*
X89530952Y-100421547D01*
X89911904Y-100612023D02*
X89111904Y-100612023D01*
X89111904Y-100307261D01*
X89150000Y-100231071D01*
X89188095Y-100192976D01*
X89264285Y-100154880D01*
X89378571Y-100154880D01*
X89454761Y-100192976D01*
X89492857Y-100231071D01*
X89530952Y-100307261D01*
X89530952Y-100612023D01*
X89911904Y-99888214D02*
X89378571Y-99469166D01*
X89378571Y-99888214D02*
X89911904Y-99469166D01*
X91811904Y-100726309D02*
X91811904Y-100269166D01*
X92611904Y-100497738D02*
X91811904Y-100497738D01*
X92611904Y-100078690D02*
X92078571Y-99659642D01*
X92078571Y-100078690D02*
X92611904Y-99659642D01*
X94550000Y-100192976D02*
X94511904Y-100269166D01*
X94511904Y-100383452D01*
X94550000Y-100497738D01*
X94626190Y-100573928D01*
X94702380Y-100612023D01*
X94854761Y-100650119D01*
X94969047Y-100650119D01*
X95121428Y-100612023D01*
X95197619Y-100573928D01*
X95273809Y-100497738D01*
X95311904Y-100383452D01*
X95311904Y-100307261D01*
X95273809Y-100192976D01*
X95235714Y-100154880D01*
X94969047Y-100154880D01*
X94969047Y-100307261D01*
X95311904Y-99812023D02*
X94511904Y-99812023D01*
X95311904Y-99354880D01*
X94511904Y-99354880D01*
X95311904Y-98973928D02*
X94511904Y-98973928D01*
X94511904Y-98783452D01*
X94550000Y-98669166D01*
X94626190Y-98592976D01*
X94702380Y-98554880D01*
X94854761Y-98516785D01*
X94969047Y-98516785D01*
X95121428Y-98554880D01*
X95197619Y-98592976D01*
X95273809Y-98669166D01*
X95311904Y-98783452D01*
X95311904Y-98973928D01*
X97707142Y-100612023D02*
X97707142Y-100002500D01*
X98011904Y-100307261D02*
X97402380Y-100307261D01*
X97211904Y-99240595D02*
X97211904Y-99621547D01*
X97592857Y-99659642D01*
X97554761Y-99621547D01*
X97516666Y-99545357D01*
X97516666Y-99354880D01*
X97554761Y-99278690D01*
X97592857Y-99240595D01*
X97669047Y-99202500D01*
X97859523Y-99202500D01*
X97935714Y-99240595D01*
X97973809Y-99278690D01*
X98011904Y-99354880D01*
X98011904Y-99545357D01*
X97973809Y-99621547D01*
X97935714Y-99659642D01*
D12*
X108028571Y-113889285D02*
X108157142Y-113932142D01*
X108371428Y-113932142D01*
X108457142Y-113889285D01*
X108500000Y-113846428D01*
X108542857Y-113760714D01*
X108542857Y-113675000D01*
X108500000Y-113589285D01*
X108457142Y-113546428D01*
X108371428Y-113503571D01*
X108200000Y-113460714D01*
X108114285Y-113417857D01*
X108071428Y-113375000D01*
X108028571Y-113289285D01*
X108028571Y-113203571D01*
X108071428Y-113117857D01*
X108114285Y-113075000D01*
X108200000Y-113032142D01*
X108414285Y-113032142D01*
X108542857Y-113075000D01*
X109442857Y-113846428D02*
X109400000Y-113889285D01*
X109271428Y-113932142D01*
X109185714Y-113932142D01*
X109057142Y-113889285D01*
X108971428Y-113803571D01*
X108928571Y-113717857D01*
X108885714Y-113546428D01*
X108885714Y-113417857D01*
X108928571Y-113246428D01*
X108971428Y-113160714D01*
X109057142Y-113075000D01*
X109185714Y-113032142D01*
X109271428Y-113032142D01*
X109400000Y-113075000D01*
X109442857Y-113117857D01*
X110257142Y-113932142D02*
X109828571Y-113932142D01*
X109828571Y-113032142D01*
X108007142Y-118239285D02*
X108135714Y-118282142D01*
X108350000Y-118282142D01*
X108435714Y-118239285D01*
X108478571Y-118196428D01*
X108521428Y-118110714D01*
X108521428Y-118025000D01*
X108478571Y-117939285D01*
X108435714Y-117896428D01*
X108350000Y-117853571D01*
X108178571Y-117810714D01*
X108092857Y-117767857D01*
X108050000Y-117725000D01*
X108007142Y-117639285D01*
X108007142Y-117553571D01*
X108050000Y-117467857D01*
X108092857Y-117425000D01*
X108178571Y-117382142D01*
X108392857Y-117382142D01*
X108521428Y-117425000D01*
X108907142Y-118282142D02*
X108907142Y-117382142D01*
X109121428Y-117382142D01*
X109250000Y-117425000D01*
X109335714Y-117510714D01*
X109378571Y-117596428D01*
X109421428Y-117767857D01*
X109421428Y-117896428D01*
X109378571Y-118067857D01*
X109335714Y-118153571D01*
X109250000Y-118239285D01*
X109121428Y-118282142D01*
X108907142Y-118282142D01*
X109764285Y-118025000D02*
X110192857Y-118025000D01*
X109678571Y-118282142D02*
X109978571Y-117382142D01*
X110278571Y-118282142D01*
X86283333Y-144466666D02*
X86283333Y-144066666D01*
X86283333Y-144266666D02*
X86983333Y-144266666D01*
X86883333Y-144200000D01*
X86816666Y-144133333D01*
X86783333Y-144066666D01*
X86983333Y-144700000D02*
X86983333Y-145133333D01*
X86716666Y-144900000D01*
X86716666Y-145000000D01*
X86683333Y-145066666D01*
X86650000Y-145100000D01*
X86583333Y-145133333D01*
X86416666Y-145133333D01*
X86350000Y-145100000D01*
X86316666Y-145066666D01*
X86283333Y-145000000D01*
X86283333Y-144800000D01*
X86316666Y-144733333D01*
X86350000Y-144700000D01*
X86283333Y-139466666D02*
X86283333Y-139066666D01*
X86283333Y-139266666D02*
X86983333Y-139266666D01*
X86883333Y-139200000D01*
X86816666Y-139133333D01*
X86783333Y-139066666D01*
X86283333Y-140133333D02*
X86283333Y-139733333D01*
X86283333Y-139933333D02*
X86983333Y-139933333D01*
X86883333Y-139866666D01*
X86816666Y-139800000D01*
X86783333Y-139733333D01*
X86283333Y-136716666D02*
X86283333Y-136316666D01*
X86283333Y-136516666D02*
X86983333Y-136516666D01*
X86883333Y-136450000D01*
X86816666Y-136383333D01*
X86783333Y-136316666D01*
X86916666Y-136983333D02*
X86950000Y-137016666D01*
X86983333Y-137083333D01*
X86983333Y-137250000D01*
X86950000Y-137316666D01*
X86916666Y-137350000D01*
X86850000Y-137383333D01*
X86783333Y-137383333D01*
X86683333Y-137350000D01*
X86283333Y-136950000D01*
X86283333Y-137383333D01*
D11*
X75714285Y-133478571D02*
X76000000Y-133478571D01*
X76142857Y-133407142D01*
X76214285Y-133335714D01*
X76357142Y-133121428D01*
X76428571Y-132835714D01*
X76428571Y-132264285D01*
X76357142Y-132121428D01*
X76285714Y-132050000D01*
X76142857Y-131978571D01*
X75857142Y-131978571D01*
X75714285Y-132050000D01*
X75642857Y-132121428D01*
X75571428Y-132264285D01*
X75571428Y-132621428D01*
X75642857Y-132764285D01*
X75714285Y-132835714D01*
X75857142Y-132907142D01*
X76142857Y-132907142D01*
X76285714Y-132835714D01*
X76357142Y-132764285D01*
X76428571Y-132621428D01*
X86214285Y-133578571D02*
X85357142Y-133578571D01*
X85785714Y-133578571D02*
X85785714Y-132078571D01*
X85642857Y-132292857D01*
X85500000Y-132435714D01*
X85357142Y-132507142D01*
X87142857Y-132078571D02*
X87285714Y-132078571D01*
X87428571Y-132150000D01*
X87500000Y-132221428D01*
X87571428Y-132364285D01*
X87642857Y-132650000D01*
X87642857Y-133007142D01*
X87571428Y-133292857D01*
X87500000Y-133435714D01*
X87428571Y-133507142D01*
X87285714Y-133578571D01*
X87142857Y-133578571D01*
X87000000Y-133507142D01*
X86928571Y-133435714D01*
X86857142Y-133292857D01*
X86785714Y-133007142D01*
X86785714Y-132650000D01*
X86857142Y-132364285D01*
X86928571Y-132221428D01*
X87000000Y-132150000D01*
X87142857Y-132078571D01*
X81578571Y-131635714D02*
X83078571Y-131135714D01*
X81578571Y-130635714D01*
X83078571Y-130135714D02*
X82078571Y-130135714D01*
X81578571Y-130135714D02*
X81650000Y-130207142D01*
X81721428Y-130135714D01*
X81650000Y-130064285D01*
X81578571Y-130135714D01*
X81721428Y-130135714D01*
X82078571Y-129421428D02*
X83078571Y-129421428D01*
X82221428Y-129421428D02*
X82150000Y-129350000D01*
X82078571Y-129207142D01*
X82078571Y-128992857D01*
X82150000Y-128850000D01*
X82292857Y-128778571D01*
X83078571Y-128778571D01*
X85185714Y-128578571D02*
X84900000Y-128578571D01*
X84757142Y-128650000D01*
X84685714Y-128721428D01*
X84542857Y-128935714D01*
X84471428Y-129221428D01*
X84471428Y-129792857D01*
X84542857Y-129935714D01*
X84614285Y-130007142D01*
X84757142Y-130078571D01*
X85042857Y-130078571D01*
X85185714Y-130007142D01*
X85257142Y-129935714D01*
X85328571Y-129792857D01*
X85328571Y-129435714D01*
X85257142Y-129292857D01*
X85185714Y-129221428D01*
X85042857Y-129150000D01*
X84757142Y-129150000D01*
X84614285Y-129221428D01*
X84542857Y-129292857D01*
X84471428Y-129435714D01*
X85567142Y-118058571D02*
X84852857Y-118058571D01*
X84781428Y-118772857D01*
X84852857Y-118701428D01*
X84995714Y-118630000D01*
X85352857Y-118630000D01*
X85495714Y-118701428D01*
X85567142Y-118772857D01*
X85638571Y-118915714D01*
X85638571Y-119272857D01*
X85567142Y-119415714D01*
X85495714Y-119487142D01*
X85352857Y-119558571D01*
X84995714Y-119558571D01*
X84852857Y-119487142D01*
X84781428Y-119415714D01*
X79500000Y-116610000D02*
X79000000Y-116610000D01*
X80600000Y-117910000D02*
X77900000Y-117910000D01*
X80100000Y-117210000D02*
X78300000Y-117210000D01*
X79200000Y-119710000D02*
X79200000Y-117910000D01*
X79250000Y-129060000D02*
X79250000Y-130860000D01*
X78950000Y-132160000D02*
X79450000Y-132160000D01*
X77850000Y-130860000D02*
X80550000Y-130860000D01*
X78350000Y-131560000D02*
X80150000Y-131560000D01*
X50600000Y-114808571D02*
X51600000Y-114808571D01*
X50957142Y-116308571D01*
X51385714Y-111558571D02*
X51385714Y-112558571D01*
X51028571Y-110987142D02*
X50671428Y-112058571D01*
X51600000Y-112058571D01*
X50957142Y-107951428D02*
X50814285Y-107880000D01*
X50742857Y-107808571D01*
X50671428Y-107665714D01*
X50671428Y-107594285D01*
X50742857Y-107451428D01*
X50814285Y-107380000D01*
X50957142Y-107308571D01*
X51242857Y-107308571D01*
X51385714Y-107380000D01*
X51457142Y-107451428D01*
X51528571Y-107594285D01*
X51528571Y-107665714D01*
X51457142Y-107808571D01*
X51385714Y-107880000D01*
X51242857Y-107951428D01*
X50957142Y-107951428D01*
X50814285Y-108022857D01*
X50742857Y-108094285D01*
X50671428Y-108237142D01*
X50671428Y-108522857D01*
X50742857Y-108665714D01*
X50814285Y-108737142D01*
X50957142Y-108808571D01*
X51242857Y-108808571D01*
X51385714Y-108737142D01*
X51457142Y-108665714D01*
X51528571Y-108522857D01*
X51528571Y-108237142D01*
X51457142Y-108094285D01*
X51385714Y-108022857D01*
X51242857Y-107951428D01*
D10*
X108142857Y-107700000D02*
X108714285Y-107700000D01*
X108028571Y-108042857D02*
X108428571Y-106842857D01*
X108828571Y-108042857D01*
X109742857Y-106842857D02*
X109514285Y-106842857D01*
X109400000Y-106900000D01*
X109342857Y-106957142D01*
X109228571Y-107128571D01*
X109171428Y-107357142D01*
X109171428Y-107814285D01*
X109228571Y-107928571D01*
X109285714Y-107985714D01*
X109400000Y-108042857D01*
X109628571Y-108042857D01*
X109742857Y-107985714D01*
X109800000Y-107928571D01*
X109857142Y-107814285D01*
X109857142Y-107528571D01*
X109800000Y-107414285D01*
X109742857Y-107357142D01*
X109628571Y-107300000D01*
X109400000Y-107300000D01*
X109285714Y-107357142D01*
X109228571Y-107414285D01*
X109171428Y-107528571D01*
D11*
X117600000Y-139900000D02*
X118100000Y-139900000D01*
X117000000Y-139300000D02*
X118800000Y-139300000D01*
X116500000Y-138600000D02*
X119200000Y-138600000D01*
X117900000Y-136800000D02*
X117900000Y-138600000D01*
X114357142Y-139535714D02*
X114357142Y-138392857D01*
X114928571Y-138964285D02*
X113785714Y-138964285D01*
X113428571Y-136964285D02*
X113428571Y-137678571D01*
X114142857Y-137750000D01*
X114071428Y-137678571D01*
X114000000Y-137535714D01*
X114000000Y-137178571D01*
X114071428Y-137035714D01*
X114142857Y-136964285D01*
X114285714Y-136892857D01*
X114642857Y-136892857D01*
X114785714Y-136964285D01*
X114857142Y-137035714D01*
X114928571Y-137178571D01*
X114928571Y-137535714D01*
X114857142Y-137678571D01*
X114785714Y-137750000D01*
D13*
X91352380Y-141259523D02*
X91352380Y-144497619D01*
X91542857Y-144878571D01*
X91733333Y-145069047D01*
X92114285Y-145259523D01*
X92876190Y-145259523D01*
X93257142Y-145069047D01*
X93447619Y-144878571D01*
X93638095Y-144497619D01*
X93638095Y-141259523D01*
X95352380Y-145069047D02*
X95923809Y-145259523D01*
X96876190Y-145259523D01*
X97257142Y-145069047D01*
X97447619Y-144878571D01*
X97638095Y-144497619D01*
X97638095Y-144116666D01*
X97447619Y-143735714D01*
X97257142Y-143545238D01*
X96876190Y-143354761D01*
X96114285Y-143164285D01*
X95733333Y-142973809D01*
X95542857Y-142783333D01*
X95352380Y-142402380D01*
X95352380Y-142021428D01*
X95542857Y-141640476D01*
X95733333Y-141450000D01*
X96114285Y-141259523D01*
X97066666Y-141259523D01*
X97638095Y-141450000D01*
X100685714Y-143164285D02*
X101257142Y-143354761D01*
X101447619Y-143545238D01*
X101638095Y-143926190D01*
X101638095Y-144497619D01*
X101447619Y-144878571D01*
X101257142Y-145069047D01*
X100876190Y-145259523D01*
X99352380Y-145259523D01*
X99352380Y-141259523D01*
X100685714Y-141259523D01*
X101066666Y-141450000D01*
X101257142Y-141640476D01*
X101447619Y-142021428D01*
X101447619Y-142402380D01*
X101257142Y-142783333D01*
X101066666Y-142973809D01*
X100685714Y-143164285D01*
X99352380Y-143164285D01*
D11*
X102650000Y-108450000D02*
X101400000Y-107950000D01*
X102650000Y-108450000D02*
X101650000Y-109450000D01*
X98650000Y-108950000D02*
X102650000Y-108450000D01*
D14*
X95602380Y-108854761D02*
X96269047Y-110854761D01*
X96935714Y-108854761D01*
X97602380Y-110854761D02*
X97602380Y-109521428D01*
X97602380Y-108854761D02*
X97507142Y-108950000D01*
X97602380Y-109045238D01*
X97697619Y-108950000D01*
X97602380Y-108854761D01*
X97602380Y-109045238D01*
X98554761Y-109521428D02*
X98554761Y-110854761D01*
X98554761Y-109711904D02*
X98650000Y-109616666D01*
X98840476Y-109521428D01*
X99126190Y-109521428D01*
X99316666Y-109616666D01*
X99411904Y-109807142D01*
X99411904Y-110854761D01*
D10*
X108142857Y-112200000D02*
X108714285Y-112200000D01*
X108028571Y-112542857D02*
X108428571Y-111342857D01*
X108828571Y-112542857D01*
X109800000Y-111342857D02*
X109228571Y-111342857D01*
X109171428Y-111914285D01*
X109228571Y-111857142D01*
X109342857Y-111800000D01*
X109628571Y-111800000D01*
X109742857Y-111857142D01*
X109800000Y-111914285D01*
X109857142Y-112028571D01*
X109857142Y-112314285D01*
X109800000Y-112428571D01*
X109742857Y-112485714D01*
X109628571Y-112542857D01*
X109342857Y-112542857D01*
X109228571Y-112485714D01*
X109171428Y-112428571D01*
X108142857Y-116700000D02*
X108714285Y-116700000D01*
X108028571Y-117042857D02*
X108428571Y-115842857D01*
X108828571Y-117042857D01*
X109742857Y-116242857D02*
X109742857Y-117042857D01*
X109457142Y-115785714D02*
X109171428Y-116642857D01*
X109914285Y-116642857D01*
X108592857Y-123500000D02*
X109164285Y-123500000D01*
X108478571Y-123842857D02*
X108878571Y-122642857D01*
X109278571Y-123842857D01*
X109564285Y-122642857D02*
X110307142Y-122642857D01*
X109907142Y-123100000D01*
X110078571Y-123100000D01*
X110192857Y-123157142D01*
X110250000Y-123214285D01*
X110307142Y-123328571D01*
X110307142Y-123614285D01*
X110250000Y-123728571D01*
X110192857Y-123785714D01*
X110078571Y-123842857D01*
X109735714Y-123842857D01*
X109621428Y-123785714D01*
X109564285Y-123728571D01*
X108442857Y-125950000D02*
X109014285Y-125950000D01*
X108328571Y-126292857D02*
X108728571Y-125092857D01*
X109128571Y-126292857D01*
X109471428Y-125207142D02*
X109528571Y-125150000D01*
X109642857Y-125092857D01*
X109928571Y-125092857D01*
X110042857Y-125150000D01*
X110100000Y-125207142D01*
X110157142Y-125321428D01*
X110157142Y-125435714D01*
X110100000Y-125607142D01*
X109414285Y-126292857D01*
X110157142Y-126292857D01*
X108667857Y-132450000D02*
X109239285Y-132450000D01*
X108553571Y-132792857D02*
X108953571Y-131592857D01*
X109353571Y-132792857D01*
X110382142Y-132792857D02*
X109696428Y-132792857D01*
X110039285Y-132792857D02*
X110039285Y-131592857D01*
X109925000Y-131764285D01*
X109810714Y-131878571D01*
X109696428Y-131935714D01*
X108567857Y-135000000D02*
X109139285Y-135000000D01*
X108453571Y-135342857D02*
X108853571Y-134142857D01*
X109253571Y-135342857D01*
X109882142Y-134142857D02*
X109996428Y-134142857D01*
X110110714Y-134200000D01*
X110167857Y-134257142D01*
X110225000Y-134371428D01*
X110282142Y-134600000D01*
X110282142Y-134885714D01*
X110225000Y-135114285D01*
X110167857Y-135228571D01*
X110110714Y-135285714D01*
X109996428Y-135342857D01*
X109882142Y-135342857D01*
X109767857Y-135285714D01*
X109710714Y-135228571D01*
X109653571Y-135114285D01*
X109596428Y-134885714D01*
X109596428Y-134600000D01*
X109653571Y-134371428D01*
X109710714Y-134257142D01*
X109767857Y-134200000D01*
X109882142Y-134142857D01*
D11*
X81171428Y-98971428D02*
X81242857Y-98900000D01*
X81385714Y-98828571D01*
X81742857Y-98828571D01*
X81885714Y-98900000D01*
X81957142Y-98971428D01*
X82028571Y-99114285D01*
X82028571Y-99257142D01*
X81957142Y-99471428D01*
X81100000Y-100328571D01*
X82028571Y-100328571D01*
X69575000Y-99028571D02*
X70503571Y-99028571D01*
X70003571Y-99600000D01*
X70217857Y-99600000D01*
X70360714Y-99671428D01*
X70432142Y-99742857D01*
X70503571Y-99885714D01*
X70503571Y-100242857D01*
X70432142Y-100385714D01*
X70360714Y-100457142D01*
X70217857Y-100528571D01*
X69789285Y-100528571D01*
X69646428Y-100457142D01*
X69575000Y-100385714D01*
X98627380Y-95673809D02*
X97627380Y-95673809D01*
X97627380Y-95292857D01*
X97675000Y-95197619D01*
X97722619Y-95150000D01*
X97817857Y-95102380D01*
X97960714Y-95102380D01*
X98055952Y-95150000D01*
X98103571Y-95197619D01*
X98151190Y-95292857D01*
X98151190Y-95673809D01*
X98627380Y-94530952D02*
X98579761Y-94626190D01*
X98532142Y-94673809D01*
X98436904Y-94721428D01*
X98151190Y-94721428D01*
X98055952Y-94673809D01*
X98008333Y-94626190D01*
X97960714Y-94530952D01*
X97960714Y-94388095D01*
X98008333Y-94292857D01*
X98055952Y-94245238D01*
X98151190Y-94197619D01*
X98436904Y-94197619D01*
X98532142Y-94245238D01*
X98579761Y-94292857D01*
X98627380Y-94388095D01*
X98627380Y-94530952D01*
X97960714Y-93911904D02*
X97960714Y-93530952D01*
X97627380Y-93769047D02*
X98484523Y-93769047D01*
X98579761Y-93721428D01*
X98627380Y-93626190D01*
X98627380Y-93530952D01*
X98532142Y-93197619D02*
X98579761Y-93150000D01*
X98627380Y-93197619D01*
X98579761Y-93245238D01*
X98532142Y-93197619D01*
X98627380Y-93197619D01*
X98008333Y-93197619D02*
X98055952Y-93150000D01*
X98103571Y-93197619D01*
X98055952Y-93245238D01*
X98008333Y-93197619D01*
X98103571Y-93197619D01*
X98341666Y-92769047D02*
X98341666Y-92292857D01*
X98627380Y-92864285D02*
X97627380Y-92530952D01*
X98627380Y-92197619D01*
X97627380Y-91959523D02*
X97627380Y-91292857D01*
X98627380Y-91721428D01*
X97627380Y-90769047D02*
X97865476Y-90769047D01*
X97770238Y-91007142D02*
X97865476Y-90769047D01*
X97770238Y-90530952D01*
X98055952Y-90911904D02*
X97865476Y-90769047D01*
X98055952Y-90626190D01*
D10*
X77150000Y-100970000D02*
X75150000Y-100970000D01*
X75150000Y-98830000D02*
X77150000Y-98830000D01*
X103070000Y-93870000D02*
X104400000Y-93870000D01*
X103070000Y-95200000D02*
X103070000Y-93870000D01*
X103070000Y-96470000D02*
X105730000Y-96470000D01*
X105730000Y-96470000D02*
X105730000Y-101610000D01*
X103070000Y-96470000D02*
X103070000Y-101610000D01*
X103070000Y-101610000D02*
X105730000Y-101610000D01*
X85180000Y-148430000D02*
X83850000Y-148430000D01*
X85180000Y-147100000D02*
X85180000Y-148430000D01*
X85180000Y-145830000D02*
X82520000Y-145830000D01*
X82520000Y-145830000D02*
X82520000Y-133070000D01*
X85180000Y-145830000D02*
X85180000Y-133070000D01*
X85180000Y-133070000D02*
X82520000Y-133070000D01*
X78670000Y-115490000D02*
X81330000Y-115490000D01*
X78670000Y-105270000D02*
X78670000Y-115490000D01*
X81330000Y-105270000D02*
X81330000Y-115490000D01*
X78670000Y-105270000D02*
X81330000Y-105270000D01*
X78670000Y-104000000D02*
X78670000Y-102670000D01*
X78670000Y-102670000D02*
X80000000Y-102670000D01*
X65570000Y-131310000D02*
X73190000Y-131310000D01*
X64810000Y-132070000D02*
X65570000Y-131310000D01*
X65570000Y-139690000D02*
X64810000Y-138930000D01*
X73190000Y-139690000D02*
X65570000Y-139690000D01*
X64810000Y-138930000D02*
X64810000Y-137010000D01*
X64810000Y-132070000D02*
X64810000Y-133990000D01*
X73190000Y-131310000D02*
X73190000Y-133990000D01*
X73190000Y-139690000D02*
X73190000Y-137010000D01*
X92460000Y-111760000D02*
X92460000Y-114440000D01*
X92460000Y-120140000D02*
X92460000Y-117460000D01*
X100840000Y-119380000D02*
X100840000Y-117460000D01*
X100840000Y-112520000D02*
X100840000Y-114440000D01*
X92460000Y-111760000D02*
X100080000Y-111760000D01*
X100080000Y-111760000D02*
X100840000Y-112520000D01*
X100840000Y-119380000D02*
X100080000Y-120140000D01*
X100080000Y-120140000D02*
X92460000Y-120140000D01*
X75390000Y-124450000D02*
G75*
G03*
X75390000Y-124450000I-5090000J0D01*
G01*
X75350000Y-124450000D02*
X65250000Y-124450000D01*
X75350000Y-124490000D02*
X65250000Y-124490000D01*
X75350000Y-124530000D02*
X65250000Y-124530000D01*
X75349000Y-124570000D02*
X65251000Y-124570000D01*
X75348000Y-124610000D02*
X65252000Y-124610000D01*
X75347000Y-124650000D02*
X65253000Y-124650000D01*
X75345000Y-124690000D02*
X65255000Y-124690000D01*
X75343000Y-124730000D02*
X71280000Y-124730000D01*
X69320000Y-124730000D02*
X65257000Y-124730000D01*
X75340000Y-124770000D02*
X71280000Y-124770000D01*
X69320000Y-124770000D02*
X65260000Y-124770000D01*
X75338000Y-124810000D02*
X71280000Y-124810000D01*
X69320000Y-124810000D02*
X65262000Y-124810000D01*
X75335000Y-124850000D02*
X71280000Y-124850000D01*
X69320000Y-124850000D02*
X65265000Y-124850000D01*
X75331000Y-124890000D02*
X71280000Y-124890000D01*
X69320000Y-124890000D02*
X65269000Y-124890000D01*
X75328000Y-124930000D02*
X71280000Y-124930000D01*
X69320000Y-124930000D02*
X65272000Y-124930000D01*
X75324000Y-124970000D02*
X71280000Y-124970000D01*
X69320000Y-124970000D02*
X65276000Y-124970000D01*
X75320000Y-125010000D02*
X71280000Y-125010000D01*
X69320000Y-125010000D02*
X65280000Y-125010000D01*
X75315000Y-125050000D02*
X71280000Y-125050000D01*
X69320000Y-125050000D02*
X65285000Y-125050000D01*
X75310000Y-125090000D02*
X71280000Y-125090000D01*
X69320000Y-125090000D02*
X65290000Y-125090000D01*
X75305000Y-125130000D02*
X71280000Y-125130000D01*
X69320000Y-125130000D02*
X65295000Y-125130000D01*
X75299000Y-125171000D02*
X71280000Y-125171000D01*
X69320000Y-125171000D02*
X65301000Y-125171000D01*
X75293000Y-125211000D02*
X71280000Y-125211000D01*
X69320000Y-125211000D02*
X65307000Y-125211000D01*
X75287000Y-125251000D02*
X71280000Y-125251000D01*
X69320000Y-125251000D02*
X65313000Y-125251000D01*
X75281000Y-125291000D02*
X71280000Y-125291000D01*
X69320000Y-125291000D02*
X65319000Y-125291000D01*
X75274000Y-125331000D02*
X71280000Y-125331000D01*
X69320000Y-125331000D02*
X65326000Y-125331000D01*
X75267000Y-125371000D02*
X71280000Y-125371000D01*
X69320000Y-125371000D02*
X65333000Y-125371000D01*
X75259000Y-125411000D02*
X71280000Y-125411000D01*
X67720000Y-125411000D02*
X65341000Y-125411000D01*
X75251000Y-125451000D02*
X71280000Y-125451000D01*
X67720000Y-125451000D02*
X65349000Y-125451000D01*
X75243000Y-125491000D02*
X71280000Y-125491000D01*
X67720000Y-125491000D02*
X65357000Y-125491000D01*
X75235000Y-125531000D02*
X71280000Y-125531000D01*
X67720000Y-125531000D02*
X65365000Y-125531000D01*
X75226000Y-125571000D02*
X71280000Y-125571000D01*
X67720000Y-125571000D02*
X65374000Y-125571000D01*
X75217000Y-125611000D02*
X71280000Y-125611000D01*
X67720000Y-125611000D02*
X65383000Y-125611000D01*
X75207000Y-125651000D02*
X71280000Y-125651000D01*
X67720000Y-125651000D02*
X65393000Y-125651000D01*
X75197000Y-125691000D02*
X71280000Y-125691000D01*
X67720000Y-125691000D02*
X65403000Y-125691000D01*
X75187000Y-125731000D02*
X71280000Y-125731000D01*
X67720000Y-125731000D02*
X65413000Y-125731000D01*
X75176000Y-125771000D02*
X71280000Y-125771000D01*
X67720000Y-125771000D02*
X65424000Y-125771000D01*
X75165000Y-125811000D02*
X71280000Y-125811000D01*
X67720000Y-125811000D02*
X65435000Y-125811000D01*
X75154000Y-125851000D02*
X71280000Y-125851000D01*
X67720000Y-125851000D02*
X65446000Y-125851000D01*
X75143000Y-125891000D02*
X71280000Y-125891000D01*
X67720000Y-125891000D02*
X65457000Y-125891000D01*
X75131000Y-125931000D02*
X71280000Y-125931000D01*
X67720000Y-125931000D02*
X65469000Y-125931000D01*
X75118000Y-125971000D02*
X71280000Y-125971000D01*
X67720000Y-125971000D02*
X65482000Y-125971000D01*
X75106000Y-126011000D02*
X71280000Y-126011000D01*
X67720000Y-126011000D02*
X65494000Y-126011000D01*
X75092000Y-126051000D02*
X71280000Y-126051000D01*
X67720000Y-126051000D02*
X65508000Y-126051000D01*
X75079000Y-126091000D02*
X71280000Y-126091000D01*
X67720000Y-126091000D02*
X65521000Y-126091000D01*
X75065000Y-126131000D02*
X71280000Y-126131000D01*
X67720000Y-126131000D02*
X65535000Y-126131000D01*
X75051000Y-126171000D02*
X71280000Y-126171000D01*
X67720000Y-126171000D02*
X65549000Y-126171000D01*
X75037000Y-126211000D02*
X71280000Y-126211000D01*
X67720000Y-126211000D02*
X65563000Y-126211000D01*
X75022000Y-126251000D02*
X71280000Y-126251000D01*
X67720000Y-126251000D02*
X65578000Y-126251000D01*
X75006000Y-126291000D02*
X71280000Y-126291000D01*
X67720000Y-126291000D02*
X65594000Y-126291000D01*
X74991000Y-126331000D02*
X71280000Y-126331000D01*
X67720000Y-126331000D02*
X65609000Y-126331000D01*
X74974000Y-126371000D02*
X71280000Y-126371000D01*
X67720000Y-126371000D02*
X65626000Y-126371000D01*
X74958000Y-126411000D02*
X71280000Y-126411000D01*
X67720000Y-126411000D02*
X65642000Y-126411000D01*
X74941000Y-126451000D02*
X71280000Y-126451000D01*
X67720000Y-126451000D02*
X65659000Y-126451000D01*
X74924000Y-126491000D02*
X71280000Y-126491000D01*
X67720000Y-126491000D02*
X65676000Y-126491000D01*
X74906000Y-126531000D02*
X71280000Y-126531000D01*
X67720000Y-126531000D02*
X65694000Y-126531000D01*
X74888000Y-126571000D02*
X71280000Y-126571000D01*
X67720000Y-126571000D02*
X65712000Y-126571000D01*
X74869000Y-126611000D02*
X71280000Y-126611000D01*
X67720000Y-126611000D02*
X65731000Y-126611000D01*
X74850000Y-126651000D02*
X71280000Y-126651000D01*
X67720000Y-126651000D02*
X65750000Y-126651000D01*
X74831000Y-126691000D02*
X69679000Y-126691000D01*
X67720000Y-126691000D02*
X65769000Y-126691000D01*
X74811000Y-126731000D02*
X69679000Y-126731000D01*
X67720000Y-126731000D02*
X65789000Y-126731000D01*
X74791000Y-126771000D02*
X69679000Y-126771000D01*
X67720000Y-126771000D02*
X65809000Y-126771000D01*
X74770000Y-126811000D02*
X69679000Y-126811000D01*
X67720000Y-126811000D02*
X65830000Y-126811000D01*
X74749000Y-126851000D02*
X69679000Y-126851000D01*
X67720000Y-126851000D02*
X65851000Y-126851000D01*
X74728000Y-126891000D02*
X69679000Y-126891000D01*
X67720000Y-126891000D02*
X65872000Y-126891000D01*
X74705000Y-126931000D02*
X69679000Y-126931000D01*
X67720000Y-126931000D02*
X65895000Y-126931000D01*
X74683000Y-126971000D02*
X69679000Y-126971000D01*
X67720000Y-126971000D02*
X65917000Y-126971000D01*
X74660000Y-127011000D02*
X69679000Y-127011000D01*
X67720000Y-127011000D02*
X65940000Y-127011000D01*
X74636000Y-127051000D02*
X69679000Y-127051000D01*
X67720000Y-127051000D02*
X65964000Y-127051000D01*
X74612000Y-127091000D02*
X69679000Y-127091000D01*
X67720000Y-127091000D02*
X65988000Y-127091000D01*
X74588000Y-127131000D02*
X69679000Y-127131000D01*
X67720000Y-127131000D02*
X66012000Y-127131000D01*
X74563000Y-127171000D02*
X69679000Y-127171000D01*
X67720000Y-127171000D02*
X66037000Y-127171000D01*
X74537000Y-127211000D02*
X69679000Y-127211000D01*
X67720000Y-127211000D02*
X66063000Y-127211000D01*
X74511000Y-127251000D02*
X69679000Y-127251000D01*
X67720000Y-127251000D02*
X66089000Y-127251000D01*
X74485000Y-127291000D02*
X69679000Y-127291000D01*
X67720000Y-127291000D02*
X66115000Y-127291000D01*
X74457000Y-127331000D02*
X69679000Y-127331000D01*
X67720000Y-127331000D02*
X66143000Y-127331000D01*
X74430000Y-127371000D02*
X66170000Y-127371000D01*
X74401000Y-127411000D02*
X66199000Y-127411000D01*
X74372000Y-127451000D02*
X66228000Y-127451000D01*
X74343000Y-127491000D02*
X66257000Y-127491000D01*
X74313000Y-127531000D02*
X66287000Y-127531000D01*
X74282000Y-127571000D02*
X66318000Y-127571000D01*
X74251000Y-127611000D02*
X66349000Y-127611000D01*
X74219000Y-127651000D02*
X66381000Y-127651000D01*
X74186000Y-127691000D02*
X66414000Y-127691000D01*
X74153000Y-127731000D02*
X66447000Y-127731000D01*
X74119000Y-127771000D02*
X66481000Y-127771000D01*
X74084000Y-127811000D02*
X66516000Y-127811000D01*
X74048000Y-127851000D02*
X66552000Y-127851000D01*
X74012000Y-127891000D02*
X66588000Y-127891000D01*
X73975000Y-127931000D02*
X66625000Y-127931000D01*
X73937000Y-127971000D02*
X66663000Y-127971000D01*
X73898000Y-128011000D02*
X66702000Y-128011000D01*
X73859000Y-128051000D02*
X66741000Y-128051000D01*
X73818000Y-128091000D02*
X66782000Y-128091000D01*
X73777000Y-128131000D02*
X66823000Y-128131000D01*
X73735000Y-128171000D02*
X66865000Y-128171000D01*
X73691000Y-128211000D02*
X66909000Y-128211000D01*
X73647000Y-128251000D02*
X66953000Y-128251000D01*
X73602000Y-128291000D02*
X66998000Y-128291000D01*
X73555000Y-128331000D02*
X67045000Y-128331000D01*
X73507000Y-128371000D02*
X67093000Y-128371000D01*
X73458000Y-128411000D02*
X67142000Y-128411000D01*
X73408000Y-128451000D02*
X67192000Y-128451000D01*
X73357000Y-128491000D02*
X67243000Y-128491000D01*
X73304000Y-128531000D02*
X67296000Y-128531000D01*
X73249000Y-128571000D02*
X67351000Y-128571000D01*
X73194000Y-128611000D02*
X67406000Y-128611000D01*
X73136000Y-128651000D02*
X67464000Y-128651000D01*
X73077000Y-128691000D02*
X67523000Y-128691000D01*
X73015000Y-128731000D02*
X67585000Y-128731000D01*
X72952000Y-128771000D02*
X67648000Y-128771000D01*
X72887000Y-128811000D02*
X67713000Y-128811000D01*
X72819000Y-128851000D02*
X67781000Y-128851000D01*
X72749000Y-128891000D02*
X67851000Y-128891000D01*
X72677000Y-128931000D02*
X67923000Y-128931000D01*
X72601000Y-128971000D02*
X67999000Y-128971000D01*
X72522000Y-129011000D02*
X68078000Y-129011000D01*
X72440000Y-129051000D02*
X68160000Y-129051000D01*
X72353000Y-129091000D02*
X68247000Y-129091000D01*
X72262000Y-129131000D02*
X68338000Y-129131000D01*
X72166000Y-129171000D02*
X68434000Y-129171000D01*
X72063000Y-129211000D02*
X68537000Y-129211000D01*
X71954000Y-129251000D02*
X68646000Y-129251000D01*
X71836000Y-129291000D02*
X68764000Y-129291000D01*
X71707000Y-129331000D02*
X68893000Y-129331000D01*
X71565000Y-129371000D02*
X69035000Y-129371000D01*
X71404000Y-129411000D02*
X69196000Y-129411000D01*
X71213000Y-129451000D02*
X69387000Y-129451000D01*
X70972000Y-129491000D02*
X69628000Y-129491000D01*
X70579000Y-129531000D02*
X70021000Y-129531000D01*
X70300000Y-121000000D02*
X70300000Y-122200000D01*
X70950000Y-121600000D02*
X69650000Y-121600000D01*
X52500000Y-114680000D02*
X52500000Y-116580000D01*
X52500000Y-116580000D02*
X57200000Y-116580000D01*
X52500000Y-114680000D02*
X57200000Y-114680000D01*
X52500000Y-107180000D02*
X57200000Y-107180000D01*
X52500000Y-109080000D02*
X57200000Y-109080000D01*
X52500000Y-107180000D02*
X52500000Y-109080000D01*
X52500000Y-110930000D02*
X52500000Y-112830000D01*
X52500000Y-112830000D02*
X57200000Y-112830000D01*
X52500000Y-110930000D02*
X57200000Y-110930000D01*
X72620000Y-147540000D02*
X62460000Y-147540000D01*
X72620000Y-148810000D02*
X72620000Y-141190000D01*
X72620000Y-141190000D02*
X62460000Y-141190000D01*
X62460000Y-141190000D02*
X62460000Y-148810000D01*
X62460000Y-148810000D02*
X72620000Y-148810000D01*
X118410000Y-136030000D02*
X118410000Y-133370000D01*
X113270000Y-136030000D02*
X118410000Y-136030000D01*
X113270000Y-133370000D02*
X118410000Y-133370000D01*
X113270000Y-136030000D02*
X113270000Y-133370000D01*
X112000000Y-136030000D02*
X110670000Y-136030000D01*
X110670000Y-136030000D02*
X110670000Y-134700000D01*
X110670000Y-126901425D02*
X110670000Y-125571425D01*
X112000000Y-126901425D02*
X110670000Y-126901425D01*
X113270000Y-126901425D02*
X113270000Y-124241425D01*
X113270000Y-124241425D02*
X118410000Y-124241425D01*
X113270000Y-126901425D02*
X118410000Y-126901425D01*
X118410000Y-126901425D02*
X118410000Y-124241425D01*
X110670000Y-117772855D02*
X110670000Y-116442855D01*
X112000000Y-117772855D02*
X110670000Y-117772855D01*
X113270000Y-117772855D02*
X113270000Y-115112855D01*
X113270000Y-115112855D02*
X118410000Y-115112855D01*
X113270000Y-117772855D02*
X118410000Y-117772855D01*
X118410000Y-117772855D02*
X118410000Y-115112855D01*
X110670000Y-113208570D02*
X110670000Y-111878570D01*
X112000000Y-113208570D02*
X110670000Y-113208570D01*
X113270000Y-113208570D02*
X113270000Y-110548570D01*
X113270000Y-110548570D02*
X118410000Y-110548570D01*
X113270000Y-113208570D02*
X118410000Y-113208570D01*
X118410000Y-113208570D02*
X118410000Y-110548570D01*
X118410000Y-108644285D02*
X118410000Y-105984285D01*
X113270000Y-108644285D02*
X118410000Y-108644285D01*
X113270000Y-105984285D02*
X118410000Y-105984285D01*
X113270000Y-108644285D02*
X113270000Y-105984285D01*
X112000000Y-108644285D02*
X110670000Y-108644285D01*
X110670000Y-108644285D02*
X110670000Y-107314285D01*
X110670000Y-104080000D02*
X110670000Y-102750000D01*
X112000000Y-104080000D02*
X110670000Y-104080000D01*
X113270000Y-104080000D02*
X113270000Y-101420000D01*
X113270000Y-101420000D02*
X118410000Y-101420000D01*
X113270000Y-104080000D02*
X118410000Y-104080000D01*
X118410000Y-104080000D02*
X118410000Y-101420000D01*
X86280000Y-120580000D02*
X86280000Y-121910000D01*
X84950000Y-120580000D02*
X86280000Y-120580000D01*
X83680000Y-120580000D02*
X83680000Y-123240000D01*
X83680000Y-123240000D02*
X78540000Y-123240000D01*
X83680000Y-120580000D02*
X78540000Y-120580000D01*
X78540000Y-120580000D02*
X78540000Y-123240000D01*
X78540000Y-125580000D02*
X78540000Y-128240000D01*
X83680000Y-125580000D02*
X78540000Y-125580000D01*
X83680000Y-128240000D02*
X78540000Y-128240000D01*
X83680000Y-125580000D02*
X83680000Y-128240000D01*
X84950000Y-125580000D02*
X86280000Y-125580000D01*
X86280000Y-125580000D02*
X86280000Y-126910000D01*
X87820000Y-107120000D02*
X89150000Y-107120000D01*
X87820000Y-108450000D02*
X87820000Y-107120000D01*
X87820000Y-109720000D02*
X90480000Y-109720000D01*
X90480000Y-109720000D02*
X90480000Y-145340000D01*
X87820000Y-109720000D02*
X87820000Y-145340000D01*
X87820000Y-145340000D02*
X90480000Y-145340000D01*
X103060000Y-145340000D02*
X105720000Y-145340000D01*
X103060000Y-109720000D02*
X103060000Y-145340000D01*
X105720000Y-109720000D02*
X105720000Y-145340000D01*
X103060000Y-109720000D02*
X105720000Y-109720000D01*
X103060000Y-108450000D02*
X103060000Y-107120000D01*
X103060000Y-107120000D02*
X104390000Y-107120000D01*
X65100000Y-114560000D02*
X67100000Y-114560000D01*
X67100000Y-116700000D02*
X65100000Y-116700000D01*
X67100000Y-109200000D02*
X65100000Y-109200000D01*
X65100000Y-107060000D02*
X67100000Y-107060000D01*
X67100000Y-112950000D02*
X65100000Y-112950000D01*
X65100000Y-110810000D02*
X67100000Y-110810000D01*
X64325000Y-98830000D02*
X66325000Y-98830000D01*
X66325000Y-100970000D02*
X64325000Y-100970000D01*
D15*
X94500000Y-88500000D02*
X94500000Y-91300000D01*
X89500000Y-88500000D02*
X89500000Y-91300000D01*
D10*
X96900000Y-90100000D02*
X96900000Y-99200000D01*
X87100000Y-90100000D02*
X87100000Y-99200000D01*
X96900000Y-90100000D02*
X87100000Y-90100000D01*
X96900000Y-99200000D02*
X87100000Y-99200000D01*
X69150000Y-95380000D02*
X69150000Y-93880000D01*
X67900000Y-91380000D02*
X63400000Y-91380000D01*
X62150000Y-93880000D02*
X62150000Y-95380000D01*
X63400000Y-97880000D02*
X67900000Y-97880000D01*
X74850000Y-97830000D02*
X79350000Y-97830000D01*
X73600000Y-93830000D02*
X73600000Y-95330000D01*
X79350000Y-91330000D02*
X74850000Y-91330000D01*
X80600000Y-95330000D02*
X80600000Y-93830000D01*
D11*
X50800000Y-120510000D02*
X61600000Y-120510000D01*
X61600000Y-120510000D02*
X61600000Y-139610000D01*
X61600000Y-139610000D02*
X50800000Y-139610000D01*
X50800000Y-139610000D02*
X50800000Y-120510000D01*
D10*
X80100000Y-133070000D02*
X77440000Y-133070000D01*
X80100000Y-145830000D02*
X80100000Y-133070000D01*
X77440000Y-145830000D02*
X77440000Y-133070000D01*
X80100000Y-145830000D02*
X77440000Y-145830000D01*
X80100000Y-147100000D02*
X80100000Y-148430000D01*
X80100000Y-148430000D02*
X78770000Y-148430000D01*
X98730000Y-101070000D02*
X98730000Y-102400000D01*
X97400000Y-101070000D02*
X98730000Y-101070000D01*
X96130000Y-101070000D02*
X96130000Y-103730000D01*
X96130000Y-103730000D02*
X88450000Y-103730000D01*
X96130000Y-101070000D02*
X88450000Y-101070000D01*
X88450000Y-101070000D02*
X88450000Y-103730000D01*
X118400000Y-131465710D02*
X118400000Y-128805710D01*
X110720000Y-131465710D02*
X118400000Y-131465710D01*
X110720000Y-128805710D02*
X118400000Y-128805710D01*
X110720000Y-131465710D02*
X110720000Y-128805710D01*
X109450000Y-131465710D02*
X108120000Y-131465710D01*
X108120000Y-131465710D02*
X108120000Y-130135710D01*
X108120000Y-122337140D02*
X108120000Y-121007140D01*
X109450000Y-122337140D02*
X108120000Y-122337140D01*
X110720000Y-122337140D02*
X110720000Y-119677140D01*
X110720000Y-119677140D02*
X118400000Y-119677140D01*
X110720000Y-122337140D02*
X118400000Y-122337140D01*
X118400000Y-122337140D02*
X118400000Y-119677140D01*
D11*
X75933333Y-102552380D02*
X75600000Y-102076190D01*
X75361904Y-102552380D02*
X75361904Y-101552380D01*
X75742857Y-101552380D01*
X75838095Y-101600000D01*
X75885714Y-101647619D01*
X75933333Y-101742857D01*
X75933333Y-101885714D01*
X75885714Y-101980952D01*
X75838095Y-102028571D01*
X75742857Y-102076190D01*
X75361904Y-102076190D01*
X76504761Y-101980952D02*
X76409523Y-101933333D01*
X76361904Y-101885714D01*
X76314285Y-101790476D01*
X76314285Y-101742857D01*
X76361904Y-101647619D01*
X76409523Y-101600000D01*
X76504761Y-101552380D01*
X76695238Y-101552380D01*
X76790476Y-101600000D01*
X76838095Y-101647619D01*
X76885714Y-101742857D01*
X76885714Y-101790476D01*
X76838095Y-101885714D01*
X76790476Y-101933333D01*
X76695238Y-101980952D01*
X76504761Y-101980952D01*
X76409523Y-102028571D01*
X76361904Y-102076190D01*
X76314285Y-102171428D01*
X76314285Y-102361904D01*
X76361904Y-102457142D01*
X76409523Y-102504761D01*
X76504761Y-102552380D01*
X76695238Y-102552380D01*
X76790476Y-102504761D01*
X76838095Y-102457142D01*
X76885714Y-102361904D01*
X76885714Y-102171428D01*
X76838095Y-102076190D01*
X76790476Y-102028571D01*
X76695238Y-101980952D01*
X89316666Y-92652380D02*
X89316666Y-93366666D01*
X89269047Y-93509523D01*
X89173809Y-93604761D01*
X89030952Y-93652380D01*
X88935714Y-93652380D01*
X89745238Y-92747619D02*
X89792857Y-92700000D01*
X89888095Y-92652380D01*
X90126190Y-92652380D01*
X90221428Y-92700000D01*
X90269047Y-92747619D01*
X90316666Y-92842857D01*
X90316666Y-92938095D01*
X90269047Y-93080952D01*
X89697619Y-93652380D01*
X90316666Y-93652380D01*
X69040476Y-153302380D02*
X69040476Y-154016666D01*
X68992857Y-154159523D01*
X68897619Y-154254761D01*
X68754761Y-154302380D01*
X68659523Y-154302380D01*
X70040476Y-154302380D02*
X69469047Y-154302380D01*
X69754761Y-154302380D02*
X69754761Y-153302380D01*
X69659523Y-153445238D01*
X69564285Y-153540476D01*
X69469047Y-153588095D01*
X70992857Y-154302380D02*
X70421428Y-154302380D01*
X70707142Y-154302380D02*
X70707142Y-153302380D01*
X70611904Y-153445238D01*
X70516666Y-153540476D01*
X70421428Y-153588095D01*
X36100476Y-125452380D02*
X36100476Y-126166666D01*
X36052857Y-126309523D01*
X35957619Y-126404761D01*
X35814761Y-126452380D01*
X35719523Y-126452380D01*
X37100476Y-126452380D02*
X36529047Y-126452380D01*
X36814761Y-126452380D02*
X36814761Y-125452380D01*
X36719523Y-125595238D01*
X36624285Y-125690476D01*
X36529047Y-125738095D01*
X37957619Y-125452380D02*
X37767142Y-125452380D01*
X37671904Y-125500000D01*
X37624285Y-125547619D01*
X37529047Y-125690476D01*
X37481428Y-125880952D01*
X37481428Y-126261904D01*
X37529047Y-126357142D01*
X37576666Y-126404761D01*
X37671904Y-126452380D01*
X37862380Y-126452380D01*
X37957619Y-126404761D01*
X38005238Y-126357142D01*
X38052857Y-126261904D01*
X38052857Y-126023809D01*
X38005238Y-125928571D01*
X37957619Y-125880952D01*
X37862380Y-125833333D01*
X37671904Y-125833333D01*
X37576666Y-125880952D01*
X37529047Y-125928571D01*
X37481428Y-126023809D01*
X63257142Y-138566666D02*
X63304761Y-138614285D01*
X63352380Y-138757142D01*
X63352380Y-138852380D01*
X63304761Y-138995238D01*
X63209523Y-139090476D01*
X63114285Y-139138095D01*
X62923809Y-139185714D01*
X62780952Y-139185714D01*
X62590476Y-139138095D01*
X62495238Y-139090476D01*
X62400000Y-138995238D01*
X62352380Y-138852380D01*
X62352380Y-138757142D01*
X62400000Y-138614285D01*
X62447619Y-138566666D01*
X63352380Y-137614285D02*
X63352380Y-138185714D01*
X63352380Y-137900000D02*
X62352380Y-137900000D01*
X62495238Y-137995238D01*
X62590476Y-138090476D01*
X62638095Y-138185714D01*
X63839047Y-139471428D02*
X64600952Y-139471428D01*
X64220000Y-139852380D02*
X64220000Y-139090476D01*
X96483333Y-121807142D02*
X96435714Y-121854761D01*
X96292857Y-121902380D01*
X96197619Y-121902380D01*
X96054761Y-121854761D01*
X95959523Y-121759523D01*
X95911904Y-121664285D01*
X95864285Y-121473809D01*
X95864285Y-121330952D01*
X95911904Y-121140476D01*
X95959523Y-121045238D01*
X96054761Y-120950000D01*
X96197619Y-120902380D01*
X96292857Y-120902380D01*
X96435714Y-120950000D01*
X96483333Y-120997619D01*
X96864285Y-120997619D02*
X96911904Y-120950000D01*
X97007142Y-120902380D01*
X97245238Y-120902380D01*
X97340476Y-120950000D01*
X97388095Y-120997619D01*
X97435714Y-121092857D01*
X97435714Y-121188095D01*
X97388095Y-121330952D01*
X96816666Y-121902380D01*
X97435714Y-121902380D01*
X101049047Y-112121428D02*
X101810952Y-112121428D01*
X101430000Y-112502380D02*
X101430000Y-111740476D01*
X74633333Y-120007142D02*
X74585714Y-120054761D01*
X74442857Y-120102380D01*
X74347619Y-120102380D01*
X74204761Y-120054761D01*
X74109523Y-119959523D01*
X74061904Y-119864285D01*
X74014285Y-119673809D01*
X74014285Y-119530952D01*
X74061904Y-119340476D01*
X74109523Y-119245238D01*
X74204761Y-119150000D01*
X74347619Y-119102380D01*
X74442857Y-119102380D01*
X74585714Y-119150000D01*
X74633333Y-119197619D01*
X74966666Y-119102380D02*
X75585714Y-119102380D01*
X75252380Y-119483333D01*
X75395238Y-119483333D01*
X75490476Y-119530952D01*
X75538095Y-119578571D01*
X75585714Y-119673809D01*
X75585714Y-119911904D01*
X75538095Y-120007142D01*
X75490476Y-120054761D01*
X75395238Y-120102380D01*
X75109523Y-120102380D01*
X75014285Y-120054761D01*
X74966666Y-120007142D01*
X59111904Y-116082380D02*
X59111904Y-115082380D01*
X59350000Y-115082380D01*
X59492857Y-115130000D01*
X59588095Y-115225238D01*
X59635714Y-115320476D01*
X59683333Y-115510952D01*
X59683333Y-115653809D01*
X59635714Y-115844285D01*
X59588095Y-115939523D01*
X59492857Y-116034761D01*
X59350000Y-116082380D01*
X59111904Y-116082380D01*
X60635714Y-116082380D02*
X60064285Y-116082380D01*
X60350000Y-116082380D02*
X60350000Y-115082380D01*
X60254761Y-115225238D01*
X60159523Y-115320476D01*
X60064285Y-115368095D01*
X59111904Y-108582380D02*
X59111904Y-107582380D01*
X59350000Y-107582380D01*
X59492857Y-107630000D01*
X59588095Y-107725238D01*
X59635714Y-107820476D01*
X59683333Y-108010952D01*
X59683333Y-108153809D01*
X59635714Y-108344285D01*
X59588095Y-108439523D01*
X59492857Y-108534761D01*
X59350000Y-108582380D01*
X59111904Y-108582380D01*
X60064285Y-107677619D02*
X60111904Y-107630000D01*
X60207142Y-107582380D01*
X60445238Y-107582380D01*
X60540476Y-107630000D01*
X60588095Y-107677619D01*
X60635714Y-107772857D01*
X60635714Y-107868095D01*
X60588095Y-108010952D01*
X60016666Y-108582380D01*
X60635714Y-108582380D01*
X59361904Y-112332380D02*
X59361904Y-111332380D01*
X59600000Y-111332380D01*
X59742857Y-111380000D01*
X59838095Y-111475238D01*
X59885714Y-111570476D01*
X59933333Y-111760952D01*
X59933333Y-111903809D01*
X59885714Y-112094285D01*
X59838095Y-112189523D01*
X59742857Y-112284761D01*
X59600000Y-112332380D01*
X59361904Y-112332380D01*
X60266666Y-111332380D02*
X60885714Y-111332380D01*
X60552380Y-111713333D01*
X60695238Y-111713333D01*
X60790476Y-111760952D01*
X60838095Y-111808571D01*
X60885714Y-111903809D01*
X60885714Y-112141904D01*
X60838095Y-112237142D01*
X60790476Y-112284761D01*
X60695238Y-112332380D01*
X60409523Y-112332380D01*
X60314285Y-112284761D01*
X60266666Y-112237142D01*
X66416666Y-151202380D02*
X66416666Y-151916666D01*
X66369047Y-152059523D01*
X66273809Y-152154761D01*
X66130952Y-152202380D01*
X66035714Y-152202380D01*
X67416666Y-152202380D02*
X66845238Y-152202380D01*
X67130952Y-152202380D02*
X67130952Y-151202380D01*
X67035714Y-151345238D01*
X66940476Y-151440476D01*
X66845238Y-151488095D01*
X121202380Y-135033333D02*
X121916666Y-135033333D01*
X122059523Y-135080952D01*
X122154761Y-135176190D01*
X122202380Y-135319047D01*
X122202380Y-135414285D01*
X121202380Y-134652380D02*
X121202380Y-134033333D01*
X121583333Y-134366666D01*
X121583333Y-134223809D01*
X121630952Y-134128571D01*
X121678571Y-134080952D01*
X121773809Y-134033333D01*
X122011904Y-134033333D01*
X122107142Y-134080952D01*
X122154761Y-134128571D01*
X122202380Y-134223809D01*
X122202380Y-134509523D01*
X122154761Y-134604761D01*
X122107142Y-134652380D01*
X120952380Y-125976188D02*
X121666666Y-125976188D01*
X121809523Y-126023807D01*
X121904761Y-126119045D01*
X121952380Y-126261902D01*
X121952380Y-126357140D01*
X121285714Y-125071426D02*
X121952380Y-125071426D01*
X120904761Y-125309521D02*
X121619047Y-125547616D01*
X121619047Y-124928569D01*
X120952380Y-116776188D02*
X121666666Y-116776188D01*
X121809523Y-116823807D01*
X121904761Y-116919045D01*
X121952380Y-117061902D01*
X121952380Y-117157140D01*
X120952380Y-115871426D02*
X120952380Y-116061902D01*
X121000000Y-116157140D01*
X121047619Y-116204759D01*
X121190476Y-116299997D01*
X121380952Y-116347616D01*
X121761904Y-116347616D01*
X121857142Y-116299997D01*
X121904761Y-116252378D01*
X121952380Y-116157140D01*
X121952380Y-115966664D01*
X121904761Y-115871426D01*
X121857142Y-115823807D01*
X121761904Y-115776188D01*
X121523809Y-115776188D01*
X121428571Y-115823807D01*
X121380952Y-115871426D01*
X121333333Y-115966664D01*
X121333333Y-116157140D01*
X121380952Y-116252378D01*
X121428571Y-116299997D01*
X121523809Y-116347616D01*
X120952380Y-112211903D02*
X121666666Y-112211903D01*
X121809523Y-112259522D01*
X121904761Y-112354760D01*
X121952380Y-112497617D01*
X121952380Y-112592855D01*
X120952380Y-111830950D02*
X120952380Y-111164284D01*
X121952380Y-111592855D01*
X121452380Y-107647618D02*
X122166666Y-107647618D01*
X122309523Y-107695237D01*
X122404761Y-107790475D01*
X122452380Y-107933332D01*
X122452380Y-108028570D01*
X121880952Y-107028570D02*
X121833333Y-107123808D01*
X121785714Y-107171427D01*
X121690476Y-107219046D01*
X121642857Y-107219046D01*
X121547619Y-107171427D01*
X121500000Y-107123808D01*
X121452380Y-107028570D01*
X121452380Y-106838094D01*
X121500000Y-106742856D01*
X121547619Y-106695237D01*
X121642857Y-106647618D01*
X121690476Y-106647618D01*
X121785714Y-106695237D01*
X121833333Y-106742856D01*
X121880952Y-106838094D01*
X121880952Y-107028570D01*
X121928571Y-107123808D01*
X121976190Y-107171427D01*
X122071428Y-107219046D01*
X122261904Y-107219046D01*
X122357142Y-107171427D01*
X122404761Y-107123808D01*
X122452380Y-107028570D01*
X122452380Y-106838094D01*
X122404761Y-106742856D01*
X122357142Y-106695237D01*
X122261904Y-106647618D01*
X122071428Y-106647618D01*
X121976190Y-106695237D01*
X121928571Y-106742856D01*
X121880952Y-106838094D01*
X120702380Y-103083333D02*
X121416666Y-103083333D01*
X121559523Y-103130952D01*
X121654761Y-103226190D01*
X121702380Y-103369047D01*
X121702380Y-103464285D01*
X121702380Y-102559523D02*
X121702380Y-102369047D01*
X121654761Y-102273809D01*
X121607142Y-102226190D01*
X121464285Y-102130952D01*
X121273809Y-102083333D01*
X120892857Y-102083333D01*
X120797619Y-102130952D01*
X120750000Y-102178571D01*
X120702380Y-102273809D01*
X120702380Y-102464285D01*
X120750000Y-102559523D01*
X120797619Y-102607142D01*
X120892857Y-102654761D01*
X121130952Y-102654761D01*
X121226190Y-102607142D01*
X121273809Y-102559523D01*
X121321428Y-102464285D01*
X121321428Y-102273809D01*
X121273809Y-102178571D01*
X121226190Y-102130952D01*
X121130952Y-102083333D01*
X46552380Y-122319523D02*
X47266666Y-122319523D01*
X47409523Y-122367142D01*
X47504761Y-122462380D01*
X47552380Y-122605238D01*
X47552380Y-122700476D01*
X47552380Y-121319523D02*
X47552380Y-121890952D01*
X47552380Y-121605238D02*
X46552380Y-121605238D01*
X46695238Y-121700476D01*
X46790476Y-121795714D01*
X46838095Y-121890952D01*
X46647619Y-120938571D02*
X46600000Y-120890952D01*
X46552380Y-120795714D01*
X46552380Y-120557619D01*
X46600000Y-120462380D01*
X46647619Y-120414761D01*
X46742857Y-120367142D01*
X46838095Y-120367142D01*
X46980952Y-120414761D01*
X47552380Y-120986190D01*
X47552380Y-120367142D01*
X48352380Y-127909523D02*
X49066666Y-127909523D01*
X49209523Y-127957142D01*
X49304761Y-128052380D01*
X49352380Y-128195238D01*
X49352380Y-128290476D01*
X49352380Y-126909523D02*
X49352380Y-127480952D01*
X49352380Y-127195238D02*
X48352380Y-127195238D01*
X48495238Y-127290476D01*
X48590476Y-127385714D01*
X48638095Y-127480952D01*
X48352380Y-126576190D02*
X48352380Y-125957142D01*
X48733333Y-126290476D01*
X48733333Y-126147619D01*
X48780952Y-126052380D01*
X48828571Y-126004761D01*
X48923809Y-125957142D01*
X49161904Y-125957142D01*
X49257142Y-126004761D01*
X49304761Y-126052380D01*
X49352380Y-126147619D01*
X49352380Y-126433333D01*
X49304761Y-126528571D01*
X49257142Y-126576190D01*
X88411904Y-151352380D02*
X88411904Y-150352380D01*
X88792857Y-150352380D01*
X88888095Y-150400000D01*
X88935714Y-150447619D01*
X88983333Y-150542857D01*
X88983333Y-150685714D01*
X88935714Y-150780952D01*
X88888095Y-150828571D01*
X88792857Y-150876190D01*
X88411904Y-150876190D01*
X89935714Y-151352380D02*
X89364285Y-151352380D01*
X89650000Y-151352380D02*
X89650000Y-150352380D01*
X89554761Y-150495238D01*
X89459523Y-150590476D01*
X89364285Y-150638095D01*
X103651904Y-151602380D02*
X103651904Y-150602380D01*
X104032857Y-150602380D01*
X104128095Y-150650000D01*
X104175714Y-150697619D01*
X104223333Y-150792857D01*
X104223333Y-150935714D01*
X104175714Y-151030952D01*
X104128095Y-151078571D01*
X104032857Y-151126190D01*
X103651904Y-151126190D01*
X104604285Y-150697619D02*
X104651904Y-150650000D01*
X104747142Y-150602380D01*
X104985238Y-150602380D01*
X105080476Y-150650000D01*
X105128095Y-150697619D01*
X105175714Y-150792857D01*
X105175714Y-150888095D01*
X105128095Y-151030952D01*
X104556666Y-151602380D01*
X105175714Y-151602380D01*
X70433333Y-116082380D02*
X70100000Y-115606190D01*
X69861904Y-116082380D02*
X69861904Y-115082380D01*
X70242857Y-115082380D01*
X70338095Y-115130000D01*
X70385714Y-115177619D01*
X70433333Y-115272857D01*
X70433333Y-115415714D01*
X70385714Y-115510952D01*
X70338095Y-115558571D01*
X70242857Y-115606190D01*
X69861904Y-115606190D01*
X70766666Y-115082380D02*
X71385714Y-115082380D01*
X71052380Y-115463333D01*
X71195238Y-115463333D01*
X71290476Y-115510952D01*
X71338095Y-115558571D01*
X71385714Y-115653809D01*
X71385714Y-115891904D01*
X71338095Y-115987142D01*
X71290476Y-116034761D01*
X71195238Y-116082380D01*
X70909523Y-116082380D01*
X70814285Y-116034761D01*
X70766666Y-115987142D01*
X70183333Y-108582380D02*
X69850000Y-108106190D01*
X69611904Y-108582380D02*
X69611904Y-107582380D01*
X69992857Y-107582380D01*
X70088095Y-107630000D01*
X70135714Y-107677619D01*
X70183333Y-107772857D01*
X70183333Y-107915714D01*
X70135714Y-108010952D01*
X70088095Y-108058571D01*
X69992857Y-108106190D01*
X69611904Y-108106190D01*
X71040476Y-107915714D02*
X71040476Y-108582380D01*
X70802380Y-107534761D02*
X70564285Y-108249047D01*
X71183333Y-108249047D01*
X70433333Y-112332380D02*
X70100000Y-111856190D01*
X69861904Y-112332380D02*
X69861904Y-111332380D01*
X70242857Y-111332380D01*
X70338095Y-111380000D01*
X70385714Y-111427619D01*
X70433333Y-111522857D01*
X70433333Y-111665714D01*
X70385714Y-111760952D01*
X70338095Y-111808571D01*
X70242857Y-111856190D01*
X69861904Y-111856190D01*
X71290476Y-111332380D02*
X71100000Y-111332380D01*
X71004761Y-111380000D01*
X70957142Y-111427619D01*
X70861904Y-111570476D01*
X70814285Y-111760952D01*
X70814285Y-112141904D01*
X70861904Y-112237142D01*
X70909523Y-112284761D01*
X71004761Y-112332380D01*
X71195238Y-112332380D01*
X71290476Y-112284761D01*
X71338095Y-112237142D01*
X71385714Y-112141904D01*
X71385714Y-111903809D01*
X71338095Y-111808571D01*
X71290476Y-111760952D01*
X71195238Y-111713333D01*
X71004761Y-111713333D01*
X70909523Y-111760952D01*
X70861904Y-111808571D01*
X70814285Y-111903809D01*
X65058333Y-102552380D02*
X64725000Y-102076190D01*
X64486904Y-102552380D02*
X64486904Y-101552380D01*
X64867857Y-101552380D01*
X64963095Y-101600000D01*
X65010714Y-101647619D01*
X65058333Y-101742857D01*
X65058333Y-101885714D01*
X65010714Y-101980952D01*
X64963095Y-102028571D01*
X64867857Y-102076190D01*
X64486904Y-102076190D01*
X65391666Y-101552380D02*
X66058333Y-101552380D01*
X65629761Y-102552380D01*
X102202380Y-84845238D02*
X101726190Y-85178571D01*
X102202380Y-85416666D02*
X101202380Y-85416666D01*
X101202380Y-85035714D01*
X101250000Y-84940476D01*
X101297619Y-84892857D01*
X101392857Y-84845238D01*
X101535714Y-84845238D01*
X101630952Y-84892857D01*
X101678571Y-84940476D01*
X101726190Y-85035714D01*
X101726190Y-85416666D01*
X101202380Y-84559523D02*
X102202380Y-84226190D01*
X101202380Y-83892857D01*
X102202380Y-83035714D02*
X102202380Y-83607142D01*
X102202380Y-83321428D02*
X101202380Y-83321428D01*
X101345238Y-83416666D01*
X101440476Y-83511904D01*
X101488095Y-83607142D01*
X63566666Y-88684761D02*
X63709523Y-88732380D01*
X63947619Y-88732380D01*
X64042857Y-88684761D01*
X64090476Y-88637142D01*
X64138095Y-88541904D01*
X64138095Y-88446666D01*
X64090476Y-88351428D01*
X64042857Y-88303809D01*
X63947619Y-88256190D01*
X63757142Y-88208571D01*
X63661904Y-88160952D01*
X63614285Y-88113333D01*
X63566666Y-88018095D01*
X63566666Y-87922857D01*
X63614285Y-87827619D01*
X63661904Y-87780000D01*
X63757142Y-87732380D01*
X63995238Y-87732380D01*
X64138095Y-87780000D01*
X64471428Y-87732380D02*
X64709523Y-88732380D01*
X64900000Y-88018095D01*
X65090476Y-88732380D01*
X65328571Y-87732380D01*
X66233333Y-88732380D02*
X65661904Y-88732380D01*
X65947619Y-88732380D02*
X65947619Y-87732380D01*
X65852380Y-87875238D01*
X65757142Y-87970476D01*
X65661904Y-88018095D01*
X76916666Y-87134761D02*
X77059523Y-87182380D01*
X77297619Y-87182380D01*
X77392857Y-87134761D01*
X77440476Y-87087142D01*
X77488095Y-86991904D01*
X77488095Y-86896666D01*
X77440476Y-86801428D01*
X77392857Y-86753809D01*
X77297619Y-86706190D01*
X77107142Y-86658571D01*
X77011904Y-86610952D01*
X76964285Y-86563333D01*
X76916666Y-86468095D01*
X76916666Y-86372857D01*
X76964285Y-86277619D01*
X77011904Y-86230000D01*
X77107142Y-86182380D01*
X77345238Y-86182380D01*
X77488095Y-86230000D01*
X77821428Y-86182380D02*
X78059523Y-87182380D01*
X78250000Y-86468095D01*
X78440476Y-87182380D01*
X78678571Y-86182380D01*
X79011904Y-86277619D02*
X79059523Y-86230000D01*
X79154761Y-86182380D01*
X79392857Y-86182380D01*
X79488095Y-86230000D01*
X79535714Y-86277619D01*
X79583333Y-86372857D01*
X79583333Y-86468095D01*
X79535714Y-86610952D01*
X78964285Y-87182380D01*
X79583333Y-87182380D01*
X47104761Y-132143333D02*
X47152380Y-132000476D01*
X47152380Y-131762380D01*
X47104761Y-131667142D01*
X47057142Y-131619523D01*
X46961904Y-131571904D01*
X46866666Y-131571904D01*
X46771428Y-131619523D01*
X46723809Y-131667142D01*
X46676190Y-131762380D01*
X46628571Y-131952857D01*
X46580952Y-132048095D01*
X46533333Y-132095714D01*
X46438095Y-132143333D01*
X46342857Y-132143333D01*
X46247619Y-132095714D01*
X46200000Y-132048095D01*
X46152380Y-131952857D01*
X46152380Y-131714761D01*
X46200000Y-131571904D01*
X46152380Y-131238571D02*
X47152380Y-131000476D01*
X46438095Y-130810000D01*
X47152380Y-130619523D01*
X46152380Y-130381428D01*
X46152380Y-130095714D02*
X46152380Y-129476666D01*
X46533333Y-129810000D01*
X46533333Y-129667142D01*
X46580952Y-129571904D01*
X46628571Y-129524285D01*
X46723809Y-129476666D01*
X46961904Y-129476666D01*
X47057142Y-129524285D01*
X47104761Y-129571904D01*
X47152380Y-129667142D01*
X47152380Y-129952857D01*
X47104761Y-130048095D01*
X47057142Y-130095714D01*
X69210476Y-150552380D02*
X69210476Y-151266666D01*
X69162857Y-151409523D01*
X69067619Y-151504761D01*
X68924761Y-151552380D01*
X68829523Y-151552380D01*
X70210476Y-151552380D02*
X69639047Y-151552380D01*
X69924761Y-151552380D02*
X69924761Y-150552380D01*
X69829523Y-150695238D01*
X69734285Y-150790476D01*
X69639047Y-150838095D01*
X70829523Y-150552380D02*
X70924761Y-150552380D01*
X71020000Y-150600000D01*
X71067619Y-150647619D01*
X71115238Y-150742857D01*
X71162857Y-150933333D01*
X71162857Y-151171428D01*
X71115238Y-151361904D01*
X71067619Y-151457142D01*
X71020000Y-151504761D01*
X70924761Y-151552380D01*
X70829523Y-151552380D01*
X70734285Y-151504761D01*
X70686666Y-151457142D01*
X70639047Y-151361904D01*
X70591428Y-151171428D01*
X70591428Y-150933333D01*
X70639047Y-150742857D01*
X70686666Y-150647619D01*
X70734285Y-150600000D01*
X70829523Y-150552380D01*
X54238095Y-151952380D02*
X54238095Y-150952380D01*
X54238095Y-151428571D02*
X54809523Y-151428571D01*
X54809523Y-151952380D02*
X54809523Y-150952380D01*
X55761904Y-150952380D02*
X55285714Y-150952380D01*
X55238095Y-151428571D01*
X55285714Y-151380952D01*
X55380952Y-151333333D01*
X55619047Y-151333333D01*
X55714285Y-151380952D01*
X55761904Y-151428571D01*
X55809523Y-151523809D01*
X55809523Y-151761904D01*
X55761904Y-151857142D01*
X55714285Y-151904761D01*
X55619047Y-151952380D01*
X55380952Y-151952380D01*
X55285714Y-151904761D01*
X55238095Y-151857142D01*
X54338095Y-88077380D02*
X54338095Y-87077380D01*
X54338095Y-87553571D02*
X54909523Y-87553571D01*
X54909523Y-88077380D02*
X54909523Y-87077380D01*
X55814285Y-87077380D02*
X55623809Y-87077380D01*
X55528571Y-87125000D01*
X55480952Y-87172619D01*
X55385714Y-87315476D01*
X55338095Y-87505952D01*
X55338095Y-87886904D01*
X55385714Y-87982142D01*
X55433333Y-88029761D01*
X55528571Y-88077380D01*
X55719047Y-88077380D01*
X55814285Y-88029761D01*
X55861904Y-87982142D01*
X55909523Y-87886904D01*
X55909523Y-87648809D01*
X55861904Y-87553571D01*
X55814285Y-87505952D01*
X55719047Y-87458333D01*
X55528571Y-87458333D01*
X55433333Y-87505952D01*
X55385714Y-87553571D01*
X55338095Y-87648809D01*
X114513095Y-88377380D02*
X114513095Y-87377380D01*
X114513095Y-87853571D02*
X115084523Y-87853571D01*
X115084523Y-88377380D02*
X115084523Y-87377380D01*
X115465476Y-87377380D02*
X116132142Y-87377380D01*
X115703571Y-88377380D01*
X114238095Y-145452380D02*
X114238095Y-144452380D01*
X114238095Y-144928571D02*
X114809523Y-144928571D01*
X114809523Y-145452380D02*
X114809523Y-144452380D01*
X115428571Y-144880952D02*
X115333333Y-144833333D01*
X115285714Y-144785714D01*
X115238095Y-144690476D01*
X115238095Y-144642857D01*
X115285714Y-144547619D01*
X115333333Y-144500000D01*
X115428571Y-144452380D01*
X115619047Y-144452380D01*
X115714285Y-144500000D01*
X115761904Y-144547619D01*
X115809523Y-144642857D01*
X115809523Y-144690476D01*
X115761904Y-144785714D01*
X115714285Y-144833333D01*
X115619047Y-144880952D01*
X115428571Y-144880952D01*
X115333333Y-144928571D01*
X115285714Y-144976190D01*
X115238095Y-145071428D01*
X115238095Y-145261904D01*
X115285714Y-145357142D01*
X115333333Y-145404761D01*
X115428571Y-145452380D01*
X115619047Y-145452380D01*
X115714285Y-145404761D01*
X115761904Y-145357142D01*
X115809523Y-145261904D01*
X115809523Y-145071428D01*
X115761904Y-144976190D01*
X115714285Y-144928571D01*
X115619047Y-144880952D01*
X91112380Y-87099523D02*
X91826666Y-87099523D01*
X91969523Y-87147142D01*
X92064761Y-87242380D01*
X92112380Y-87385238D01*
X92112380Y-87480476D01*
X92112380Y-86099523D02*
X92112380Y-86670952D01*
X92112380Y-86385238D02*
X91112380Y-86385238D01*
X91255238Y-86480476D01*
X91350476Y-86575714D01*
X91398095Y-86670952D01*
X91112380Y-85766190D02*
X91112380Y-85099523D01*
X92112380Y-85528095D01*
X122452380Y-130704758D02*
X123166666Y-130704758D01*
X123309523Y-130752377D01*
X123404761Y-130847615D01*
X123452380Y-130990472D01*
X123452380Y-131085710D01*
X122452380Y-129752377D02*
X122452380Y-130228567D01*
X122928571Y-130276186D01*
X122880952Y-130228567D01*
X122833333Y-130133329D01*
X122833333Y-129895234D01*
X122880952Y-129799996D01*
X122928571Y-129752377D01*
X123023809Y-129704758D01*
X123261904Y-129704758D01*
X123357142Y-129752377D01*
X123404761Y-129799996D01*
X123452380Y-129895234D01*
X123452380Y-130133329D01*
X123404761Y-130228567D01*
X123357142Y-130276186D01*
X121652380Y-121816663D02*
X122366666Y-121816663D01*
X122509523Y-121864282D01*
X122604761Y-121959520D01*
X122652380Y-122102378D01*
X122652380Y-122197616D01*
X122652380Y-120816663D02*
X122652380Y-121388092D01*
X122652380Y-121102378D02*
X121652380Y-121102378D01*
X121795238Y-121197616D01*
X121890476Y-121292854D01*
X121938095Y-121388092D01*
X121985714Y-119959520D02*
X122652380Y-119959520D01*
X121604761Y-120197616D02*
X122319047Y-120435711D01*
X122319047Y-119816663D01*
M02*
